EESchema Schematic File Version 4
LIBS:Top_Battery_Plate-cache
EELAYER 30 0
EELAYER END
$Descr A3 16535 11693
encoding utf-8
Sheet 1 7
Title "Power Management Board"
Date "2017-10-10"
Rev "0.4"
Comp "DROP Lab, University of Michigan"
Comment1 "Designed by Eduardo Iscar"
Comment2 ""
Comment3 ""
Comment4 ""
$EndDescr
$Sheet
S 2250 9400 600  350 
U 57B5FC30
F0 "Bat_ina219" 60
F1 "ina219.sch" 60
F2 "SCL" I L 2250 9500 60 
F3 "SDA" I L 2250 9650 60 
F4 "IN+" I R 2850 9500 60 
F5 "IN-" I R 2850 9650 60 
$EndSheet
$Sheet
S 2250 8100 600  400 
U 57B82EA7
F0 "ina219_5" 60
F1 "ina219_5.sch" 60
F2 "SCL" I L 2250 8250 60 
F3 "SDA" I L 2250 8350 60 
F4 "IN+" I R 2850 8350 60 
F5 "IN-" I R 2850 8250 60 
$EndSheet
$Comp
L power:GNDD #PWR01
U 1 1 5734F15F
P 9850 10950
F 0 "#PWR01" H 9850 10700 50  0001 C CNN
F 1 "GNDD" H 9850 10800 50  0000 C CNN
F 2 "" H 9850 10950 50  0000 C CNN
F 3 "" H 9850 10950 50  0000 C CNN
	1    9850 10950
	1    0    0    -1  
$EndComp
$Comp
L Top_Battery_Plate-rescue:BatCont-Sphere_lib J3
U 1 1 5734F1AE
P 8800 10650
F 0 "J3" H 9100 10950 60  0000 C CNN
F 1 "BatCont" H 8800 10950 60  0000 C CNN
F 2 "Sphere_lib_footprint:Keystone_5202_Battery_Contact" H 8800 10650 60  0001 C CNN
F 3 "" H 8800 10650 60  0000 C CNN
F 4 "534-5202" H 7950 8150 50  0001 C CNN "Mouser#"
F 5 "J2" H 7950 8150 50  0001 C CNN "PartsLib#"
	1    8800 10650
	0    -1   -1   0   
$EndComp
$Comp
L Top_Battery_Plate-rescue:BatCont-Sphere_lib J5
U 1 1 5734F296
P 9100 10650
F 0 "J5" H 9400 10950 60  0000 C CNN
F 1 "BatCont" H 9100 10950 60  0000 C CNN
F 2 "Sphere_lib_footprint:Keystone_5202_Battery_Contact" H 9100 10650 60  0001 C CNN
F 3 "" H 9100 10650 60  0000 C CNN
F 4 "534-5202" H 7950 8150 50  0001 C CNN "Mouser#"
F 5 "J2" H 7950 8150 50  0001 C CNN "PartsLib#"
	1    9100 10650
	0    -1   -1   0   
$EndComp
$Comp
L Top_Battery_Plate-rescue:BatCont-Sphere_lib J11
U 1 1 5734F2C0
P 10000 10650
F 0 "J11" H 10300 10950 60  0000 C CNN
F 1 "BatCont" H 10000 10950 60  0000 C CNN
F 2 "Sphere_lib_footprint:Keystone_5202_Battery_Contact" H 10000 10650 60  0001 C CNN
F 3 "" H 10000 10650 60  0000 C CNN
F 4 "534-5202" H 7950 8150 50  0001 C CNN "Mouser#"
F 5 "J2" H 7950 8150 50  0001 C CNN "PartsLib#"
	1    10000 10650
	0    -1   -1   0   
$EndComp
$Comp
L Top_Battery_Plate-rescue:BatCont-Sphere_lib J9
U 1 1 5734F2EB
P 9700 10650
F 0 "J9" H 10000 10950 60  0000 C CNN
F 1 "BatCont" H 9700 10950 60  0000 C CNN
F 2 "Sphere_lib_footprint:Keystone_5202_Battery_Contact" H 9700 10650 60  0001 C CNN
F 3 "" H 9700 10650 60  0000 C CNN
F 4 "534-5202" H 7950 8150 50  0001 C CNN "Mouser#"
F 5 "J2" H 7950 8150 50  0001 C CNN "PartsLib#"
	1    9700 10650
	0    -1   -1   0   
$EndComp
$Comp
L Top_Battery_Plate-rescue:BatCont-Sphere_lib J7
U 1 1 5734F311
P 9400 10650
F 0 "J7" H 9700 10950 60  0000 C CNN
F 1 "BatCont" H 9400 10950 60  0000 C CNN
F 2 "Sphere_lib_footprint:Keystone_5202_Battery_Contact" H 9400 10650 60  0001 C CNN
F 3 "" H 9400 10650 60  0000 C CNN
F 4 "534-5202" H 7950 8150 50  0001 C CNN "Mouser#"
F 5 "J2" H 7950 8150 50  0001 C CNN "PartsLib#"
	1    9400 10650
	0    -1   -1   0   
$EndComp
$Comp
L Top_Battery_Plate-rescue:BatCont-Sphere_lib J13
U 1 1 5734F3BE
P 10300 10650
F 0 "J13" H 10600 10950 60  0000 C CNN
F 1 "BatCont" H 10300 10950 60  0000 C CNN
F 2 "Sphere_lib_footprint:Keystone_5202_Battery_Contact" H 10300 10650 60  0001 C CNN
F 3 "" H 10300 10650 60  0000 C CNN
F 4 "534-5202" H 7950 8150 50  0001 C CNN "Mouser#"
F 5 "J2" H 7950 8150 50  0001 C CNN "PartsLib#"
	1    10300 10650
	0    -1   -1   0   
$EndComp
$Comp
L Top_Battery_Plate-rescue:BatCont-Sphere_lib J15
U 1 1 5734F3F0
P 10600 10650
F 0 "J15" H 10900 10950 60  0000 C CNN
F 1 "BatCont" H 10600 10950 60  0000 C CNN
F 2 "Sphere_lib_footprint:Keystone_5202_Battery_Contact" H 10600 10650 60  0001 C CNN
F 3 "" H 10600 10650 60  0000 C CNN
F 4 "534-5202" H 7950 8150 50  0001 C CNN "Mouser#"
F 5 "J2" H 7950 8150 50  0001 C CNN "PartsLib#"
	1    10600 10650
	0    -1   -1   0   
$EndComp
$Comp
L Top_Battery_Plate-rescue:BatCont-Sphere_lib J17
U 1 1 5734F41D
P 10900 10650
F 0 "J17" H 11200 10950 60  0000 C CNN
F 1 "BatCont" H 10900 10950 60  0000 C CNN
F 2 "Sphere_lib_footprint:Keystone_5202_Battery_Contact" H 10900 10650 60  0001 C CNN
F 3 "" H 10900 10650 60  0000 C CNN
F 4 "534-5202" H 7950 8150 50  0001 C CNN "Mouser#"
F 5 "J2" H 7950 8150 50  0001 C CNN "PartsLib#"
	1    10900 10650
	0    -1   -1   0   
$EndComp
$Comp
L Top_Battery_Plate-rescue:BatCont-Sphere_lib J18
U 1 1 5734F44D
P 11200 10650
F 0 "J18" H 11500 10950 60  0000 C CNN
F 1 "BatCont" H 11200 10950 60  0000 C CNN
F 2 "Sphere_lib_footprint:Keystone_5202_Battery_Contact" H 11200 10650 60  0001 C CNN
F 3 "" H 11200 10650 60  0000 C CNN
F 4 "534-5202" H 7950 8150 50  0001 C CNN "Mouser#"
F 5 "J2" H 7950 8150 50  0001 C CNN "PartsLib#"
	1    11200 10650
	0    -1   -1   0   
$EndComp
$Comp
L Top_Battery_Plate-rescue:BatCont-Sphere_lib J1
U 1 1 5734F7E7
P 8500 9750
F 0 "J1" H 8050 9850 60  0000 C CNN
F 1 "BatCont" H 8350 9850 60  0000 C CNN
F 2 "Sphere_lib_footprint:Keystone_5224_Battery_Contact" H 8500 9750 60  0001 C CNN
F 3 "" H 8500 9750 60  0000 C CNN
F 4 "534-5224" H 7950 8150 50  0001 C CNN "Mouser#"
F 5 "J1" H 7950 8150 50  0001 C CNN "PartsLib#"
	1    8500 9750
	0    1    1    0   
$EndComp
$Comp
L Top_Battery_Plate-rescue:BatCont-Sphere_lib J2
U 1 1 5734F7ED
P 8800 9750
F 0 "J2" H 8350 9850 60  0000 C CNN
F 1 "BatCont" H 8650 9850 60  0000 C CNN
F 2 "Sphere_lib_footprint:Keystone_5224_Battery_Contact" H 8800 9750 60  0001 C CNN
F 3 "" H 8800 9750 60  0000 C CNN
F 4 "534-5224" H 7950 8150 50  0001 C CNN "Mouser#"
F 5 "J1" H 7950 8150 50  0001 C CNN "PartsLib#"
	1    8800 9750
	0    1    1    0   
$EndComp
$Comp
L Top_Battery_Plate-rescue:BatCont-Sphere_lib J8
U 1 1 5734F7F3
P 9700 9750
F 0 "J8" H 9250 9850 60  0000 C CNN
F 1 "BatCont" H 9550 9850 60  0000 C CNN
F 2 "Sphere_lib_footprint:Keystone_5224_Battery_Contact" H 9700 9750 60  0001 C CNN
F 3 "" H 9700 9750 60  0000 C CNN
F 4 "534-5224" H 7950 8150 50  0001 C CNN "Mouser#"
F 5 "J1" H 7950 8150 50  0001 C CNN "PartsLib#"
	1    9700 9750
	0    1    1    0   
$EndComp
$Comp
L Top_Battery_Plate-rescue:BatCont-Sphere_lib J6
U 1 1 5734F7F9
P 9400 9750
F 0 "J6" H 8950 9850 60  0000 C CNN
F 1 "BatCont" H 9250 9850 60  0000 C CNN
F 2 "Sphere_lib_footprint:Keystone_5224_Battery_Contact" H 9400 9750 60  0001 C CNN
F 3 "" H 9400 9750 60  0000 C CNN
F 4 "534-5224" H 7950 8150 50  0001 C CNN "Mouser#"
F 5 "J1" H 7950 8150 50  0001 C CNN "PartsLib#"
	1    9400 9750
	0    1    1    0   
$EndComp
$Comp
L Top_Battery_Plate-rescue:BatCont-Sphere_lib J4
U 1 1 5734F7FF
P 9100 9750
F 0 "J4" H 8650 9850 60  0000 C CNN
F 1 "BatCont" H 8950 9850 60  0000 C CNN
F 2 "Sphere_lib_footprint:Keystone_5224_Battery_Contact" H 9100 9750 60  0001 C CNN
F 3 "" H 9100 9750 60  0000 C CNN
F 4 "534-5224" H 7950 8150 50  0001 C CNN "Mouser#"
F 5 "J1" H 7950 8150 50  0001 C CNN "PartsLib#"
	1    9100 9750
	0    1    1    0   
$EndComp
$Comp
L Top_Battery_Plate-rescue:BatCont-Sphere_lib J10
U 1 1 5734F805
P 10000 9750
F 0 "J10" H 9550 9850 60  0000 C CNN
F 1 "BatCont" H 9850 9850 60  0000 C CNN
F 2 "Sphere_lib_footprint:Keystone_5224_Battery_Contact" H 10000 9750 60  0001 C CNN
F 3 "" H 10000 9750 60  0000 C CNN
F 4 "534-5224" H 7950 8150 50  0001 C CNN "Mouser#"
F 5 "J1" H 7950 8150 50  0001 C CNN "PartsLib#"
	1    10000 9750
	0    1    1    0   
$EndComp
$Comp
L Top_Battery_Plate-rescue:BatCont-Sphere_lib J12
U 1 1 5734F80B
P 10300 9750
F 0 "J12" H 9850 9850 60  0000 C CNN
F 1 "BatCont" H 10150 9850 60  0000 C CNN
F 2 "Sphere_lib_footprint:Keystone_5224_Battery_Contact" H 10300 9750 60  0001 C CNN
F 3 "" H 10300 9750 60  0000 C CNN
F 4 "534-5224" H 7950 8150 50  0001 C CNN "Mouser#"
F 5 "J1" H 7950 8150 50  0001 C CNN "PartsLib#"
	1    10300 9750
	0    1    1    0   
$EndComp
$Comp
L Top_Battery_Plate-rescue:BatCont-Sphere_lib J14
U 1 1 5734F811
P 10600 9750
F 0 "J14" H 10150 9850 60  0000 C CNN
F 1 "BatCont" H 10450 9850 60  0000 C CNN
F 2 "Sphere_lib_footprint:Keystone_5224_Battery_Contact" H 10600 9750 60  0001 C CNN
F 3 "" H 10600 9750 60  0000 C CNN
F 4 "534-5224" H 7950 8150 50  0001 C CNN "Mouser#"
F 5 "J1" H 7950 8150 50  0001 C CNN "PartsLib#"
	1    10600 9750
	0    1    1    0   
$EndComp
$Comp
L Top_Battery_Plate-rescue:BatCont-Sphere_lib J16
U 1 1 5734F817
P 10900 9750
F 0 "J16" H 10450 9850 60  0000 C CNN
F 1 "BatCont" H 10750 9850 60  0000 C CNN
F 2 "Sphere_lib_footprint:Keystone_5224_Battery_Contact" H 10900 9750 60  0001 C CNN
F 3 "" H 10900 9750 60  0000 C CNN
F 4 "534-5224" H 7950 8150 50  0001 C CNN "Mouser#"
F 5 "J1" H 7950 8150 50  0001 C CNN "PartsLib#"
	1    10900 9750
	0    1    1    0   
$EndComp
$Comp
L power:+BATT #PWR02
U 1 1 5734FCDC
P 9850 8850
F 0 "#PWR02" H 9850 8700 50  0001 C CNN
F 1 "+BATT" H 9850 8990 50  0000 C CNN
F 2 "" H 9850 8850 50  0000 C CNN
F 3 "" H 9850 8850 50  0000 C CNN
	1    9850 8850
	1    0    0    -1  
$EndComp
$Comp
L Top_Battery_Plate-rescue:ESC-Sphere_lib E1
U 1 1 57350E59
P 9850 2100
F 0 "E1" H 10050 2200 60  0000 C CNN
F 1 "ESC" H 9800 2200 60  0000 C CNN
F 2 "Sphere_lib:Afro_ESC_12A" H 9800 2300 60  0001 C CNN
F 3 "" H 9800 2300 60  0000 C CNN
	1    9850 2100
	1    0    0    -1  
$EndComp
$Comp
L Top_Battery_Plate-rescue:ESC-Sphere_lib E2
U 1 1 57350FD1
P 9850 3000
F 0 "E2" H 10050 3100 60  0000 C CNN
F 1 "ESC" H 9800 3100 60  0000 C CNN
F 2 "Sphere_lib:Afro_ESC_12A" H 9800 3200 60  0001 C CNN
F 3 "" H 9800 3200 60  0000 C CNN
	1    9850 3000
	1    0    0    -1  
$EndComp
$Comp
L Top_Battery_Plate-rescue:ESC-Sphere_lib E3
U 1 1 5735106F
P 9850 3900
F 0 "E3" H 10050 4000 60  0000 C CNN
F 1 "ESC" H 9800 4000 60  0000 C CNN
F 2 "Sphere_lib:Afro_ESC_12A" H 9800 4100 60  0001 C CNN
F 3 "" H 9800 4100 60  0000 C CNN
	1    9850 3900
	1    0    0    -1  
$EndComp
$Comp
L Top_Battery_Plate-rescue:ESC-Sphere_lib E4
U 1 1 573510E4
P 9850 4750
F 0 "E4" H 10050 4850 60  0000 C CNN
F 1 "ESC" H 9800 4850 60  0000 C CNN
F 2 "Sphere_lib:Afro_ESC_12A" H 9800 4950 60  0001 C CNN
F 3 "" H 9800 4950 60  0000 C CNN
	1    9850 4750
	1    0    0    -1  
$EndComp
$Comp
L power:+BATT #PWR03
U 1 1 573568F0
P 3350 9400
F 0 "#PWR03" H 3350 9250 50  0001 C CNN
F 1 "+BATT" H 3350 9540 50  0000 C CNN
F 2 "" H 3350 9400 50  0000 C CNN
F 3 "" H 3350 9400 50  0000 C CNN
	1    3350 9400
	1    0    0    -1  
$EndComp
$Comp
L power:GNDD #PWR04
U 1 1 57356C74
P 1350 1750
F 0 "#PWR04" H 1350 1500 50  0001 C CNN
F 1 "GNDD" H 1350 1600 50  0000 C CNN
F 2 "" H 1350 1750 50  0000 C CNN
F 3 "" H 1350 1750 50  0000 C CNN
	1    1350 1750
	1    0    0    -1  
$EndComp
$Comp
L Top_Battery_Plate-rescue:R R1
U 1 1 57356DB7
P 3350 1250
F 0 "R1" V 3430 1250 50  0000 C CNN
F 1 "1.6k" V 3350 1250 50  0000 C CNN
F 2 "Resistor_SMD:R_0603_1608Metric_Pad1.05x0.95mm_HandSolder" V 3280 1250 50  0001 C CNN
F 3 "" H 3350 1250 50  0000 C CNN
	1    3350 1250
	0    1    1    0   
$EndComp
$Comp
L power:GNDD #PWR05
U 1 1 57356E3D
P 3550 1550
F 0 "#PWR05" H 3550 1300 50  0001 C CNN
F 1 "GNDD" H 3550 1400 50  0000 C CNN
F 2 "" H 3550 1550 50  0000 C CNN
F 3 "" H 3550 1550 50  0000 C CNN
	1    3550 1550
	1    0    0    -1  
$EndComp
$Comp
L power:+5V #PWR06
U 1 1 5735703B
P 3350 8150
F 0 "#PWR06" H 3350 8000 50  0001 C CNN
F 1 "+5V" H 3350 8290 50  0000 C CNN
F 2 "" H 3350 8150 50  0000 C CNN
F 3 "" H 3350 8150 50  0000 C CNN
	1    3350 8150
	1    0    0    -1  
$EndComp
$Comp
L Top_Battery_Plate-rescue:CP1 C2
U 1 1 5735725D
P 3650 1350
F 0 "C2" H 3675 1450 50  0000 L CNN
F 1 "188uF" H 3675 1250 50  0000 L CNN
F 2 "Capacitor_SMD:C_1206_3216Metric" H 3650 1350 50  0001 C CNN
F 3 "" H 3650 1350 50  0000 C CNN
	1    3650 1350
	1    0    0    -1  
$EndComp
$Comp
L Top_Battery_Plate-rescue:CP1 C1
U 1 1 573575DD
P 1350 1200
F 0 "C1" V 1400 1050 50  0000 L CNN
F 1 "44uF" V 1500 1100 50  0000 L CNN
F 2 "Capacitor_SMD:C_1206_3216Metric" H 1350 1200 50  0001 C CNN
F 3 "" H 1350 1200 50  0000 C CNN
F 4 "81-GRM31CR61A476ME15L" H -2600 0   50  0001 C CNN "Mouser#"
F 5 "C2" H -2600 0   50  0001 C CNN "PartsLib#"
	1    1350 1200
	1    0    0    -1  
$EndComp
$Comp
L Top_Battery_Plate-rescue:Recom_3.3_Reg_-Sphere_lib U3
U 1 1 57364151
P 2500 2850
F 0 "U3" H 3000 3000 60  0000 C CNN
F 1 "Recom_3.3_Reg_" H 2500 3000 60  0000 C CNN
F 2 "Sphere_lib_footprint:R-78AAxx-1.0SMD" H 2500 2850 60  0001 C CNN
F 3 "" H 2500 2850 60  0000 C CNN
F 4 "919-R-78AA3.3-1SMD" H -2350 -600 50  0001 C CNN "Mouser#"
F 5 "U1" H -2350 -600 50  0001 C CNN "PartsLib#"
	1    2500 2850
	1    0    0    -1  
$EndComp
$Comp
L power:GNDD #PWR07
U 1 1 57364241
P 1950 2850
F 0 "#PWR07" H 1950 2600 50  0001 C CNN
F 1 "GNDD" H 1950 2700 50  0000 C CNN
F 2 "" H 1950 2850 50  0000 C CNN
F 3 "" H 1950 2850 50  0000 C CNN
	1    1950 2850
	1    0    0    -1  
$EndComp
$Comp
L power:+3.3V #PWR08
U 1 1 5736B43B
P 3250 8650
F 0 "#PWR08" H 3250 8500 50  0001 C CNN
F 1 "+3.3V" H 3250 8790 50  0000 C CNN
F 2 "" H 3250 8650 50  0000 C CNN
F 3 "" H 3250 8650 50  0000 C CNN
	1    3250 8650
	1    0    0    -1  
$EndComp
$Comp
L Top_Battery_Plate-rescue:CP1 C3
U 1 1 5736B48D
P 3450 2500
F 0 "C3" H 3475 2600 50  0000 L CNN
F 1 "1uF" H 3475 2400 50  0000 L CNN
F 2 "Capacitor_SMD:C_1206_3216Metric" H 3450 2500 50  0001 C CNN
F 3 "" H 3450 2500 50  0000 C CNN
	1    3450 2500
	1    0    0    -1  
$EndComp
$Comp
L power:+5V #PWR09
U 1 1 573EB9ED
P 5800 6200
F 0 "#PWR09" H 5800 6050 50  0001 C CNN
F 1 "+5V" H 5800 6340 50  0000 C CNN
F 2 "" H 5800 6200 50  0000 C CNN
F 3 "" H 5800 6200 50  0000 C CNN
	1    5800 6200
	1    0    0    -1  
$EndComp
$Comp
L power:GNDD #PWR010
U 1 1 573EBE7B
P 6450 5700
F 0 "#PWR010" H 6450 5450 50  0001 C CNN
F 1 "GNDD" H 6450 5550 50  0000 C CNN
F 2 "" H 6450 5700 50  0000 C CNN
F 3 "" H 6450 5700 50  0000 C CNN
	1    6450 5700
	1    0    0    -1  
$EndComp
$Comp
L power:+3.3V #PWR011
U 1 1 573EC39A
P 6000 6100
F 0 "#PWR011" H 6000 5950 50  0001 C CNN
F 1 "+3.3V" H 6000 6240 50  0000 C CNN
F 2 "" H 6000 6100 50  0000 C CNN
F 3 "" H 6000 6100 50  0000 C CNN
	1    6000 6100
	1    0    0    -1  
$EndComp
$Comp
L power:GNDD #PWR012
U 1 1 573F7F34
P 7400 9700
F 0 "#PWR012" H 7400 9450 50  0001 C CNN
F 1 "GNDD" H 7400 9550 50  0000 C CNN
F 2 "" H 7400 9700 50  0000 C CNN
F 3 "" H 7400 9700 50  0000 C CNN
	1    7400 9700
	1    0    0    -1  
$EndComp
$Comp
L Top_Battery_Plate-rescue:OKL2-T_20-W12_(DC_DC)_Murata U2
U 1 1 57356495
P 2650 1950
F 0 "U2" H 2650 1950 60  0000 C CNN
F 1 "OKL2-T/20-W12_(DC/DC)_Murata" H 2700 2050 60  0000 C CNN
F 2 "Sphere_lib_footprint:OLK2-T20-W12" H 2650 1950 60  0001 C CNN
F 3 "" H 2650 1950 60  0000 C CNN
F 4 "580-OKL2-T/20-W12P2C" H -2400 -200 50  0001 C CNN "Mouser#"
F 5 "U2" H -2400 -200 50  0001 C CNN "PartsLib#"
	1    2650 1950
	1    0    0    -1  
$EndComp
$Comp
L Top_Battery_Plate-rescue:LED D1
U 1 1 5963FDF4
P 2500 6500
F 0 "D1" H 2500 6600 50  0000 C CNN
F 1 "LED" H 2500 6400 50  0000 C CNN
F 2 "LED_SMD:LED_0603_1608Metric_Pad1.05x0.95mm_HandSolder" H 2500 6500 50  0001 C CNN
F 3 "" H 2500 6500 50  0000 C CNN
F 4 "593-VAOL-S6GT4" H -1100 150 50  0001 C CNN "Mouser#"
F 5 "D1" H -1100 150 50  0001 C CNN "PartsLib#"
	1    2500 6500
	-1   0    0    1   
$EndComp
$Comp
L Top_Battery_Plate-rescue:LED D2
U 1 1 5963FF10
P 2500 6800
F 0 "D2" H 2500 6900 50  0000 C CNN
F 1 "LED" H 2500 6700 50  0000 C CNN
F 2 "LED_SMD:LED_0603_1608Metric_Pad1.05x0.95mm_HandSolder" H 2500 6800 50  0001 C CNN
F 3 "" H 2500 6800 50  0000 C CNN
F 4 "593-VAOL-S6GT4" H -1100 150 50  0001 C CNN "Mouser#"
F 5 "D1" H -1100 150 50  0001 C CNN "PartsLib#"
	1    2500 6800
	-1   0    0    1   
$EndComp
$Comp
L Top_Battery_Plate-rescue:LED D3
U 1 1 596400A8
P 2500 7100
F 0 "D3" H 2500 7200 50  0000 C CNN
F 1 "LED" H 2500 7000 50  0000 C CNN
F 2 "LED_SMD:LED_0603_1608Metric_Pad1.05x0.95mm_HandSolder" H 2500 7100 50  0001 C CNN
F 3 "" H 2500 7100 50  0000 C CNN
F 4 "593-VAOL-S6GT4" H -1100 150 50  0001 C CNN "Mouser#"
F 5 "D1" H -1100 150 50  0001 C CNN "PartsLib#"
	1    2500 7100
	-1   0    0    1   
$EndComp
$Comp
L Top_Battery_Plate-rescue:LED D4
U 1 1 59640171
P 2500 7400
F 0 "D4" H 2500 7500 50  0000 C CNN
F 1 "LED" H 2500 7300 50  0000 C CNN
F 2 "LED_SMD:LED_0603_1608Metric_Pad1.05x0.95mm_HandSolder" H 2500 7400 50  0001 C CNN
F 3 "" H 2500 7400 50  0000 C CNN
F 4 "593-VAOL-S6GT4" H -1100 150 50  0001 C CNN "Mouser#"
F 5 "D1" H -1100 150 50  0001 C CNN "PartsLib#"
	1    2500 7400
	-1   0    0    1   
$EndComp
$Comp
L Top_Battery_Plate-rescue:R R5
U 1 1 59640533
P 3000 6500
F 0 "R5" V 3080 6500 50  0000 C CNN
F 1 "280" V 3000 6500 50  0000 C CNN
F 2 "Resistor_SMD:R_0603_1608Metric_Pad1.05x0.95mm_HandSolder" V 2930 6500 50  0001 C CNN
F 3 "" H 3000 6500 50  0000 C CNN
	1    3000 6500
	0    1    1    0   
$EndComp
$Comp
L Top_Battery_Plate-rescue:R R6
U 1 1 59640615
P 3000 6800
F 0 "R6" V 3080 6800 50  0000 C CNN
F 1 "75" V 3000 6800 50  0000 C CNN
F 2 "Resistor_SMD:R_0603_1608Metric_Pad1.05x0.95mm_HandSolder" V 2930 6800 50  0001 C CNN
F 3 "" H 3000 6800 50  0000 C CNN
	1    3000 6800
	0    1    1    0   
$EndComp
$Comp
L Top_Battery_Plate-rescue:R R7
U 1 1 59640759
P 3000 7100
F 0 "R7" V 3080 7100 50  0000 C CNN
F 1 "150" V 3000 7100 50  0000 C CNN
F 2 "Resistor_SMD:R_0603_1608Metric_Pad1.05x0.95mm_HandSolder" V 2930 7100 50  0001 C CNN
F 3 "" H 3000 7100 50  0000 C CNN
	1    3000 7100
	0    1    1    0   
$EndComp
$Comp
L Top_Battery_Plate-rescue:R R8
U 1 1 59640859
P 3000 7400
F 0 "R8" V 3080 7400 50  0000 C CNN
F 1 "280" V 3000 7400 50  0000 C CNN
F 2 "Resistor_SMD:R_0603_1608Metric_Pad1.05x0.95mm_HandSolder" V 2930 7400 50  0001 C CNN
F 3 "" H 3000 7400 50  0000 C CNN
	1    3000 7400
	0    1    1    0   
$EndComp
$Comp
L power:GNDD #PWR013
U 1 1 59640DA7
P 3250 7500
F 0 "#PWR013" H 3250 7250 50  0001 C CNN
F 1 "GNDD" H 3250 7350 50  0000 C CNN
F 2 "" H 3250 7500 50  0000 C CNN
F 3 "" H 3250 7500 50  0000 C CNN
	1    3250 7500
	1    0    0    -1  
$EndComp
$Comp
L power:+BATT #PWR014
U 1 1 596417A7
P 1950 6400
F 0 "#PWR014" H 1950 6250 50  0001 C CNN
F 1 "+BATT" H 1950 6540 50  0000 C CNN
F 2 "" H 1950 6400 50  0000 C CNN
F 3 "" H 1950 6400 50  0000 C CNN
	1    1950 6400
	1    0    0    -1  
$EndComp
$Comp
L power:+5V #PWR015
U 1 1 59641A78
P 1950 6750
F 0 "#PWR015" H 1950 6600 50  0001 C CNN
F 1 "+5V" H 1950 6890 50  0000 C CNN
F 2 "" H 1950 6750 50  0000 C CNN
F 3 "" H 1950 6750 50  0000 C CNN
	1    1950 6750
	1    0    0    -1  
$EndComp
$Comp
L power:+3.3V #PWR016
U 1 1 59641C66
P 1950 7050
F 0 "#PWR016" H 1950 6900 50  0001 C CNN
F 1 "+3.3V" H 1950 7190 50  0000 C CNN
F 2 "" H 1950 7050 50  0000 C CNN
F 3 "" H 1950 7050 50  0000 C CNN
	1    1950 7050
	1    0    0    -1  
$EndComp
$Comp
L power:+BATT #PWR017
U 1 1 59662EA8
P 750 900
F 0 "#PWR017" H 750 750 50  0001 C CNN
F 1 "+BATT" H 750 1040 50  0000 C CNN
F 2 "" H 750 900 50  0000 C CNN
F 3 "" H 750 900 50  0000 C CNN
	1    750  900 
	1    0    0    -1  
$EndComp
$Comp
L Top_Battery_Plate-rescue:BSS138 Q1
U 1 1 59684713
P 14200 7800
F 0 "Q1" H 14400 7875 50  0000 L CNN
F 1 "BSS138" H 14400 7800 50  0000 L CNN
F 2 "Package_TO_SOT_SMD:SOT-23" H 14400 7725 50  0001 L CIN
F 3 "" H 14200 7800 50  0000 L CNN
F 4 "512-BSS138" H 7000 3400 50  0001 C CNN "Mouser#"
F 5 "Q2" H 7000 3400 50  0001 C CNN "PartsLib#"
	1    14200 7800
	0    1    1    0   
$EndComp
$Comp
L Top_Battery_Plate-rescue:R R13
U 1 1 596855DD
P 14700 7650
F 0 "R13" V 14780 7650 50  0000 C CNN
F 1 "10k" V 14700 7650 50  0000 C CNN
F 2 "Resistor_SMD:R_0603_1608Metric_Pad1.05x0.95mm_HandSolder" V 14630 7650 50  0001 C CNN
F 3 "" H 14700 7650 50  0000 C CNN
F 4 "755-ESR03EZPJ103" H 7000 3400 50  0001 C CNN "Mouser#"
F 5 "R6" H 7000 3400 50  0001 C CNN "PartsLib#"
	1    14700 7650
	1    0    0    -1  
$EndComp
$Comp
L power:+BATT #PWR018
U 1 1 59687744
P 14700 7400
F 0 "#PWR018" H 14700 7250 50  0001 C CNN
F 1 "+BATT" H 14700 7540 50  0000 C CNN
F 2 "" H 14700 7400 50  0000 C CNN
F 3 "" H 14700 7400 50  0000 C CNN
	1    14700 7400
	1    0    0    -1  
$EndComp
Text Label 10700 1350 2    60   ~ 0
M1_FR
Text Label 10700 1450 2    60   ~ 0
M2_FR
Text Label 10700 1550 2    60   ~ 0
M3_FR
Text Label 10700 2250 2    60   ~ 0
M1_FL
Text Label 10700 2350 2    60   ~ 0
M2_FL
Text Label 10700 2450 2    60   ~ 0
M3_FL
Text Label 10700 3150 2    60   ~ 0
M1_UR
Text Label 10700 3250 2    60   ~ 0
M2_UR
Text Label 10700 3350 2    60   ~ 0
M3_UR
Text Label 10700 4000 2    60   ~ 0
M1_UL
Text Label 10700 4100 2    60   ~ 0
M2_UL
Text Label 10700 4200 2    60   ~ 0
M3_UL
Text Label 7000 10500 2    60   ~ 0
M1_FR
Text Label 7000 10400 2    60   ~ 0
M2_FR
Text Label 5550 9900 0    60   ~ 0
M1_FL
Text Label 5550 10000 0    60   ~ 0
M2_FL
Text Label 5550 10100 0    60   ~ 0
M3_FL
Text Label 5550 10200 0    60   ~ 0
M1_UR
Text Label 5550 10400 0    60   ~ 0
M2_UR
Text Label 5550 10300 0    60   ~ 0
M3_UR
Text Label 7000 10200 2    60   ~ 0
M1_UL
Text Label 7000 10100 2    60   ~ 0
M2_UL
Text Label 7000 10000 2    60   ~ 0
M3_UL
Text Label 1700 1100 0    60   ~ 0
Reg_On/Off
Text Label 7000 10300 2    60   ~ 0
M3_FR
Text Label 9150 1800 0    60   ~ 0
PWM_FR
Text Label 9150 2700 0    60   ~ 0
PWM_FL
Text Label 9150 3600 0    60   ~ 0
PWM_UR
Text Label 9100 4450 0    60   ~ 0
PWM_UL
Text Label 7100 6350 2    60   ~ 0
PWM_UL
Text Label 7100 6650 2    60   ~ 0
PWM_UR
Text Label 5800 6650 0    60   ~ 0
PWM_FL
Text Label 7100 6250 2    60   ~ 0
PWM_FR
Text Label 7100 1900 2    60   ~ 0
D_Out+
Text Label 7100 2100 2    60   ~ 0
D_out-
Text Label 5800 6550 0    60   ~ 0
SCL
Text Label 5800 6450 0    60   ~ 0
SDA
Text Label 5550 9800 0    60   ~ 0
D_out-
Text Label 5550 9700 0    60   ~ 0
D_Out+
Text Label 1800 7400 0    60   ~ 0
ESC_POWER
Text Label 10600 5950 0    60   ~ 0
ESC_POWER
Text Label 9100 1100 0    60   ~ 0
ESC_POWER
Text Label 14950 7900 0    60   ~ 0
Reg_On/Off
NoConn ~ 2150 1650
NoConn ~ 3100 2350
$Comp
L Top_Battery_Plate-rescue:CONN_01X01 P3
U 1 1 59855690
P 12950 9300
F 0 "P3" H 13100 9300 50  0000 C CNN
F 1 "CONN_01X01" H 12950 9200 50  0001 C CNN
F 2 "MountingHole:MountingHole_3.2mm_M3_ISO14580_Pad" H 12950 9300 50  0001 C CNN
F 3 "" H 12950 9300 50  0000 C CNN
	1    12950 9300
	0    1    1    0   
$EndComp
$Comp
L Top_Battery_Plate-rescue:CONN_01X01 P4
U 1 1 59855D04
P 13100 9300
F 0 "P4" H 13250 9300 50  0000 C CNN
F 1 "CONN_01X01" H 13100 9200 50  0001 C CNN
F 2 "MountingHole:MountingHole_3.2mm_M3_ISO14580_Pad" H 13100 9300 50  0001 C CNN
F 3 "" H 13100 9300 50  0000 C CNN
	1    13100 9300
	0    1    1    0   
$EndComp
$Comp
L Top_Battery_Plate-rescue:CONN_01X01 P5
U 1 1 59855E58
P 13250 9300
F 0 "P5" H 13400 9300 50  0000 C CNN
F 1 "CONN_01X01" H 13250 9200 50  0001 C CNN
F 2 "MountingHole:MountingHole_3.2mm_M3_ISO14580_Pad" H 13250 9300 50  0001 C CNN
F 3 "" H 13250 9300 50  0000 C CNN
	1    13250 9300
	0    1    1    0   
$EndComp
$Comp
L Top_Battery_Plate-rescue:CONN_01X01 P7
U 1 1 5985604B
P 13550 9300
F 0 "P7" H 13700 9300 50  0000 C CNN
F 1 "CONN_01X01" H 13550 9200 50  0001 C CNN
F 2 "MountingHole:MountingHole_3.2mm_M3_ISO14580_Pad" H 13550 9300 50  0001 C CNN
F 3 "" H 13550 9300 50  0000 C CNN
	1    13550 9300
	0    1    1    0   
$EndComp
$Comp
L Top_Battery_Plate-rescue:CONN_01X01 P8
U 1 1 5985A764
P 13700 9300
F 0 "P8" H 13850 9300 50  0000 C CNN
F 1 "CONN_01X01" H 13700 9200 50  0001 C CNN
F 2 "MountingHole:MountingHole_3.2mm_M3_ISO14580_Pad" H 13700 9300 50  0001 C CNN
F 3 "" H 13700 9300 50  0000 C CNN
	1    13700 9300
	0    1    1    0   
$EndComp
$Comp
L Top_Battery_Plate-rescue:CONN_01X01 P10
U 1 1 5985A95F
P 14000 9300
F 0 "P10" H 14150 9300 50  0000 C CNN
F 1 "CONN_01X01" H 14000 9200 50  0001 C CNN
F 2 "MountingHole:MountingHole_3.2mm_M3_ISO14580_Pad" H 14000 9300 50  0001 C CNN
F 3 "" H 14000 9300 50  0000 C CNN
	1    14000 9300
	0    1    1    0   
$EndComp
$Comp
L Top_Battery_Plate-rescue:CONN_01X01 P6
U 1 1 59855F51
P 13400 9300
F 0 "P6" H 13550 9300 50  0000 C CNN
F 1 "CONN_01X01" H 13400 9200 50  0001 C CNN
F 2 "MountingHole:MountingHole_3.2mm_M3_ISO14580_Pad" H 13400 9300 50  0001 C CNN
F 3 "" H 13400 9300 50  0000 C CNN
	1    13400 9300
	0    1    1    0   
$EndComp
$Comp
L Top_Battery_Plate-rescue:CONN_01X01 P9
U 1 1 5985A860
P 13850 9300
F 0 "P9" H 14000 9300 50  0000 C CNN
F 1 "CONN_01X01" H 13850 9200 50  0001 C CNN
F 2 "MountingHole:MountingHole_3.2mm_M3_ISO14580_Pad" H 13850 9300 50  0001 C CNN
F 3 "" H 13850 9300 50  0000 C CNN
	1    13850 9300
	0    1    1    0   
$EndComp
$Comp
L power:GNDD #PWR019
U 1 1 5986F915
P 14350 9000
F 0 "#PWR019" H 14350 8750 50  0001 C CNN
F 1 "GNDD" H 14350 8850 50  0000 C CNN
F 2 "" H 14350 9000 50  0000 C CNN
F 3 "" H 14350 9000 50  0000 C CNN
	1    14350 9000
	1    0    0    -1  
$EndComp
$Comp
L power:GNDD #PWR020
U 1 1 59DDAA2A
P 8900 4800
F 0 "#PWR020" H 8900 4550 50  0001 C CNN
F 1 "GNDD" H 8900 4650 50  0000 C CNN
F 2 "" H 8900 4800 50  0000 C CNN
F 3 "" H 8900 4800 50  0000 C CNN
	1    8900 4800
	1    0    0    -1  
$EndComp
NoConn ~ 9450 1600
NoConn ~ 9450 2500
NoConn ~ 9450 3400
NoConn ~ 9450 4250
Text Notes 12000 850  0    118  ~ 0
BLE uController
Text Notes 11950 8600 0    118  ~ 0
Mounting Holes
Text Notes 8350 8500 0    118  ~ 0
Battery Terminals
Text Notes 8300 850  0    118  ~ 0
Motor Electronic Speed Controlers
Text Label 2900 8900 0    60   ~ 0
3.3V-noreg
Text Label 4000 2150 2    60   ~ 0
3.3V-noreg
Text Label 2950 8350 0    60   ~ 0
5V-noreg
Text Label 4200 1000 2    60   ~ 0
5V-noreg
Text Notes 1700 8000 0    118  ~ 0
Current Measurement
Text Notes 650  700  0    118  ~ 0
Power Regulation
Text Notes 4850 9200 0    118  ~ 0
Thruster and Ext. Sensor Connector
Text Notes 4850 5450 0    118  ~ 0
Board 2 Board Connector
Text Notes 600  5450 0    118  ~ 0
Power Indicator
NoConn ~ 6600 9900
NoConn ~ 5900 10500
NoConn ~ 2150 1200
NoConn ~ 3150 1350
$Comp
L Top_Battery_Plate-rescue:MAX3232-Sphere_lib U7
U 1 1 59FBA42B
P 6150 1950
F 0 "U7" H 6100 2650 118 0000 C CNN
F 1 "MAX3232" H 6150 1500 118 0000 C CNN
F 2 "Sphere_lib_footprint:SOIC16_MAX3232" H 6150 1950 118 0001 C CNN
F 3 "" H 6150 1950 118 0000 C CNN
	1    6150 1950
	1    0    0    -1  
$EndComp
$Comp
L Top_Battery_Plate-rescue:C C7
U 1 1 59FBADF5
P 5300 1450
F 0 "C7" V 5250 1550 50  0000 L CNN
F 1 "0.1uF" V 5250 1150 50  0000 L CNN
F 2 "Capacitor_SMD:C_0603_1608Metric_Pad1.05x0.95mm_HandSolder" H 5338 1300 50  0001 C CNN
F 3 "" H 5300 1450 50  0000 C CNN
	1    5300 1450
	0    1    1    0   
$EndComp
$Comp
L Top_Battery_Plate-rescue:C C8
U 1 1 59FBC7F7
P 5300 1650
F 0 "C8" V 5250 1750 50  0000 L CNN
F 1 "0.1uF" V 5250 1350 50  0000 L CNN
F 2 "Capacitor_SMD:C_0603_1608Metric_Pad1.05x0.95mm_HandSolder" H 5338 1500 50  0001 C CNN
F 3 "" H 5300 1650 50  0000 C CNN
	1    5300 1650
	0    1    1    0   
$EndComp
$Comp
L Top_Battery_Plate-rescue:C C9
U 1 1 59FC0BE5
P 7050 1650
F 0 "C9" V 7000 1750 50  0000 L CNN
F 1 "0.1uF" V 7000 1350 50  0000 L CNN
F 2 "Capacitor_SMD:C_0603_1608Metric_Pad1.05x0.95mm_HandSolder" H 7088 1500 50  0001 C CNN
F 3 "" H 7050 1650 50  0000 C CNN
	1    7050 1650
	0    1    1    0   
$EndComp
$Comp
L Top_Battery_Plate-rescue:C C10
U 1 1 59FC0D41
P 7400 1750
F 0 "C10" V 7350 1850 50  0000 L CNN
F 1 "0.1uF" V 7350 1450 50  0000 L CNN
F 2 "Capacitor_SMD:C_0603_1608Metric_Pad1.05x0.95mm_HandSolder" H 7438 1600 50  0001 C CNN
F 3 "" H 7400 1750 50  0000 C CNN
	1    7400 1750
	0    1    1    0   
$EndComp
$Comp
L power:GNDD #PWR021
U 1 1 59FC1286
P 7700 1800
F 0 "#PWR021" H 7700 1550 50  0001 C CNN
F 1 "GNDD" H 7700 1650 50  0000 C CNN
F 2 "" H 7700 1800 50  0000 C CNN
F 3 "" H 7700 1800 50  0000 C CNN
	1    7700 1800
	1    0    0    -1  
$EndComp
$Comp
L power:+3.3V #PWR022
U 1 1 59FC8A8F
P 6800 1300
F 0 "#PWR022" H 6800 1150 50  0001 C CNN
F 1 "+3.3V" H 6800 1440 50  0000 C CNN
F 2 "" H 6800 1300 50  0000 C CNN
F 3 "" H 6800 1300 50  0000 C CNN
	1    6800 1300
	1    0    0    -1  
$EndComp
Text Label 7100 6450 2    60   ~ 0
OUT_TX
Text Label 7100 6550 2    60   ~ 0
OUT_RX
Text Label 5150 2100 0    60   ~ 0
OUT_TX
Text Label 5150 1900 0    60   ~ 0
OUT_RX
NoConn ~ 5600 2000
NoConn ~ 5600 2200
NoConn ~ 6700 2200
NoConn ~ 6700 2000
NoConn ~ 50   9050
$Comp
L Top_Battery_Plate-rescue:R R9
U 1 1 596854D2
P 13700 7650
F 0 "R9" V 13780 7650 50  0000 C CNN
F 1 "10k" V 13700 7650 50  0000 C CNN
F 2 "Resistor_SMD:R_0603_1608Metric_Pad1.05x0.95mm_HandSolder" V 13630 7650 50  0001 C CNN
F 3 "" H 13700 7650 50  0000 C CNN
F 4 "755-ESR03EZPJ103" H 7000 3400 50  0001 C CNN "Mouser#"
F 5 "R6" H 7000 3400 50  0001 C CNN "PartsLib#"
	1    13700 7650
	1    0    0    -1  
$EndComp
$Comp
L Top_Battery_Plate-rescue:NINAB1-Sphere_lib U10
U 1 1 5B60D4F4
P 13750 3050
F 0 "U10" H 13600 3950 118 0000 C CNN
F 1 "NINAB1" H 13750 2150 118 0000 C CNN
F 2 "Sphere_lib_footprint:NINAB1" H 13800 2650 118 0001 C CNN
F 3 "" H 13800 2650 118 0000 C CNN
	1    13750 3050
	1    0    0    -1  
$EndComp
$Comp
L Top_Battery_Plate-rescue:CC3-0512SR-E_5V-12_DC_DC_ U1
U 1 1 5B611DFA
P 2700 3450
F 0 "U1" H 2700 3900 60  0000 C CNN
F 1 "CC3-0512SR-E_5V-12_DC/DC_" H 2650 3000 60  0000 C CNN
F 2 "Sphere_lib_footprint:CC3-xxxxxR-E_(DCDC-Converter)" H 2700 3450 60  0001 C CNN
F 3 "" H 2700 3450 60  0000 C CNN
	1    2700 3450
	1    0    0    -1  
$EndComp
$Comp
L Top_Battery_Plate-rescue:CC6-0512SR-E_5V-12_DC_DC_ U8
U 1 1 5B611FD3
P 2700 4550
F 0 "U8" H 2700 5000 60  0000 C CNN
F 1 "CC6-0512SR-E_5V-12_DC/DC_" H 2750 4100 60  0000 C CNN
F 2 "Sphere_lib_footprint:CC6-xxxxxR-E_(DCDC-Converter)" H 2700 4550 60  0001 C CNN
F 3 "" H 2700 4550 60  0000 C CNN
	1    2700 4550
	1    0    0    -1  
$EndComp
$Comp
L power:GNDD #PWR025
U 1 1 5B61BA7E
P 1850 3950
F 0 "#PWR025" H 1850 3700 50  0001 C CNN
F 1 "GNDD" H 1850 3800 50  0000 C CNN
F 2 "" H 1850 3950 50  0000 C CNN
F 3 "" H 1850 3950 50  0000 C CNN
	1    1850 3950
	1    0    0    -1  
$EndComp
Wire Wire Line
	8650 10850 8950 10850
Wire Wire Line
	11050 10850 11050 10700
Wire Wire Line
	10750 10700 10750 10850
Wire Wire Line
	10450 10700 10450 10850
Wire Wire Line
	10150 10700 10150 10850
Wire Wire Line
	9850 10700 9850 10850
Wire Wire Line
	9550 10700 9550 10850
Wire Wire Line
	9250 10700 9250 10850
Wire Wire Line
	8950 10700 8950 10850
Wire Wire Line
	8650 8900 8950 8900
Wire Wire Line
	8650 8900 8650 9700
Wire Wire Line
	11050 8900 11050 9700
Wire Wire Line
	10750 8900 10750 9700
Wire Wire Line
	10150 8900 10150 9700
Wire Wire Line
	9850 8850 9850 8900
Wire Wire Line
	9550 8900 9550 9700
Wire Wire Line
	9250 8900 9250 9700
Wire Wire Line
	8950 8900 8950 9700
Wire Wire Line
	9100 1100 9100 1350
Wire Wire Line
	9100 1350 9450 1350
Wire Wire Line
	9100 2250 9450 2250
Wire Wire Line
	9100 3150 9450 3150
Wire Wire Line
	9100 4000 9450 4000
Wire Wire Line
	8900 4100 9450 4100
Wire Wire Line
	8900 3250 9450 3250
Wire Wire Line
	8900 2350 9450 2350
Wire Wire Line
	9450 1700 8900 1700
Wire Wire Line
	8900 2600 9450 2600
Wire Wire Line
	8900 3500 9450 3500
Wire Wire Line
	8900 4350 9450 4350
Wire Wire Line
	10350 1350 10700 1350
Wire Wire Line
	10350 1450 10700 1450
Wire Wire Line
	10350 1550 10700 1550
Wire Wire Line
	10350 2250 10700 2250
Wire Wire Line
	10350 2350 10700 2350
Wire Wire Line
	10350 2450 10700 2450
Wire Wire Line
	10350 3150 10700 3150
Wire Wire Line
	10350 3250 10700 3250
Wire Wire Line
	10350 3350 10700 3350
Wire Wire Line
	10350 4000 10700 4000
Wire Wire Line
	10350 4100 10700 4100
Wire Wire Line
	10350 4200 10700 4200
Wire Wire Line
	5550 10100 5900 10100
Wire Wire Line
	5550 10200 5900 10200
Wire Wire Line
	5550 10300 5900 10300
Wire Wire Line
	5550 10400 5900 10400
Wire Wire Line
	6600 10100 7000 10100
Wire Wire Line
	6600 10200 7000 10200
Wire Wire Line
	6600 10300 7000 10300
Wire Wire Line
	6600 10400 7000 10400
Wire Wire Line
	6600 10500 7000 10500
Wire Wire Line
	5350 9600 5900 9600
Wire Wire Line
	5900 9900 5550 9900
Wire Wire Line
	5900 10000 5550 10000
Wire Wire Line
	6600 9600 7400 9600
Wire Wire Line
	6600 10000 7000 10000
Wire Wire Line
	1700 1100 2150 1100
Wire Wire Line
	2150 2450 1950 2450
Wire Wire Line
	2150 2550 1950 2550
Wire Wire Line
	3100 2550 3150 2550
Wire Wire Line
	3100 2450 3150 2450
Wire Wire Line
	2100 2250 2150 2250
Wire Wire Line
	750  2150 2100 2150
Wire Wire Line
	2150 2350 1650 2350
Wire Wire Line
	3100 2250 3200 2250
Wire Wire Line
	3200 2250 3200 2150
Wire Wire Line
	3150 1100 3650 1100
Wire Wire Line
	1350 1450 2000 1450
Wire Wire Line
	2000 1300 2000 1450
Wire Wire Line
	10450 9700 10450 8900
Wire Wire Line
	8900 1450 8900 1700
Wire Wire Line
	5800 6350 6200 6350
Wire Wire Line
	6700 6650 7100 6650
Wire Wire Line
	6700 6550 7100 6550
Wire Wire Line
	9450 4450 9100 4450
Wire Wire Line
	9450 3600 9150 3600
Wire Wire Line
	9150 2700 9450 2700
Wire Wire Line
	9450 1800 9150 1800
Wire Wire Line
	6700 6250 7100 6250
Wire Wire Line
	7400 9600 7400 9700
Wire Wire Line
	6200 6250 5800 6250
Wire Wire Line
	5800 6650 6200 6650
Wire Wire Line
	6200 5650 6200 6050
Wire Wire Line
	6700 6450 7100 6450
Wire Wire Line
	6700 6350 7100 6350
Wire Wire Line
	5800 6200 5800 6250
Wire Wire Line
	3450 2150 3450 2350
Wire Wire Line
	3500 1250 3550 1250
Wire Wire Line
	3550 1250 3550 1500
Wire Wire Line
	3650 1500 3550 1500
Wire Wire Line
	3150 1000 3650 1000
Wire Wire Line
	3650 1000 3650 1100
Wire Wire Line
	2700 6500 2850 6500
Wire Wire Line
	2700 6800 2850 6800
Wire Wire Line
	2700 7100 2850 7100
Wire Wire Line
	2700 7400 2850 7400
Wire Wire Line
	3150 7400 3250 7400
Wire Wire Line
	3250 6500 3250 6800
Wire Wire Line
	3150 7100 3250 7100
Wire Wire Line
	3150 6800 3250 6800
Wire Wire Line
	3150 6500 3250 6500
Wire Wire Line
	2300 6500 1950 6500
Wire Wire Line
	2300 6800 1950 6800
Wire Wire Line
	2300 7100 1950 7100
Wire Wire Line
	1800 7400 2300 7400
Wire Wire Line
	1950 6500 1950 6400
Wire Wire Line
	1950 6800 1950 6750
Wire Wire Line
	1950 7100 1950 7050
Wire Wire Line
	3200 1250 3150 1250
Wire Wire Line
	750  1000 1350 1000
Wire Wire Line
	14150 7450 14150 7600
Wire Wire Line
	13550 7900 13700 7900
Wire Wire Line
	14400 7900 14700 7900
Wire Wire Line
	14700 7900 14700 7800
Wire Wire Line
	14700 7400 14700 7500
Connection ~ 10750 10850
Connection ~ 10450 10850
Connection ~ 10150 10850
Connection ~ 9850 10850
Connection ~ 9550 10850
Connection ~ 9250 10850
Connection ~ 8950 10850
Connection ~ 10750 8900
Connection ~ 10450 8900
Connection ~ 10150 8900
Connection ~ 9850 8900
Connection ~ 9550 8900
Connection ~ 9250 8900
Connection ~ 8950 8900
Connection ~ 9100 1350
Connection ~ 9100 2250
Connection ~ 9100 3150
Connection ~ 8900 4100
Connection ~ 8900 3250
Connection ~ 8900 2350
Connection ~ 8900 1700
Connection ~ 8900 2600
Connection ~ 8900 3500
Connection ~ 8900 4350
Connection ~ 1950 2550
Connection ~ 3150 2550
Connection ~ 2100 2150
Connection ~ 3200 2150
Connection ~ 5800 6250
Connection ~ 3450 2150
Connection ~ 3550 1500
Connection ~ 3650 1100
Connection ~ 3250 7400
Connection ~ 3250 7100
Connection ~ 3250 6800
Connection ~ 13700 7900
Connection ~ 14700 7900
Wire Wire Line
	12950 9100 12950 8950
Wire Wire Line
	12950 8950 13100 8950
Wire Wire Line
	14000 9100 14000 8950
Connection ~ 14000 8950
Wire Wire Line
	13850 9100 13850 8950
Connection ~ 13850 8950
Wire Wire Line
	13700 9100 13700 8950
Connection ~ 13700 8950
Wire Wire Line
	13550 9100 13550 8950
Connection ~ 13550 8950
Wire Wire Line
	13400 9100 13400 8950
Connection ~ 13400 8950
Wire Wire Line
	13250 9100 13250 8950
Connection ~ 13250 8950
Wire Wire Line
	13100 9100 13100 8950
Connection ~ 13100 8950
Wire Wire Line
	8650 10700 8650 10850
Wire Wire Line
	8900 1450 9450 1450
Wire Wire Line
	14350 8950 14350 9000
Wire Notes Line
	11800 11200 11800 500 
Wire Notes Line
	8150 500  8150 11200
Wire Wire Line
	3100 2150 3200 2150
Connection ~ 3650 1000
Wire Wire Line
	1350 1000 1350 1050
Wire Wire Line
	1350 1350 1350 1450
Connection ~ 1350 1450
Connection ~ 2000 1450
Wire Wire Line
	2000 1300 2150 1300
Wire Notes Line
	4700 500  4700 11200
Wire Notes Line
	4700 8900 8150 8900
Wire Notes Line
	11800 8400 16050 8400
Wire Wire Line
	6200 6450 5800 6450
Wire Wire Line
	6200 6550 5800 6550
Wire Wire Line
	6000 6100 6000 6150
Wire Wire Line
	6000 6150 6200 6150
Wire Wire Line
	6200 5650 6450 5650
Wire Wire Line
	6450 5650 6450 5700
Connection ~ 6450 5650
Wire Wire Line
	5900 9700 5550 9700
Wire Wire Line
	5900 9800 5550 9800
Wire Notes Line
	4700 7750 500  7750
Wire Wire Line
	5600 1450 5450 1450
Wire Wire Line
	5150 1450 5050 1450
Wire Wire Line
	5050 1450 5050 1550
Wire Wire Line
	5050 1550 5600 1550
Wire Wire Line
	5600 1650 5450 1650
Wire Wire Line
	5150 1650 5050 1650
Wire Wire Line
	5050 1650 5050 1750
Wire Wire Line
	5050 1750 5600 1750
Wire Wire Line
	7250 1750 6700 1750
Wire Wire Line
	6900 1650 6700 1650
Wire Wire Line
	6700 1550 7700 1550
Wire Wire Line
	7700 1550 7700 1650
Wire Wire Line
	7550 1750 7700 1750
Connection ~ 7700 1750
Wire Wire Line
	7200 1650 7700 1650
Connection ~ 7700 1650
Wire Wire Line
	6800 1300 6800 1450
Wire Wire Line
	6800 1450 6700 1450
Wire Wire Line
	6700 2100 7100 2100
Wire Wire Line
	5600 2100 5150 2100
Wire Wire Line
	7100 1900 6700 1900
Wire Wire Line
	5600 1900 5150 1900
Wire Wire Line
	13700 7800 13700 7900
Wire Wire Line
	13700 7450 14150 7450
Wire Wire Line
	13700 7400 13700 7450
Connection ~ 13700 7450
Connection ~ 1350 1000
Connection ~ 750  1000
Connection ~ 750  2150
Wire Wire Line
	2100 2250 2100 2150
Wire Wire Line
	750  3150 2150 3150
Connection ~ 750  3150
Wire Wire Line
	3150 2450 3150 2550
Wire Wire Line
	1950 2800 3150 2800
Wire Wire Line
	3450 2800 3450 2650
Connection ~ 3150 2800
Wire Wire Line
	1950 2450 1950 2550
Connection ~ 1950 2800
$Comp
L power:GNDD #PWR026
U 1 1 5B61BF1D
P 1900 5000
F 0 "#PWR026" H 1900 4750 50  0001 C CNN
F 1 "GNDD" H 1900 4850 50  0000 C CNN
F 2 "" H 1900 5000 50  0000 C CNN
F 3 "" H 1900 5000 50  0000 C CNN
	1    1900 5000
	1    0    0    -1  
$EndComp
$Comp
L power:GNDD #PWR027
U 1 1 5B61C191
P 3500 4850
F 0 "#PWR027" H 3500 4600 50  0001 C CNN
F 1 "GNDD" H 3500 4700 50  0000 C CNN
F 2 "" H 3500 4850 50  0000 C CNN
F 3 "" H 3500 4850 50  0000 C CNN
	1    3500 4850
	1    0    0    -1  
$EndComp
Wire Wire Line
	3250 4800 3500 4800
Wire Wire Line
	3500 4650 3500 4800
$Comp
L power:GNDD #PWR028
U 1 1 5B61C58B
P 3500 3850
F 0 "#PWR028" H 3500 3600 50  0001 C CNN
F 1 "GNDD" H 3500 3700 50  0000 C CNN
F 2 "" H 3500 3850 50  0000 C CNN
F 3 "" H 3500 3850 50  0000 C CNN
	1    3500 3850
	1    0    0    -1  
$EndComp
Wire Wire Line
	3250 3700 3500 3700
Wire Wire Line
	3500 3550 3500 3700
NoConn ~ 3250 3300
NoConn ~ 3250 4400
Wire Wire Line
	3250 3150 3500 3150
Wire Wire Line
	3250 4250 3500 4250
$Comp
L power:+BATT #PWR029
U 1 1 5B6221B3
P 12200 1100
F 0 "#PWR029" H 12200 950 50  0001 C CNN
F 1 "+BATT" H 12200 1240 50  0000 C CNN
F 2 "" H 12200 1100 50  0000 C CNN
F 3 "" H 12200 1100 50  0000 C CNN
	1    12200 1100
	1    0    0    -1  
$EndComp
Wire Wire Line
	12200 1100 12200 1200
$Comp
L power:GNDD #PWR030
U 1 1 5B623112
P 13050 1650
F 0 "#PWR030" H 13050 1400 50  0001 C CNN
F 1 "GNDD" H 13050 1500 50  0000 C CNN
F 2 "" H 13050 1650 50  0000 C CNN
F 3 "" H 13050 1650 50  0000 C CNN
	1    13050 1650
	1    0    0    -1  
$EndComp
Wire Wire Line
	13050 2450 12600 2450
Wire Wire Line
	12600 2450 12600 2350
Wire Wire Line
	12350 2350 12600 2350
Connection ~ 12600 2350
Text Label 14250 1200 0    59   ~ 0
NINAB1_3V3
Text Label 12350 2350 0    59   ~ 0
NINAB1_3V3
Text Label 14800 2650 2    59   ~ 0
MOSI
Text Label 14800 2750 2    59   ~ 0
MISO
Text Label 14800 2850 2    59   ~ 0
SCK
Text Label 14800 2950 2    59   ~ 0
CS
Text Label 12650 3350 0    59   ~ 0
SWDIO
Text Label 12650 3250 0    59   ~ 0
SWDCLK
Text Label 12650 3650 0    59   ~ 0
nReset
$Comp
L Top_Battery_Plate-rescue:CP1 C11
U 1 1 5B62B094
P 3500 3400
F 0 "C11" H 3525 3500 50  0000 L CNN
F 1 "1uF" H 3525 3300 50  0000 L CNN
F 2 "Capacitor_SMD:C_1206_3216Metric" H 3500 3400 50  0001 C CNN
F 3 "" H 3500 3400 50  0000 C CNN
	1    3500 3400
	1    0    0    -1  
$EndComp
$Comp
L Top_Battery_Plate-rescue:CP1 C12
U 1 1 5B62BFB3
P 3500 4500
F 0 "C12" H 3525 4600 50  0000 L CNN
F 1 "1uF" H 3525 4400 50  0000 L CNN
F 2 "Capacitor_SMD:C_1206_3216Metric" H 3500 4500 50  0001 C CNN
F 3 "" H 3500 4500 50  0000 C CNN
	1    3500 4500
	1    0    0    -1  
$EndComp
Connection ~ 3500 4800
Wire Wire Line
	3500 4350 3500 4250
Connection ~ 3500 4250
Wire Wire Line
	3500 3250 3500 3150
Connection ~ 3500 3150
Connection ~ 3500 3700
$Comp
L Top_Battery_Plate-rescue:CONN_02X05 P12
U 1 1 5B62EA7F
P 13700 4700
F 0 "P12" H 13700 5000 50  0000 C CNN
F 1 "CONN_02X05" H 13700 4400 50  0000 C CNN
F 2 "Connector_PinHeader_1.27mm:PinHeader_2x05_P1.27mm_Vertical_SMD" H 13700 3500 50  0001 C CNN
F 3 "" H 13700 3500 50  0000 C CNN
	1    13700 4700
	1    0    0    -1  
$EndComp
Wire Wire Line
	13950 4500 14400 4500
Wire Wire Line
	13950 4600 14400 4600
Wire Wire Line
	13950 4700 14400 4700
Wire Wire Line
	13950 4800 14400 4800
Wire Wire Line
	13950 4900 14400 4900
Wire Wire Line
	13450 4500 12900 4500
Wire Wire Line
	12750 4600 13450 4600
Wire Wire Line
	12750 4700 13450 4700
Wire Wire Line
	13450 4800 12900 4800
Wire Wire Line
	12750 4900 13450 4900
Text Label 12900 4500 0    59   ~ 0
NINAB1_3V3
Text Label 14400 4500 2    59   ~ 0
SWDIO
Text Label 14400 4600 2    59   ~ 0
SWDCLK
Text Label 12650 3150 0    59   ~ 0
SWO
Text Label 14400 4700 2    59   ~ 0
SWO
NoConn ~ 14400 4800
Text Label 14400 4900 2    59   ~ 0
nReset
NoConn ~ 12900 4800
$Comp
L power:GNDD #PWR031
U 1 1 5B6315A7
P 12750 4950
F 0 "#PWR031" H 12750 4700 50  0001 C CNN
F 1 "GNDD" H 12750 4800 50  0000 C CNN
F 2 "" H 12750 4950 50  0000 C CNN
F 3 "" H 12750 4950 50  0000 C CNN
	1    12750 4950
	1    0    0    -1  
$EndComp
Wire Wire Line
	12750 4600 12750 4700
Connection ~ 12750 4900
Connection ~ 12750 4700
Wire Wire Line
	13050 3150 12650 3150
Wire Wire Line
	13050 3250 12650 3250
Wire Wire Line
	13050 3350 12650 3350
Wire Wire Line
	13050 3650 12650 3650
NoConn ~ 13050 3450
NoConn ~ 13050 3550
NoConn ~ 13050 3750
$Comp
L power:GNDD #PWR032
U 1 1 5B635DF7
P 14650 3800
F 0 "#PWR032" H 14650 3550 50  0001 C CNN
F 1 "GNDD" H 14650 3650 50  0000 C CNN
F 2 "" H 14650 3800 50  0000 C CNN
F 3 "" H 14650 3800 50  0000 C CNN
	1    14650 3800
	1    0    0    -1  
$EndComp
Wire Wire Line
	14450 3750 14650 3750
Wire Wire Line
	14650 3350 14650 3450
Wire Wire Line
	14450 3650 14650 3650
Connection ~ 14650 3750
Wire Wire Line
	14450 3550 14650 3550
Connection ~ 14650 3650
Wire Wire Line
	14450 3450 14650 3450
Connection ~ 14650 3550
Wire Wire Line
	14450 3350 14650 3350
Connection ~ 14650 3450
Text Label 15000 2450 2    59   ~ 0
5VEnable
Text Label 12350 2950 0    59   ~ 0
3V3Enable
Text Label 12350 2650 0    59   ~ 0
12VAltEnable
Text Label 12350 2550 0    59   ~ 0
12VCamEnable
Text Label 14800 3050 2    59   ~ 0
TX
Text Label 14800 3150 2    59   ~ 0
RX
Text Label 12350 2750 0    59   ~ 0
CameraTrigger
Text Label 12350 2850 0    59   ~ 0
LightsTrigger
Text Label 14800 3250 2    59   ~ 0
Led
Wire Wire Line
	14450 3250 14800 3250
Wire Wire Line
	14450 3150 14800 3150
Wire Wire Line
	14800 2650 14450 2650
Wire Wire Line
	14450 2750 14800 2750
Wire Wire Line
	14450 2850 14800 2850
Wire Wire Line
	14450 2950 14800 2950
Wire Wire Line
	14450 3050 14800 3050
Wire Wire Line
	13050 2550 12350 2550
Wire Wire Line
	12350 2650 13050 2650
Wire Wire Line
	12350 2750 13050 2750
Wire Wire Line
	12350 2850 13050 2850
Wire Wire Line
	12350 2950 13050 2950
Wire Wire Line
	12350 3050 12450 3050
Text Label 13700 7400 2    59   ~ 0
NINAB1_3V3
Text Label 13550 7900 2    59   ~ 0
5VEnable
Text Label 7100 6750 2    59   ~ 0
MOSI
Text Label 7100 6850 2    59   ~ 0
MISO
Text Label 7100 6950 2    59   ~ 0
SCK
Text Label 5800 6950 0    59   ~ 0
CS
Text Label 5800 6750 0    59   ~ 0
TX
Text Label 5800 6850 0    59   ~ 0
RX
Wire Wire Line
	5800 6750 6200 6750
Wire Wire Line
	5800 6850 6200 6850
Wire Wire Line
	5800 6950 6200 6950
Wire Wire Line
	6700 6750 7100 6750
Wire Wire Line
	6700 6850 7100 6850
Wire Wire Line
	6700 6950 7100 6950
Text Notes 4900 7500 0    118  ~ 0
Camera Connectors
$Comp
L Top_Battery_Plate-rescue:CONN_02X03 P2
U 1 1 5B64B437
P 6300 8450
F 0 "P2" H 6300 8650 50  0000 C CNN
F 1 "CONN_02X03" H 6300 8250 50  0000 C CNN
F 2 "Sphere_lib_footprint:PicoBlade6PinRightAngleSMD" H 6300 7250 50  0001 C CNN
F 3 "" H 6300 7250 50  0000 C CNN
	1    6300 8450
	1    0    0    -1  
$EndComp
$Comp
L Top_Battery_Plate-rescue:CONN_02X03 P1
U 1 1 5B64B5B5
P 6300 7800
F 0 "P1" H 6300 8000 50  0000 C CNN
F 1 "CONN_02X03" H 6300 7600 50  0000 C CNN
F 2 "Sphere_lib_footprint:PicoBlade6PinRightAngleSMD" H 6300 6600 50  0001 C CNN
F 3 "" H 6300 6600 50  0000 C CNN
	1    6300 7800
	1    0    0    -1  
$EndComp
$Sheet
S 9400 7100 1250 700 
U 5B64CC9B
F0 "BatteryCharger" 61
F1 "battery_charger.sch" 59
F2 "BAT" I R 10650 7200 79 
F3 "PWR_GND" I L 9400 7650 79 
F4 "24Vin" I L 9400 7300 79 
F5 "GND" I R 10650 7650 79 
F6 "SHTDN" I R 10650 7500 59 
F7 "CHRG_SENSE" I R 10650 7350 59 
$EndSheet
$Comp
L Top_Battery_Plate-rescue:LED D5
U 1 1 5B650BC2
P 13400 5650
F 0 "D5" H 13400 5750 50  0000 C CNN
F 1 "LED" H 13400 5550 50  0000 C CNN
F 2 "LED_SMD:LED_0603_1608Metric_Pad1.05x0.95mm_HandSolder" H 13400 5650 50  0001 C CNN
F 3 "" H 13400 5650 50  0000 C CNN
F 4 "593-VAOL-S6GT4" H 9800 -700 50  0001 C CNN "Mouser#"
F 5 "D1" H 9800 -700 50  0001 C CNN "PartsLib#"
	1    13400 5650
	-1   0    0    1   
$EndComp
$Comp
L Top_Battery_Plate-rescue:R R14
U 1 1 5B651411
P 14050 5650
F 0 "R14" V 14130 5650 50  0000 C CNN
F 1 "280" V 14050 5650 50  0000 C CNN
F 2 "Resistor_SMD:R_0603_1608Metric_Pad1.05x0.95mm_HandSolder" V 13980 5650 50  0001 C CNN
F 3 "" H 14050 5650 50  0000 C CNN
	1    14050 5650
	0    1    1    0   
$EndComp
$Comp
L Top_Battery_Plate-rescue:2.0MM_W-TO-B_DUAL_CONN-RESCUE-Top_Battery_Plate J19
U 1 1 573CF1E5
P 5650 10700
F 0 "J19" H 6250 11900 60  0000 C CNN
F 1 "2.0MM_W-TO-B_DUAL_CONN" H 6050 10600 60  0000 C CNN
F 2 "Sphere_lib:2.0MM_W-TO-B_Dual_Conn_20_Pin" H 6100 10700 60  0000 C CNN
F 3 "" H 5650 10700 60  0000 C CNN
	1    5650 10700
	1    0    0    -1  
$EndComp
Wire Wire Line
	6600 9700 7350 9700
Wire Wire Line
	6600 9800 7250 9800
Text Label 7250 9800 2    59   ~ 0
PWR_GND
Text Label 7350 9700 2    59   ~ 0
Vin-Charge-24V
Text Label 8600 7300 0    59   ~ 0
Vin-Charge-24V
Wire Wire Line
	8600 7300 9400 7300
Wire Wire Line
	9400 7650 8700 7650
$Comp
L power:+BATT #PWR033
U 1 1 5B65A23F
P 11250 7100
F 0 "#PWR033" H 11250 6950 50  0001 C CNN
F 1 "+BATT" H 11250 7240 50  0000 C CNN
F 2 "" H 11250 7100 50  0000 C CNN
F 3 "" H 11250 7100 50  0000 C CNN
	1    11250 7100
	1    0    0    -1  
$EndComp
Text Label 8700 7650 0    59   ~ 0
PWR_GND
Wire Wire Line
	10650 7650 11150 7650
Wire Wire Line
	11150 7650 11150 7700
$Comp
L power:GNDD #PWR034
U 1 1 5B66017D
P 11150 7700
F 0 "#PWR034" H 11150 7450 50  0001 C CNN
F 1 "GNDD" H 11150 7550 50  0000 C CNN
F 2 "" H 11150 7700 50  0000 C CNN
F 3 "" H 11150 7700 50  0000 C CNN
	1    11150 7700
	1    0    0    -1  
$EndComp
Text Notes 8400 6650 0    118  ~ 0
Battery Charger
Wire Wire Line
	750  4250 2150 4250
Wire Wire Line
	750  900  750  1000
Text Label 1650 2350 0    59   ~ 0
3V3Enable
Text Label 7650 8050 2    59   ~ 0
CameraTrigger
Wire Wire Line
	6550 7900 6750 7900
$Comp
L power:GNDD #PWR035
U 1 1 5B66CF8D
P 6750 7900
F 0 "#PWR035" H 6750 7650 50  0001 C CNN
F 1 "GNDD" H 6750 7750 50  0000 C CNN
F 2 "" H 6750 7900 50  0000 C CNN
F 3 "" H 6750 7900 50  0000 C CNN
	1    6750 7900
	1    0    0    -1  
$EndComp
NoConn ~ 6550 7800
Wire Wire Line
	5500 7700 6050 7700
Text Label 3550 10800 2    59   ~ 0
12VCameras
Text Label 5500 7700 0    59   ~ 0
12VCameras
$Comp
L power:GNDD #PWR036
U 1 1 5B66FF44
P 6750 8550
F 0 "#PWR036" H 6750 8300 50  0001 C CNN
F 1 "GNDD" H 6750 8400 50  0000 C CNN
F 2 "" H 6750 8550 50  0000 C CNN
F 3 "" H 6750 8550 50  0000 C CNN
	1    6750 8550
	1    0    0    -1  
$EndComp
Wire Wire Line
	6550 8550 6750 8550
Wire Wire Line
	6550 8350 6800 8350
Text Label 7650 8700 2    59   ~ 0
CameraTrigger
Text Label 5500 8350 0    59   ~ 0
12VCameras
Wire Wire Line
	5500 8350 6050 8350
NoConn ~ 6050 7800
NoConn ~ 6050 7900
NoConn ~ 6050 8450
NoConn ~ 6050 8550
NoConn ~ 6550 8450
Wire Notes Line
	4700 2950 8150 2950
Text Notes 4850 850  0    118  ~ 0
RS232 Converter
Text Label 5350 9600 0    59   ~ 0
12VAltimeter
Wire Wire Line
	13600 5650 13900 5650
$Comp
L power:GNDD #PWR037
U 1 1 5B683017
P 14450 5700
F 0 "#PWR037" H 14450 5450 50  0001 C CNN
F 1 "GNDD" H 14450 5550 50  0000 C CNN
F 2 "" H 14450 5700 50  0000 C CNN
F 3 "" H 14450 5700 50  0000 C CNN
	1    14450 5700
	1    0    0    -1  
$EndComp
Wire Wire Line
	14200 5650 14450 5650
Wire Wire Line
	14450 5650 14450 5700
Wire Wire Line
	12950 5650 13200 5650
Text Label 12950 5650 0    59   ~ 0
Led
Wire Wire Line
	10750 10850 11050 10850
Wire Wire Line
	10450 10850 10750 10850
Wire Wire Line
	10150 10850 10450 10850
Wire Wire Line
	9850 10850 10150 10850
Wire Wire Line
	9850 10850 9850 10950
Wire Wire Line
	9550 10850 9850 10850
Wire Wire Line
	9250 10850 9550 10850
Wire Wire Line
	8950 10850 9250 10850
Wire Wire Line
	10750 8900 11050 8900
Wire Wire Line
	10450 8900 10750 8900
Wire Wire Line
	10150 8900 10450 8900
Wire Wire Line
	9850 8900 10150 8900
Wire Wire Line
	9850 8900 9850 9700
Wire Wire Line
	9550 8900 9850 8900
Wire Wire Line
	9250 8900 9550 8900
Wire Wire Line
	8950 8900 9250 8900
Wire Wire Line
	9100 1350 9100 2250
Wire Wire Line
	9100 2250 9100 3150
Wire Wire Line
	9100 3150 9100 4000
Wire Wire Line
	8900 4100 8900 4350
Wire Wire Line
	8900 3250 8900 3500
Wire Wire Line
	8900 2350 8900 2600
Wire Wire Line
	8900 1700 8900 2350
Wire Wire Line
	8900 2600 8900 3250
Wire Wire Line
	8900 3500 8900 4100
Wire Wire Line
	8900 4350 8900 4800
Wire Wire Line
	1950 2550 1950 2800
Wire Wire Line
	3150 2550 3150 2800
Wire Wire Line
	2100 2150 2150 2150
Wire Wire Line
	3200 2150 3450 2150
Wire Wire Line
	5800 6250 5800 6350
Wire Wire Line
	3450 2150 3800 2150
Wire Wire Line
	3550 1500 3550 1550
Wire Wire Line
	3650 1100 3650 1200
Wire Wire Line
	3250 7400 3250 7500
Wire Wire Line
	3250 7100 3250 7400
Wire Wire Line
	3250 6800 3250 7100
Wire Wire Line
	13700 7900 14000 7900
Wire Wire Line
	14700 7900 14950 7900
Wire Wire Line
	14000 8950 14350 8950
Wire Wire Line
	13850 8950 14000 8950
Wire Wire Line
	13700 8950 13850 8950
Wire Wire Line
	13550 8950 13700 8950
Wire Wire Line
	13400 8950 13550 8950
Wire Wire Line
	13250 8950 13400 8950
Wire Wire Line
	13100 8950 13250 8950
Wire Wire Line
	3650 1000 4050 1000
Wire Wire Line
	1350 1450 1350 1750
Wire Wire Line
	2000 1450 2150 1450
Wire Wire Line
	6450 5650 6700 5650
Wire Wire Line
	7700 1750 7700 1800
Wire Wire Line
	7700 1650 7700 1750
Wire Wire Line
	13700 7450 13700 7500
Wire Wire Line
	1350 1000 2150 1000
Wire Wire Line
	750  1000 750  2150
Wire Wire Line
	750  2150 750  3150
Wire Wire Line
	750  3150 750  4250
Wire Wire Line
	3150 2800 3450 2800
Wire Wire Line
	1950 2800 1950 2850
Wire Wire Line
	12600 2350 13050 2350
Wire Wire Line
	3500 4800 3500 4850
Wire Wire Line
	3500 3700 3500 3850
Wire Wire Line
	12750 4900 12750 4950
Wire Wire Line
	12750 4700 12750 4900
Wire Wire Line
	14650 3750 14650 3800
Wire Wire Line
	14650 3650 14650 3750
Wire Wire Line
	14650 3550 14650 3650
Wire Wire Line
	14650 3450 14650 3550
$Comp
L Connector_Generic:Conn_02x07_Top_Bottom J20
U 1 1 5BA796EF
P 6350 3950
F 0 "J20" H 6400 4467 50  0000 C CNN
F 1 "Conn_02x07_Top_Bottom" H 6400 4376 50  0000 C CNN
F 2 "Sphere_lib_footprint:Milligrid14pin" H 6350 3950 50  0001 C CNN
F 3 "~" H 6350 3950 50  0001 C CNN
	1    6350 3950
	1    0    0    -1  
$EndComp
Wire Wire Line
	6150 3650 5700 3650
Wire Wire Line
	6150 3750 5700 3750
$Comp
L power:GNDD #PWR0101
U 1 1 5BC77E9D
P 5500 4350
F 0 "#PWR0101" H 5500 4100 50  0001 C CNN
F 1 "GNDD" H 5500 4200 50  0000 C CNN
F 2 "" H 5500 4350 50  0000 C CNN
F 3 "" H 5500 4350 50  0000 C CNN
	1    5500 4350
	1    0    0    -1  
$EndComp
Wire Wire Line
	5500 4250 5500 4350
Wire Wire Line
	5500 4250 6150 4250
Wire Wire Line
	5500 4150 5500 4250
Wire Wire Line
	5500 4150 6150 4150
Connection ~ 5500 4250
Wire Wire Line
	5500 4050 5500 4150
Wire Wire Line
	5500 4050 6150 4050
Connection ~ 5500 4150
Wire Wire Line
	5500 3950 5500 4050
Wire Wire Line
	5500 3950 6150 3950
Connection ~ 5500 4050
Wire Wire Line
	5500 3850 5500 3950
Wire Wire Line
	5500 3850 6150 3850
Connection ~ 5500 3950
Wire Wire Line
	6650 3750 7250 3750
Wire Wire Line
	6650 3650 7250 3650
Text Label 7250 3750 2    59   ~ 0
CameraTrigger
$Comp
L power:+3.3V #PWR0102
U 1 1 5BE48D27
P 7250 3550
F 0 "#PWR0102" H 7250 3400 50  0001 C CNN
F 1 "+3.3V" H 7250 3690 50  0000 C CNN
F 2 "" H 7250 3550 50  0000 C CNN
F 3 "" H 7250 3550 50  0000 C CNN
	1    7250 3550
	1    0    0    -1  
$EndComp
Wire Wire Line
	7250 3550 7250 3650
Text Label 5700 3650 0    60   ~ 0
SDA
Text Label 5700 3750 0    60   ~ 0
SCL
Text Notes 4800 3200 0    118  ~ 0
Bottom Power PCB Connector
Text Label 15000 2550 2    59   ~ 0
ESCEnable
Wire Wire Line
	14450 2350 15000 2350
$Comp
L Top_Battery_Plate-rescue:MIC5018-Sphere_lib U12
U 1 1 5BF4CB3A
P 9550 5650
F 0 "U12" H 9550 5987 60  0000 C CNN
F 1 "MIC5018" H 9550 5881 60  0000 C CNN
F 2 "Sphere_lib_footprint:SOT-143" H 9500 5550 60  0001 C CNN
F 3 "" H 9500 5550 60  0000 C CNN
	1    9550 5650
	1    0    0    -1  
$EndComp
$Comp
L Device:Q_NMOS_DGS Q5
U 1 1 5BF4CD86
P 10350 5600
F 0 "Q5" H 10555 5646 50  0000 L CNN
F 1 "Q_NMOS_DGS" H 10555 5555 50  0000 L CNN
F 2 "Sphere_lib_footprint:PowerPAKSO-8" H 10550 5700 50  0001 C CNN
F 3 "~" H 10350 5600 50  0001 C CNN
	1    10350 5600
	1    0    0    -1  
$EndComp
$Comp
L power:GNDD #PWR0103
U 1 1 5BF4CE8C
P 10000 5800
F 0 "#PWR0103" H 10000 5550 50  0001 C CNN
F 1 "GNDD" H 10000 5650 50  0000 C CNN
F 2 "" H 10000 5800 50  0000 C CNN
F 3 "" H 10000 5800 50  0000 C CNN
	1    10000 5800
	1    0    0    -1  
$EndComp
Wire Wire Line
	9950 5600 10150 5600
Wire Wire Line
	10450 5800 10450 5950
Wire Wire Line
	10450 5950 10600 5950
$Comp
L Device:R_Small R29
U 1 1 5BFC387C
P 9150 6000
F 0 "R29" H 9209 6046 50  0000 L CNN
F 1 "5k" H 9209 5955 50  0000 L CNN
F 2 "Resistor_SMD:R_0603_1608Metric_Pad1.05x0.95mm_HandSolder" H 9150 6000 50  0001 C CNN
F 3 "~" H 9150 6000 50  0001 C CNN
	1    9150 6000
	1    0    0    -1  
$EndComp
Text Label 3000 9650 0    59   ~ 0
Batreg
Text Label 10450 5100 0    59   ~ 0
Batreg
Wire Wire Line
	10450 5100 10450 5200
Wire Wire Line
	10450 5200 9100 5200
Wire Wire Line
	9100 5200 9100 5600
Wire Wire Line
	9100 5600 9150 5600
Connection ~ 10450 5200
Wire Wire Line
	10450 5200 10450 5400
$Comp
L Device:CP1_Small C24
U 1 1 5C0B0526
P 8550 5400
F 0 "C24" H 8641 5446 50  0000 L CNN
F 1 "CP1_Small" H 8641 5355 50  0000 L CNN
F 2 "Capacitor_SMD:C_0603_1608Metric_Pad1.05x0.95mm_HandSolder" H 8550 5400 50  0001 C CNN
F 3 "~" H 8550 5400 50  0001 C CNN
	1    8550 5400
	1    0    0    -1  
$EndComp
Wire Wire Line
	9150 5700 9150 5900
Wire Wire Line
	9950 5700 10000 5700
Wire Wire Line
	10000 5700 10000 5800
Wire Wire Line
	9150 5700 8650 5700
Connection ~ 9150 5700
Wire Wire Line
	8550 5500 8550 6100
Wire Wire Line
	8550 6100 8900 6100
$Comp
L power:GNDD #PWR0104
U 1 1 5C155F8D
P 8900 6150
F 0 "#PWR0104" H 8900 5900 50  0001 C CNN
F 1 "GNDD" H 8900 6000 50  0000 C CNN
F 2 "" H 8900 6150 50  0000 C CNN
F 3 "" H 8900 6150 50  0000 C CNN
	1    8900 6150
	1    0    0    -1  
$EndComp
Wire Wire Line
	8900 6100 8900 6150
Connection ~ 8900 6100
Wire Wire Line
	8900 6100 9150 6100
Wire Wire Line
	8550 5300 8550 5200
Wire Wire Line
	8550 5200 9100 5200
Connection ~ 9100 5200
Text Label 8650 5700 0    59   ~ 0
ESCEnable
Wire Wire Line
	1850 3950 1850 3850
Wire Wire Line
	1850 3700 2150 3700
Wire Wire Line
	1450 3400 2050 3400
Wire Wire Line
	2050 3400 2050 3600
Wire Wire Line
	2050 3600 2150 3600
Wire Wire Line
	1450 3800 1450 3850
Wire Wire Line
	1450 3850 1850 3850
Connection ~ 1850 3850
Wire Wire Line
	1850 3850 1850 3700
Wire Wire Line
	2150 4800 1900 4800
Wire Wire Line
	1900 4800 1900 4900
Wire Wire Line
	1400 4500 1400 4450
Wire Wire Line
	1400 4450 2000 4450
Wire Wire Line
	2000 4450 2000 4700
Wire Wire Line
	2000 4700 2150 4700
Wire Wire Line
	1400 4900 1900 4900
Connection ~ 1900 4900
Wire Wire Line
	1900 4900 1900 5000
Text Label 600  4550 0    59   ~ 0
12VCamEnable
Text Label 850  3300 0    59   ~ 0
12VAltEnable
Wire Wire Line
	850  3600 850  3300
Wire Wire Line
	600  4550 600  4700
$Comp
L power:+BATT #PWR0105
U 1 1 5C386D7C
P 7400 3750
F 0 "#PWR0105" H 7400 3600 50  0001 C CNN
F 1 "+BATT" H 7400 3890 50  0000 C CNN
F 2 "" H 7400 3750 50  0000 C CNN
F 3 "" H 7400 3750 50  0000 C CNN
	1    7400 3750
	1    0    0    -1  
$EndComp
Wire Wire Line
	7400 3850 7400 3750
Wire Wire Line
	6650 3850 7400 3850
Wire Wire Line
	7400 3950 7400 3850
Wire Wire Line
	6650 3950 7400 3950
Connection ~ 7400 3850
Wire Wire Line
	7400 4050 7400 3950
Wire Wire Line
	6650 4050 7400 4050
Connection ~ 7400 3950
Wire Wire Line
	7400 4150 7400 4050
Wire Wire Line
	6650 4150 7400 4150
Connection ~ 7400 4050
Wire Wire Line
	7400 4250 7400 4150
Wire Wire Line
	6650 4250 7400 4250
Connection ~ 7400 4150
$Comp
L Regulator_Linear:LM3480-3.3 U9
U 1 1 5BAA8AD6
P 13050 1200
F 0 "U9" H 13050 1442 50  0000 C CNN
F 1 "LM3480-3.3" H 13050 1351 50  0000 C CNN
F 2 "Package_TO_SOT_SMD:SOT-23" H 13050 1425 50  0001 C CIN
F 3 "http://www.ti.com/lit/ds/symlink/lm3480.pdf" H 13050 1200 50  0001 C CNN
	1    13050 1200
	1    0    0    -1  
$EndComp
Wire Wire Line
	12200 1200 12400 1200
Wire Wire Line
	13050 1500 13050 1550
Wire Wire Line
	13350 1200 13800 1200
$Comp
L Device:C_Small C25
U 1 1 5BB6B4DF
P 12400 1450
F 0 "C25" H 12492 1496 50  0000 L CNN
F 1 "0.1uF" H 12492 1405 50  0000 L CNN
F 2 "Capacitor_SMD:C_0603_1608Metric_Pad1.05x0.95mm_HandSolder" H 12400 1450 50  0001 C CNN
F 3 "~" H 12400 1450 50  0001 C CNN
	1    12400 1450
	1    0    0    -1  
$EndComp
$Comp
L Device:C_Small C26
U 1 1 5BB6B5ED
P 13800 1450
F 0 "C26" H 13892 1496 50  0000 L CNN
F 1 "0.1uF" H 13892 1405 50  0000 L CNN
F 2 "Capacitor_SMD:C_0603_1608Metric_Pad1.05x0.95mm_HandSolder" H 13800 1450 50  0001 C CNN
F 3 "~" H 13800 1450 50  0001 C CNN
	1    13800 1450
	1    0    0    -1  
$EndComp
Wire Wire Line
	13800 1200 13800 1350
Connection ~ 13800 1200
Wire Wire Line
	13800 1550 13050 1550
Connection ~ 13050 1550
Wire Wire Line
	13050 1550 13050 1650
Wire Wire Line
	13050 1550 12400 1550
Wire Wire Line
	12400 1350 12400 1200
Connection ~ 12400 1200
Wire Wire Line
	12400 1200 12750 1200
Wire Wire Line
	14450 2450 15000 2450
Wire Wire Line
	6700 5650 6700 6050
$Comp
L Connector_Generic:Conn_02x11_Odd_Even J21
U 1 1 5BCF9CE1
P 6400 6550
F 0 "J21" H 6450 7267 50  0000 C CNN
F 1 "Conn_02x11_Odd_Even" H 6450 7176 50  0000 C CNN
F 2 "Sphere_lib_footprint:Milligrid22pin" H 6400 6550 50  0001 C CNN
F 3 "~" H 6400 6550 50  0001 C CNN
	1    6400 6550
	1    0    0    -1  
$EndComp
Wire Wire Line
	6700 6050 6700 6150
Connection ~ 6700 6050
Text Label 7100 7050 2    59   ~ 0
nReset
Wire Wire Line
	6700 7050 7100 7050
$Comp
L Top_Battery_Plate-rescue:LED D12
U 1 1 5BD94195
P 2500 6100
F 0 "D12" H 2500 6200 50  0000 C CNN
F 1 "LED" H 2500 6000 50  0000 C CNN
F 2 "LED_SMD:LED_0603_1608Metric_Pad1.05x0.95mm_HandSolder" H 2500 6100 50  0001 C CNN
F 3 "" H 2500 6100 50  0000 C CNN
F 4 "593-VAOL-S6GT4" H -1100 -250 50  0001 C CNN "Mouser#"
F 5 "D1" H -1100 -250 50  0001 C CNN "PartsLib#"
	1    2500 6100
	-1   0    0    1   
$EndComp
$Comp
L Top_Battery_Plate-rescue:R R31
U 1 1 5BD94257
P 3000 6100
F 0 "R31" V 3080 6100 50  0000 C CNN
F 1 "?" V 3000 6100 50  0000 C CNN
F 2 "Resistor_SMD:R_0603_1608Metric_Pad1.05x0.95mm_HandSolder" V 2930 6100 50  0001 C CNN
F 3 "" H 3000 6100 50  0000 C CNN
	1    3000 6100
	0    1    1    0   
$EndComp
$Comp
L Top_Battery_Plate-rescue:LED D11
U 1 1 5BDC880F
P 2500 5700
F 0 "D11" H 2500 5800 50  0000 C CNN
F 1 "LED" H 2500 5600 50  0000 C CNN
F 2 "LED_SMD:LED_0603_1608Metric_Pad1.05x0.95mm_HandSolder" H 2500 5700 50  0001 C CNN
F 3 "" H 2500 5700 50  0000 C CNN
F 4 "593-VAOL-S6GT4" H -1100 -650 50  0001 C CNN "Mouser#"
F 5 "D1" H -1100 -650 50  0001 C CNN "PartsLib#"
	1    2500 5700
	-1   0    0    1   
$EndComp
$Comp
L Top_Battery_Plate-rescue:R R30
U 1 1 5BDC88C9
P 3000 5700
F 0 "R30" V 3080 5700 50  0000 C CNN
F 1 "?" V 3000 5700 50  0000 C CNN
F 2 "Resistor_SMD:R_0603_1608Metric_Pad1.05x0.95mm_HandSolder" V 2930 5700 50  0001 C CNN
F 3 "" H 3000 5700 50  0000 C CNN
	1    3000 5700
	0    1    1    0   
$EndComp
Text Label 1750 6100 0    59   ~ 0
12VCameras
Wire Wire Line
	2300 6100 1750 6100
Wire Wire Line
	2700 6100 2850 6100
Wire Wire Line
	2700 5700 2850 5700
Wire Wire Line
	3150 5700 3250 5700
Wire Wire Line
	3250 5700 3250 6100
Connection ~ 3250 6500
Wire Wire Line
	3150 6100 3250 6100
Connection ~ 3250 6100
Wire Wire Line
	3250 6100 3250 6500
Wire Notes Line
	4700 7300 8150 7300
Wire Notes Line
	11800 8150 8150 8150
Wire Notes Line
	500  5200 8150 5200
Wire Notes Line
	8150 6350 11800 6350
$Sheet
S 2250 10550 600  400 
U 5BB4403B
F0 "ina219_cam" 59
F1 "ina219_cam.sch" 59
F2 "SCL" I L 2250 10650 59 
F3 "SDA" I L 2250 10800 59 
F4 "IN+" I R 2850 10650 59 
F5 "IN-" I R 2850 10800 59 
$EndSheet
$Sheet
S 2250 9950 600  350 
U 5BB45C0C
F0 "ina219_alt" 59
F1 "ina219_alt.sch" 59
F2 "SCL" I L 2250 10050 59 
F3 "SDA" I L 2250 10200 59 
F4 "IN+" I R 2850 10050 59 
F5 "IN-" I R 2850 10200 59 
$EndSheet
Wire Wire Line
	2850 8900 2900 8900
$Sheet
S 2250 8700 600  400 
U 57B83F54
F0 "ina219_3.3" 60
F1 "ina219_3.3.sch" 60
F2 "SCL" I L 2250 8800 60 
F3 "SDA" I L 2250 8950 60 
F4 "IN+" I R 2850 8900 60 
F5 "IN-" I R 2850 8800 60 
$EndSheet
Wire Wire Line
	3250 8650 3250 8800
Wire Wire Line
	3250 8800 2850 8800
Wire Wire Line
	2950 8350 2850 8350
Wire Wire Line
	3350 8150 3350 8250
Wire Wire Line
	3350 8250 2850 8250
Wire Wire Line
	3350 9400 3350 9500
Wire Wire Line
	2850 9500 3350 9500
Wire Wire Line
	2850 9650 3000 9650
Text Label 1700 8100 0    60   ~ 0
SDA
Text Label 2000 8100 0    60   ~ 0
SCL
Wire Wire Line
	2000 8100 2000 8250
Wire Wire Line
	2000 10650 2250 10650
Wire Wire Line
	2250 10050 2000 10050
Connection ~ 2000 10050
Wire Wire Line
	2000 10050 2000 10650
Wire Wire Line
	2250 9500 2000 9500
Connection ~ 2000 9500
Wire Wire Line
	2000 9500 2000 10050
Wire Wire Line
	2250 8800 2000 8800
Connection ~ 2000 8800
Wire Wire Line
	2000 8800 2000 9500
Wire Wire Line
	2250 8250 2000 8250
Connection ~ 2000 8250
Wire Wire Line
	2000 8250 2000 8800
Wire Wire Line
	1700 8100 1700 8350
Wire Wire Line
	1700 10800 2250 10800
Wire Wire Line
	2250 10200 1700 10200
Connection ~ 1700 10200
Wire Wire Line
	1700 10200 1700 10800
Wire Wire Line
	2250 9650 1700 9650
Connection ~ 1700 9650
Wire Wire Line
	1700 9650 1700 10200
Wire Wire Line
	1700 8950 2250 8950
Connection ~ 1700 8950
Wire Wire Line
	1700 8950 1700 9650
Wire Wire Line
	2250 8350 1700 8350
Connection ~ 1700 8350
Wire Wire Line
	1700 8350 1700 8950
Text Label 3550 10200 2    59   ~ 0
12VAltimeter
Wire Wire Line
	2850 10200 3550 10200
Wire Wire Line
	2850 10800 3550 10800
Text Label 3750 10050 2    59   ~ 0
12VAltimeter_noreg
Wire Wire Line
	2850 10050 3750 10050
Text Label 4400 3150 2    59   ~ 0
12VAltimeter_noreg
Wire Wire Line
	3500 3150 3850 3150
Wire Wire Line
	2850 10650 3750 10650
Text Label 3750 10650 2    59   ~ 0
12VCameras_noreg
Text Label 4400 4250 2    59   ~ 0
12VCameras_noreg
Wire Wire Line
	3500 4250 3850 4250
Text Label 1450 5700 0    59   ~ 0
12VAltimeter_noreg
Wire Wire Line
	1450 5700 2300 5700
Text Label 11450 7500 2    59   ~ 0
CHRG_SHUTDWN
Text Label 12350 3050 0    59   ~ 0
CHRG_SHUTDWN
$Comp
L Top_Battery_Plate-rescue:R R15
U 1 1 5C3CEC10
P 12450 3250
F 0 "R15" V 12530 3250 50  0000 C CNN
F 1 "1k" V 12450 3250 50  0000 C CNN
F 2 "Resistor_SMD:R_0603_1608Metric_Pad1.05x0.95mm_HandSolder" V 12380 3250 50  0001 C CNN
F 3 "" H 12450 3250 50  0000 C CNN
	1    12450 3250
	-1   0    0    1   
$EndComp
Wire Wire Line
	12450 3050 12450 3100
Connection ~ 12450 3050
Wire Wire Line
	12450 3050 13050 3050
$Comp
L power:GNDD #PWR0106
U 1 1 5C40926E
P 12450 3450
F 0 "#PWR0106" H 12450 3200 50  0001 C CNN
F 1 "GNDD" H 12450 3300 50  0000 C CNN
F 2 "" H 12450 3450 50  0000 C CNN
F 3 "" H 12450 3450 50  0000 C CNN
	1    12450 3450
	1    0    0    -1  
$EndComp
Wire Wire Line
	12450 3400 12450 3450
Wire Wire Line
	10650 7200 11250 7200
Wire Wire Line
	11250 7200 11250 7100
Wire Wire Line
	11450 7500 10650 7500
Wire Wire Line
	10650 7350 11450 7350
Text Label 11450 7350 2    59   ~ 0
CHRG_SENSE
Text Label 15000 2350 2    59   ~ 0
CHRG_SENSE
Wire Wire Line
	14450 2550 15000 2550
$Comp
L Device:C_Small C32
U 1 1 5C54A9F9
P 4050 1350
F 0 "C32" H 4142 1396 50  0000 L CNN
F 1 "0.1uF" H 4142 1305 50  0000 L CNN
F 2 "Capacitor_SMD:C_0603_1608Metric_Pad1.05x0.95mm_HandSolder" H 4050 1350 50  0001 C CNN
F 3 "~" H 4050 1350 50  0001 C CNN
	1    4050 1350
	1    0    0    -1  
$EndComp
Wire Wire Line
	3650 1500 4050 1500
Wire Wire Line
	4050 1500 4050 1450
Connection ~ 3650 1500
Wire Wire Line
	4050 1250 4050 1000
Connection ~ 4050 1000
Wire Wire Line
	4050 1000 4200 1000
$Comp
L Device:C_Small C29
U 1 1 5C5C35C2
P 3800 2500
F 0 "C29" H 3892 2546 50  0000 L CNN
F 1 "0.1uF" H 3892 2455 50  0000 L CNN
F 2 "Capacitor_SMD:C_0603_1608Metric_Pad1.05x0.95mm_HandSolder" H 3800 2500 50  0001 C CNN
F 3 "~" H 3800 2500 50  0001 C CNN
	1    3800 2500
	1    0    0    -1  
$EndComp
Connection ~ 3450 2800
Wire Wire Line
	3800 2600 3800 2800
Wire Wire Line
	3450 2800 3800 2800
Wire Wire Line
	3800 2400 3800 2150
Connection ~ 3800 2150
Wire Wire Line
	3800 2150 4000 2150
$Comp
L Device:C_Small C30
U 1 1 5C67AB98
P 3850 3400
F 0 "C30" H 3942 3446 50  0000 L CNN
F 1 "0.1uF" H 3942 3355 50  0000 L CNN
F 2 "Capacitor_SMD:C_0603_1608Metric_Pad1.05x0.95mm_HandSolder" H 3850 3400 50  0001 C CNN
F 3 "~" H 3850 3400 50  0001 C CNN
	1    3850 3400
	1    0    0    -1  
$EndComp
Wire Wire Line
	3850 3300 3850 3150
Connection ~ 3850 3150
Wire Wire Line
	3850 3150 4400 3150
Wire Wire Line
	3850 3500 3850 3700
Wire Wire Line
	3850 3700 3500 3700
$Comp
L Device:C_Small C31
U 1 1 5C6F6BFE
P 3850 4500
F 0 "C31" H 3942 4546 50  0000 L CNN
F 1 "0.1uF" H 3942 4455 50  0000 L CNN
F 2 "Capacitor_SMD:C_0603_1608Metric_Pad1.05x0.95mm_HandSolder" H 3850 4500 50  0001 C CNN
F 3 "~" H 3850 4500 50  0001 C CNN
	1    3850 4500
	1    0    0    -1  
$EndComp
Wire Wire Line
	3850 4400 3850 4250
Connection ~ 3850 4250
Wire Wire Line
	3850 4250 4400 4250
Wire Wire Line
	3850 4600 3850 4800
Wire Wire Line
	3850 4800 3500 4800
$Comp
L Device:C_Small C33
U 1 1 5C7753D9
P 14250 1450
F 0 "C33" H 14342 1496 50  0000 L CNN
F 1 "1uF" H 14342 1405 50  0000 L CNN
F 2 "Capacitor_SMD:C_0603_1608Metric_Pad1.05x0.95mm_HandSolder" H 14250 1450 50  0001 C CNN
F 3 "~" H 14250 1450 50  0001 C CNN
	1    14250 1450
	1    0    0    -1  
$EndComp
Wire Wire Line
	14250 1350 14250 1200
Wire Wire Line
	13800 1200 14250 1200
Wire Wire Line
	13800 1550 14250 1550
Connection ~ 13800 1550
$Comp
L Device:Q_NPN_BEC Q4
U 1 1 5D4FB43E
P 1350 3600
F 0 "Q4" H 1541 3646 50  0000 L CNN
F 1 "Q_NPN_BEC" H 1541 3555 50  0000 L CNN
F 2 "Package_TO_SOT_SMD:SOT-23" H 1550 3700 50  0001 C CNN
F 3 "~" H 1350 3600 50  0001 C CNN
	1    1350 3600
	1    0    0    -1  
$EndComp
$Comp
L Device:Q_NPN_BEC Q3
U 1 1 5D501E06
P 1300 4700
F 0 "Q3" H 1491 4746 50  0000 L CNN
F 1 "Q_NPN_BEC" H 1491 4655 50  0000 L CNN
F 2 "Package_TO_SOT_SMD:SOT-23" H 1500 4800 50  0001 C CNN
F 3 "~" H 1300 4700 50  0001 C CNN
	1    1300 4700
	1    0    0    -1  
$EndComp
$Comp
L Top_Battery_Plate-rescue:R R11
U 1 1 5D5042CA
P 900 4700
F 0 "R11" V 980 4700 50  0000 C CNN
F 1 "820k" V 900 4700 50  0000 C CNN
F 2 "Resistor_SMD:R_0603_1608Metric_Pad1.05x0.95mm_HandSolder" V 830 4700 50  0001 C CNN
F 3 "" H 900 4700 50  0000 C CNN
	1    900  4700
	0    1    1    0   
$EndComp
Wire Wire Line
	1100 4700 1050 4700
Wire Wire Line
	750  4700 600  4700
$Comp
L Top_Battery_Plate-rescue:R R12
U 1 1 5D584D20
P 1000 3600
F 0 "R12" V 1080 3600 50  0000 C CNN
F 1 "820k" V 1000 3600 50  0000 C CNN
F 2 "Resistor_SMD:R_0603_1608Metric_Pad1.05x0.95mm_HandSolder" V 930 3600 50  0001 C CNN
F 3 "" H 1000 3600 50  0000 C CNN
	1    1000 3600
	0    1    1    0   
$EndComp
$Comp
L Transistor_FET:BSS84 Q7
U 1 1 5D6F10E0
P 7000 8450
F 0 "Q7" V 7343 8450 50  0000 C CNN
F 1 "BSS84" V 7252 8450 50  0000 C CNN
F 2 "Package_TO_SOT_SMD:SOT-23" H 7200 8375 50  0001 L CIN
F 3 "http://assets.nexperia.com/documents/data-sheet/BSS84.pdf" H 7000 8450 50  0001 L CNN
	1    7000 8450
	0    -1   -1   0   
$EndComp
Wire Wire Line
	6800 7700 6550 7700
$Comp
L Transistor_FET:BSS84 Q6
U 1 1 5D6F1DFE
P 7000 7800
F 0 "Q6" V 7343 7800 50  0000 C CNN
F 1 "BSS84" V 7252 7800 50  0000 C CNN
F 2 "Package_TO_SOT_SMD:SOT-23" H 7200 7725 50  0001 L CIN
F 3 "http://assets.nexperia.com/documents/data-sheet/BSS84.pdf" H 7000 7800 50  0001 L CNN
	1    7000 7800
	0    -1   -1   0   
$EndComp
Wire Wire Line
	7650 8050 7000 8050
Wire Wire Line
	7000 8050 7000 8000
Wire Wire Line
	7650 8700 7000 8700
Wire Wire Line
	7000 8700 7000 8650
Text Label 7800 7550 2    59   ~ 0
NINAB1_3V3
Wire Wire Line
	7800 7550 7800 7700
Wire Wire Line
	7200 8350 7800 8350
Connection ~ 7800 7700
Wire Wire Line
	7800 7700 7800 8350
Wire Wire Line
	7200 7700 7800 7700
Wire Wire Line
	12550 6100 13200 6100
Wire Wire Line
	14450 6100 14450 6150
Wire Wire Line
	14200 6100 14450 6100
$Comp
L power:GNDD #PWR023
U 1 1 5C83B3A0
P 14450 6150
F 0 "#PWR023" H 14450 5900 50  0001 C CNN
F 1 "GNDD" H 14450 6000 50  0000 C CNN
F 2 "" H 14450 6150 50  0000 C CNN
F 3 "" H 14450 6150 50  0000 C CNN
	1    14450 6150
	1    0    0    -1  
$EndComp
Wire Wire Line
	13600 6100 13900 6100
$Comp
L Top_Battery_Plate-rescue:R R10
U 1 1 5C83B398
P 14050 6100
F 0 "R10" V 14130 6100 50  0000 C CNN
F 1 "280" V 14050 6100 50  0000 C CNN
F 2 "Resistor_SMD:R_0603_1608Metric_Pad1.05x0.95mm_HandSolder" V 13980 6100 50  0001 C CNN
F 3 "" H 14050 6100 50  0000 C CNN
	1    14050 6100
	0    1    1    0   
$EndComp
$Comp
L Top_Battery_Plate-rescue:LED D13
U 1 1 5C83B391
P 13400 6100
F 0 "D13" H 13400 6200 50  0000 C CNN
F 1 "LED" H 13400 6000 50  0000 C CNN
F 2 "LED_SMD:LED_0603_1608Metric_Pad1.05x0.95mm_HandSolder" H 13400 6100 50  0001 C CNN
F 3 "" H 13400 6100 50  0000 C CNN
F 4 "593-VAOL-S6GT4" H 9800 -250 50  0001 C CNN "Mouser#"
F 5 "D1" H 9800 -250 50  0001 C CNN "PartsLib#"
	1    13400 6100
	-1   0    0    1   
$EndComp
Text Label 6600 7700 0    59   ~ 0
CT_1
Text Label 6600 8350 0    59   ~ 0
CT_2
Text Label 12550 6100 0    59   ~ 0
CT_1
Wire Wire Line
	12550 6500 13200 6500
Wire Wire Line
	14450 6500 14450 6550
Wire Wire Line
	14200 6500 14450 6500
$Comp
L power:GNDD #PWR0107
U 1 1 5DA0D11E
P 14450 6550
F 0 "#PWR0107" H 14450 6300 50  0001 C CNN
F 1 "GNDD" H 14450 6400 50  0000 C CNN
F 2 "" H 14450 6550 50  0000 C CNN
F 3 "" H 14450 6550 50  0000 C CNN
	1    14450 6550
	1    0    0    -1  
$EndComp
Wire Wire Line
	13600 6500 13900 6500
$Comp
L Top_Battery_Plate-rescue:R R34
U 1 1 5DA0D129
P 14050 6500
F 0 "R34" V 14130 6500 50  0000 C CNN
F 1 "280" V 14050 6500 50  0000 C CNN
F 2 "Resistor_SMD:R_0603_1608Metric_Pad1.05x0.95mm_HandSolder" V 13980 6500 50  0001 C CNN
F 3 "" H 14050 6500 50  0000 C CNN
	1    14050 6500
	0    1    1    0   
$EndComp
$Comp
L Top_Battery_Plate-rescue:LED D14
U 1 1 5DA0D135
P 13400 6500
F 0 "D14" H 13400 6600 50  0000 C CNN
F 1 "LED" H 13400 6400 50  0000 C CNN
F 2 "LED_SMD:LED_0603_1608Metric_Pad1.05x0.95mm_HandSolder" H 13400 6500 50  0001 C CNN
F 3 "" H 13400 6500 50  0000 C CNN
F 4 "593-VAOL-S6GT4" H 9800 150 50  0001 C CNN "Mouser#"
F 5 "D1" H 9800 150 50  0001 C CNN "PartsLib#"
	1    13400 6500
	-1   0    0    1   
$EndComp
Text Label 12550 6500 0    59   ~ 0
CT_2
$EndSCHEMATC
