(export (version D)
  (design
    (source /home/eiscar/Spheres/Electronics/Top_Battery_Plate/Top_Battery_Plate.sch)
    (date "Mon 20 Aug 2018 11:08:22 AM EDT")
    (tool "Eeschema 4.0.2-4+6225~38~ubuntu14.04.1-stable")
    (sheet (number 1) (name /) (tstamps /)
      (title_block
        (title "Power Management Board")
        (company "DROP Lab, University of Michigan")
        (rev 0.4)
        (date 2017-10-10)
        (source Top_Battery_Plate.sch)
        (comment (number 1) (value "Designed by Eduardo Iscar"))
        (comment (number 2) (value ""))
        (comment (number 3) (value ""))
        (comment (number 4) (value ""))))
    (sheet (number 2) (name /Bat_ina219/) (tstamps /57B5FC30/)
      (title_block
        (title "Power Management Board")
        (company "DROP Lab, University of Michigan")
        (rev 0.4)
        (date 2017-10-10)
        (source ina219.sch)
        (comment (number 1) (value "Designed by Eduardo Iscar"))
        (comment (number 2) (value ""))
        (comment (number 3) (value ""))
        (comment (number 4) (value ""))))
    (sheet (number 3) (name /ina219_5/) (tstamps /57B82EA7/)
      (title_block
        (title "Power Management Board")
        (company "DROP Lab, University of Michigan")
        (rev 0.4)
        (date 2017-10-10)
        (source ina219_5.sch)
        (comment (number 1) (value "Designed by Eduardo Iscar"))
        (comment (number 2) (value ""))
        (comment (number 3) (value ""))
        (comment (number 4) (value ""))))
    (sheet (number 4) (name /ina219_3.3/) (tstamps /57B83F54/)
      (title_block
        (title "Power Management Board")
        (company "DROP Lab, University of Michigan")
        (rev 0.4)
        (date 2017-10-10)
        (source ina219_3.3.sch)
        (comment (number 1) (value "Designed by Eduardo Iscar"))
        (comment (number 2) (value ""))
        (comment (number 3) (value ""))
        (comment (number 4) (value ""))))
    (sheet (number 5) (name /BatteryCharger/) (tstamps /5B64CC9B/)
      (title_block
        (title)
        (company)
        (rev)
        (date)
        (source battery_charger.sch)
        (comment (number 1) (value ""))
        (comment (number 2) (value ""))
        (comment (number 3) (value ""))
        (comment (number 4) (value "")))))
  (components
    (comp (ref J3)
      (value BatCont)
      (footprint Sphere_lib:Keystone_5224_Battery_Contact)
      (fields
        (field (name Mouser#) 534-5202)
        (field (name PartsLib#) J2))
      (libsource (lib Sphere_lib) (part BatCont))
      (sheetpath (names /) (tstamps /))
      (tstamp 5734F1AE))
    (comp (ref J5)
      (value BatCont)
      (footprint Sphere_lib:Keystone_5224_Battery_Contact)
      (fields
        (field (name Mouser#) 534-5202)
        (field (name PartsLib#) J2))
      (libsource (lib Sphere_lib) (part BatCont))
      (sheetpath (names /) (tstamps /))
      (tstamp 5734F296))
    (comp (ref J11)
      (value BatCont)
      (footprint Sphere_lib:Keystone_5224_Battery_Contact)
      (fields
        (field (name Mouser#) 534-5202)
        (field (name PartsLib#) J2))
      (libsource (lib Sphere_lib) (part BatCont))
      (sheetpath (names /) (tstamps /))
      (tstamp 5734F2C0))
    (comp (ref J9)
      (value BatCont)
      (footprint Sphere_lib:Keystone_5224_Battery_Contact)
      (fields
        (field (name Mouser#) 534-5202)
        (field (name PartsLib#) J2))
      (libsource (lib Sphere_lib) (part BatCont))
      (sheetpath (names /) (tstamps /))
      (tstamp 5734F2EB))
    (comp (ref J7)
      (value BatCont)
      (footprint Sphere_lib:Keystone_5224_Battery_Contact)
      (fields
        (field (name Mouser#) 534-5202)
        (field (name PartsLib#) J2))
      (libsource (lib Sphere_lib) (part BatCont))
      (sheetpath (names /) (tstamps /))
      (tstamp 5734F311))
    (comp (ref J13)
      (value BatCont)
      (footprint Sphere_lib:Keystone_5224_Battery_Contact)
      (fields
        (field (name Mouser#) 534-5202)
        (field (name PartsLib#) J2))
      (libsource (lib Sphere_lib) (part BatCont))
      (sheetpath (names /) (tstamps /))
      (tstamp 5734F3BE))
    (comp (ref J15)
      (value BatCont)
      (footprint Sphere_lib:Keystone_5224_Battery_Contact)
      (fields
        (field (name Mouser#) 534-5202)
        (field (name PartsLib#) J2))
      (libsource (lib Sphere_lib) (part BatCont))
      (sheetpath (names /) (tstamps /))
      (tstamp 5734F3F0))
    (comp (ref J17)
      (value BatCont)
      (footprint Sphere_lib:Keystone_5224_Battery_Contact)
      (fields
        (field (name Mouser#) 534-5202)
        (field (name PartsLib#) J2))
      (libsource (lib Sphere_lib) (part BatCont))
      (sheetpath (names /) (tstamps /))
      (tstamp 5734F41D))
    (comp (ref J18)
      (value BatCont)
      (footprint Sphere_lib:Keystone_5224_Battery_Contact)
      (fields
        (field (name Mouser#) 534-5202)
        (field (name PartsLib#) J2))
      (libsource (lib Sphere_lib) (part BatCont))
      (sheetpath (names /) (tstamps /))
      (tstamp 5734F44D))
    (comp (ref J1)
      (value BatCont)
      (footprint Sphere_lib:Keystone_5224_Battery_Contact)
      (fields
        (field (name Mouser#) 534-5224)
        (field (name PartsLib#) J1))
      (libsource (lib Sphere_lib) (part BatCont))
      (sheetpath (names /) (tstamps /))
      (tstamp 5734F7E7))
    (comp (ref J2)
      (value BatCont)
      (footprint Sphere_lib:Keystone_5224_Battery_Contact)
      (fields
        (field (name Mouser#) 534-5224)
        (field (name PartsLib#) J1))
      (libsource (lib Sphere_lib) (part BatCont))
      (sheetpath (names /) (tstamps /))
      (tstamp 5734F7ED))
    (comp (ref J8)
      (value BatCont)
      (footprint Sphere_lib:Keystone_5224_Battery_Contact)
      (fields
        (field (name Mouser#) 534-5224)
        (field (name PartsLib#) J1))
      (libsource (lib Sphere_lib) (part BatCont))
      (sheetpath (names /) (tstamps /))
      (tstamp 5734F7F3))
    (comp (ref J6)
      (value BatCont)
      (footprint Sphere_lib:Keystone_5224_Battery_Contact)
      (fields
        (field (name Mouser#) 534-5224)
        (field (name PartsLib#) J1))
      (libsource (lib Sphere_lib) (part BatCont))
      (sheetpath (names /) (tstamps /))
      (tstamp 5734F7F9))
    (comp (ref J4)
      (value BatCont)
      (footprint Sphere_lib:Keystone_5224_Battery_Contact)
      (fields
        (field (name Mouser#) 534-5224)
        (field (name PartsLib#) J1))
      (libsource (lib Sphere_lib) (part BatCont))
      (sheetpath (names /) (tstamps /))
      (tstamp 5734F7FF))
    (comp (ref J10)
      (value BatCont)
      (footprint Sphere_lib:Keystone_5224_Battery_Contact)
      (fields
        (field (name Mouser#) 534-5224)
        (field (name PartsLib#) J1))
      (libsource (lib Sphere_lib) (part BatCont))
      (sheetpath (names /) (tstamps /))
      (tstamp 5734F805))
    (comp (ref J12)
      (value BatCont)
      (footprint Sphere_lib:Keystone_5224_Battery_Contact)
      (fields
        (field (name Mouser#) 534-5224)
        (field (name PartsLib#) J1))
      (libsource (lib Sphere_lib) (part BatCont))
      (sheetpath (names /) (tstamps /))
      (tstamp 5734F80B))
    (comp (ref J14)
      (value BatCont)
      (footprint Sphere_lib:Keystone_5224_Battery_Contact)
      (fields
        (field (name Mouser#) 534-5224)
        (field (name PartsLib#) J1))
      (libsource (lib Sphere_lib) (part BatCont))
      (sheetpath (names /) (tstamps /))
      (tstamp 5734F811))
    (comp (ref J16)
      (value BatCont)
      (footprint Sphere_lib:Keystone_5224_Battery_Contact)
      (fields
        (field (name Mouser#) 534-5224)
        (field (name PartsLib#) J1))
      (libsource (lib Sphere_lib) (part BatCont))
      (sheetpath (names /) (tstamps /))
      (tstamp 5734F817))
    (comp (ref E1)
      (value ESC)
      (footprint Sphere_lib:Afro_ESC_12A)
      (libsource (lib Sphere_lib) (part ESC))
      (sheetpath (names /) (tstamps /))
      (tstamp 57350E59))
    (comp (ref E2)
      (value ESC)
      (footprint Sphere_lib:Afro_ESC_12A)
      (libsource (lib Sphere_lib) (part ESC))
      (sheetpath (names /) (tstamps /))
      (tstamp 57350FD1))
    (comp (ref E3)
      (value ESC)
      (footprint Sphere_lib:Afro_ESC_12A)
      (libsource (lib Sphere_lib) (part ESC))
      (sheetpath (names /) (tstamps /))
      (tstamp 5735106F))
    (comp (ref E4)
      (value ESC)
      (footprint Sphere_lib:Afro_ESC_12A)
      (libsource (lib Sphere_lib) (part ESC))
      (sheetpath (names /) (tstamps /))
      (tstamp 573510E4))
    (comp (ref R1)
      (value 1.6k)
      (footprint Resistors_SMD:R_0805_HandSoldering)
      (libsource (lib device) (part R))
      (sheetpath (names /) (tstamps /))
      (tstamp 57356DB7))
    (comp (ref C2)
      (value 188uF)
      (footprint SMD_Packages:SMD-1206_Pol)
      (libsource (lib device) (part CP1))
      (sheetpath (names /) (tstamps /))
      (tstamp 5735725D))
    (comp (ref C1)
      (value 44uF)
      (footprint SMD_Packages:SMD-1206_Pol)
      (fields
        (field (name Mouser#) 81-GRM31CR61A476ME15L)
        (field (name PartsLib#) C2))
      (libsource (lib device) (part CP1))
      (sheetpath (names /) (tstamps /))
      (tstamp 573575DD))
    (comp (ref U3)
      (value Recom_3.3_Reg_)
      (footprint Sphere_lib_footprint:R-78AAxx-1.0SMD)
      (fields
        (field (name Mouser#) 919-R-78AA3.3-1SMD)
        (field (name PartsLib#) U1))
      (libsource (lib Sphere_lib) (part Recom_3.3_Reg_))
      (sheetpath (names /) (tstamps /))
      (tstamp 57364151))
    (comp (ref C3)
      (value 1uF)
      (footprint SMD_Packages:SMD-1206_Pol)
      (libsource (lib device) (part CP1))
      (sheetpath (names /) (tstamps /))
      (tstamp 5736B48D))
    (comp (ref U2)
      (value "OKL2-T/20-W12_(DC/DC)_Murata")
      (footprint Sphere_lib_footprint:OLK2-T20-W12)
      (fields
        (field (name Mouser#) 580-OKL2-T/20-W12P2C)
        (field (name PartsLib#) U2))
      (libsource (lib Sphere_lib) (part "OKL2-T/20-W12_(DC/DC)_Murata"))
      (sheetpath (names /) (tstamps /))
      (tstamp 57356495))
    (comp (ref D1)
      (value LED)
      (footprint Diodes_SMD:D_0603)
      (fields
        (field (name Mouser#) 593-VAOL-S6GT4)
        (field (name PartsLib#) D1))
      (libsource (lib device) (part LED))
      (sheetpath (names /) (tstamps /))
      (tstamp 5963FDF4))
    (comp (ref D2)
      (value LED)
      (footprint Diodes_SMD:D_0603)
      (fields
        (field (name Mouser#) 593-VAOL-S6GT4)
        (field (name PartsLib#) D1))
      (libsource (lib device) (part LED))
      (sheetpath (names /) (tstamps /))
      (tstamp 5963FF10))
    (comp (ref D3)
      (value LED)
      (footprint Diodes_SMD:D_0603)
      (fields
        (field (name Mouser#) 593-VAOL-S6GT4)
        (field (name PartsLib#) D1))
      (libsource (lib device) (part LED))
      (sheetpath (names /) (tstamps /))
      (tstamp 596400A8))
    (comp (ref D4)
      (value LED)
      (footprint Diodes_SMD:D_0603)
      (fields
        (field (name Mouser#) 593-VAOL-S6GT4)
        (field (name PartsLib#) D1))
      (libsource (lib device) (part LED))
      (sheetpath (names /) (tstamps /))
      (tstamp 59640171))
    (comp (ref R5)
      (value 280)
      (footprint Resistors_SMD:R_0603_HandSoldering)
      (libsource (lib device) (part R))
      (sheetpath (names /) (tstamps /))
      (tstamp 59640533))
    (comp (ref R6)
      (value 75)
      (footprint Resistors_SMD:R_0603_HandSoldering)
      (libsource (lib device) (part R))
      (sheetpath (names /) (tstamps /))
      (tstamp 59640615))
    (comp (ref R7)
      (value 150)
      (footprint Resistors_SMD:R_0603_HandSoldering)
      (libsource (lib device) (part R))
      (sheetpath (names /) (tstamps /))
      (tstamp 59640759))
    (comp (ref R8)
      (value 280)
      (footprint Resistors_SMD:R_0603_HandSoldering)
      (libsource (lib device) (part R))
      (sheetpath (names /) (tstamps /))
      (tstamp 59640859))
    (comp (ref Q1)
      (value BSS138)
      (footprint TO_SOT_Packages_SMD:SOT-23)
      (fields
        (field (name Mouser#) 512-BSS138)
        (field (name PartsLib#) Q2))
      (libsource (lib transistors) (part BSS138))
      (sheetpath (names /) (tstamps /))
      (tstamp 59684713))
    (comp (ref R13)
      (value 10k)
      (footprint Resistors_SMD:R_0603_HandSoldering)
      (fields
        (field (name Mouser#) 755-ESR03EZPJ103)
        (field (name PartsLib#) R6))
      (libsource (lib device) (part R))
      (sheetpath (names /) (tstamps /))
      (tstamp 596855DD))
    (comp (ref P3)
      (value CONN_01X01)
      (footprint Mounting_Holes:MountingHole_3.2mm_M3_Pad)
      (libsource (lib conn) (part CONN_01X01))
      (sheetpath (names /) (tstamps /))
      (tstamp 59855690))
    (comp (ref P4)
      (value CONN_01X01)
      (footprint Mounting_Holes:MountingHole_3.2mm_M3_Pad)
      (libsource (lib conn) (part CONN_01X01))
      (sheetpath (names /) (tstamps /))
      (tstamp 59855D04))
    (comp (ref P5)
      (value CONN_01X01)
      (footprint Mounting_Holes:MountingHole_3.2mm_M3_Pad)
      (libsource (lib conn) (part CONN_01X01))
      (sheetpath (names /) (tstamps /))
      (tstamp 59855E58))
    (comp (ref P7)
      (value CONN_01X01)
      (footprint Mounting_Holes:MountingHole_3.2mm_M3_Pad)
      (libsource (lib conn) (part CONN_01X01))
      (sheetpath (names /) (tstamps /))
      (tstamp 5985604B))
    (comp (ref P8)
      (value CONN_01X01)
      (footprint Mounting_Holes:MountingHole_3.2mm_M3_Pad)
      (libsource (lib conn) (part CONN_01X01))
      (sheetpath (names /) (tstamps /))
      (tstamp 5985A764))
    (comp (ref P10)
      (value CONN_01X01)
      (footprint Mounting_Holes:MountingHole_3.2mm_M3_Pad)
      (libsource (lib conn) (part CONN_01X01))
      (sheetpath (names /) (tstamps /))
      (tstamp 5985A95F))
    (comp (ref P6)
      (value CONN_01X01)
      (footprint Mounting_Holes:MountingHole_3.2mm_M3_Pad)
      (libsource (lib conn) (part CONN_01X01))
      (sheetpath (names /) (tstamps /))
      (tstamp 59855F51))
    (comp (ref P9)
      (value CONN_01X01)
      (footprint Mounting_Holes:MountingHole_3.2mm_M3_Pad)
      (libsource (lib conn) (part CONN_01X01))
      (sheetpath (names /) (tstamps /))
      (tstamp 5985A860))
    (comp (ref U7)
      (value MAX3232)
      (footprint Sphere_lib_footprint:SOIC16_MAX3232)
      (libsource (lib Sphere_lib) (part MAX3232))
      (sheetpath (names /) (tstamps /))
      (tstamp 59FBA42B))
    (comp (ref C7)
      (value 0.1uF)
      (footprint Capacitors_SMD:C_0603_HandSoldering)
      (libsource (lib device) (part C))
      (sheetpath (names /) (tstamps /))
      (tstamp 59FBADF5))
    (comp (ref C8)
      (value 0.1uF)
      (footprint Capacitors_SMD:C_0603_HandSoldering)
      (libsource (lib device) (part C))
      (sheetpath (names /) (tstamps /))
      (tstamp 59FBC7F7))
    (comp (ref C9)
      (value 0.1uF)
      (footprint Capacitors_SMD:C_0603_HandSoldering)
      (libsource (lib device) (part C))
      (sheetpath (names /) (tstamps /))
      (tstamp 59FC0BE5))
    (comp (ref C10)
      (value 0.1uF)
      (footprint Capacitors_SMD:C_0603_HandSoldering)
      (libsource (lib device) (part C))
      (sheetpath (names /) (tstamps /))
      (tstamp 59FC0D41))
    (comp (ref R12)
      (value 4.7k)
      (footprint Resistors_SMD:R_0603_HandSoldering)
      (fields
        (field (name Mouser#) 667-EJR-3EKF4701V)
        (field (name PartsLib#) R8))
      (libsource (lib device) (part R))
      (sheetpath (names /) (tstamps /))
      (tstamp 5967C811))
    (comp (ref R11)
      (value 4.7k)
      (footprint Resistors_SMD:R_0603_HandSoldering)
      (fields
        (field (name Mouser#) 667-EJR-3EKF4701V)
        (field (name PartsLib#) R8))
      (libsource (lib device) (part R))
      (sheetpath (names /) (tstamps /))
      (tstamp 5967C730))
    (comp (ref R10)
      (value 4.7k)
      (footprint Resistors_SMD:R_0603_HandSoldering)
      (fields
        (field (name Mouser#) 667-EJR-3EKF4701V)
        (field (name PartsLib#) R8))
      (libsource (lib device) (part R))
      (sheetpath (names /) (tstamps /))
      (tstamp 5967CA9F))
    (comp (ref R9)
      (value 10k)
      (footprint Resistors_SMD:R_0603_HandSoldering)
      (fields
        (field (name Mouser#) 755-ESR03EZPJ103)
        (field (name PartsLib#) R6))
      (libsource (lib device) (part R))
      (sheetpath (names /) (tstamps /))
      (tstamp 596854D2))
    (comp (ref U10)
      (value NINAB1)
      (footprint Sphere_lib_footprint:NINAB1)
      (libsource (lib Sphere_lib) (part NINAB1))
      (sheetpath (names /) (tstamps /))
      (tstamp 5B60D4F4))
    (comp (ref U9)
      (value NCP565)
      (footprint Sphere_lib_footprint:SOT223)
      (libsource (lib Sphere_lib) (part NCP565))
      (sheetpath (names /) (tstamps /))
      (tstamp 5B60D887))
    (comp (ref U1)
      (value CC3-0512SR-E_5V-12_DC/DC_)
      (footprint "Sphere_lib_footprint:CC3-xxxxxR-E_(DCDC-Converter)")
      (libsource (lib Sphere_lib) (part CC3-0512SR-E_5V-12_DC/DC_))
      (sheetpath (names /) (tstamps /))
      (tstamp 5B611DFA))
    (comp (ref U8)
      (value CC6-0512SR-E_5V-12_DC/DC_)
      (footprint "Sphere_lib_footprint:CC6-xxxxxR-E_(DCDC-Converter)")
      (libsource (lib Sphere_lib) (part CC6-0512SR-E_5V-12_DC/DC_))
      (sheetpath (names /) (tstamps /))
      (tstamp 5B611FD3))
    (comp (ref C11)
      (value 1uF)
      (footprint SMD_Packages:SMD-1206_Pol)
      (libsource (lib device) (part CP1))
      (sheetpath (names /) (tstamps /))
      (tstamp 5B62B094))
    (comp (ref C12)
      (value 1uF)
      (footprint SMD_Packages:SMD-1206_Pol)
      (libsource (lib device) (part CP1))
      (sheetpath (names /) (tstamps /))
      (tstamp 5B62BFB3))
    (comp (ref P12)
      (value CONN_02X05)
      (footprint Sphere_lib_footprint:Harwin_10pin_0.05_smd-ARM-JTAG)
      (libsource (lib conn) (part CONN_02X05))
      (sheetpath (names /) (tstamps /))
      (tstamp 5B62EA7F))
    (comp (ref P11)
      (value CONN_02X10)
      (footprint Sphere_lib_footprint:Milligrid20pin)
      (libsource (lib conn) (part CONN_02X10))
      (sheetpath (names /) (tstamps /))
      (tstamp 5B645CE8))
    (comp (ref P2)
      (value CONN_02X03)
      (footprint Sphere_lib_footprint:Milligrid6pin)
      (libsource (lib conn) (part CONN_02X03))
      (sheetpath (names /) (tstamps /))
      (tstamp 5B64B437))
    (comp (ref P1)
      (value CONN_02X03)
      (footprint Sphere_lib_footprint:Milligrid6pin)
      (libsource (lib conn) (part CONN_02X03))
      (sheetpath (names /) (tstamps /))
      (tstamp 5B64B5B5))
    (comp (ref D5)
      (value LED)
      (footprint Diodes_SMD:D_0603)
      (fields
        (field (name Mouser#) 593-VAOL-S6GT4)
        (field (name PartsLib#) D1))
      (libsource (lib device) (part LED))
      (sheetpath (names /) (tstamps /))
      (tstamp 5B650BC2))
    (comp (ref R14)
      (value 280)
      (footprint Resistors_SMD:R_0603_HandSoldering)
      (libsource (lib device) (part R))
      (sheetpath (names /) (tstamps /))
      (tstamp 5B651411))
    (comp (ref J19)
      (value 2.0MM_W-TO-B_DUAL_CONN)
      (footprint Sphere_lib:2.0MM_W-TO-B_Dual_Conn_20_Pin)
      (libsource (lib Top_Battery_Plate-rescue) (part 2.0MM_W-TO-B_DUAL_CONN-RESCUE-Top_Battery_Plate))
      (sheetpath (names /) (tstamps /))
      (tstamp 573CF1E5))
    (comp (ref U4)
      (value ina219_SOT23)
      (footprint Sphere_lib_footprint:ina219_sot23)
      (libsource (lib Sphere_lib) (part ina219_SOT23))
      (sheetpath (names /Bat_ina219/) (tstamps /57B5FC30/))
      (tstamp 57B867BF))
    (comp (ref R2)
      (value R)
      (footprint Resistors_SMD:R_2512_HandSoldering)
      (libsource (lib device) (part R))
      (sheetpath (names /Bat_ina219/) (tstamps /57B5FC30/))
      (tstamp 57B867C2))
    (comp (ref C4)
      (value 0.1uF)
      (footprint Capacitors_SMD:C_1206)
      (libsource (lib device) (part C_Small))
      (sheetpath (names /Bat_ina219/) (tstamps /57B5FC30/))
      (tstamp 57B867CA))
    (comp (ref U5)
      (value ina219_SOT23)
      (footprint Sphere_lib_footprint:ina219_sot23)
      (libsource (lib Sphere_lib) (part ina219_SOT23))
      (sheetpath (names /ina219_5/) (tstamps /57B82EA7/))
      (tstamp 57B867C0))
    (comp (ref R3)
      (value R)
      (footprint Resistors_SMD:R_2512_HandSoldering)
      (libsource (lib device) (part R))
      (sheetpath (names /ina219_5/) (tstamps /57B82EA7/))
      (tstamp 57B867C1))
    (comp (ref C5)
      (value 0.1uF)
      (footprint Capacitors_SMD:C_1206)
      (libsource (lib device) (part C_Small))
      (sheetpath (names /ina219_5/) (tstamps /57B82EA7/))
      (tstamp 57B867C9))
    (comp (ref U6)
      (value ina219_SOT23)
      (footprint Sphere_lib_footprint:ina219_sot23)
      (libsource (lib Sphere_lib) (part ina219_SOT23))
      (sheetpath (names /ina219_3.3/) (tstamps /57B83F54/))
      (tstamp 57B60982))
    (comp (ref R4)
      (value R)
      (footprint Resistors_SMD:R_2512_HandSoldering)
      (libsource (lib device) (part R))
      (sheetpath (names /ina219_3.3/) (tstamps /57B83F54/))
      (tstamp 57B60D12))
    (comp (ref C6)
      (value 0.1uF)
      (footprint Capacitors_SMD:C_1206)
      (libsource (lib device) (part C_Small))
      (sheetpath (names /ina219_3.3/) (tstamps /57B83F54/))
      (tstamp 57B66E0B))
    (comp (ref U11)
      (value MAX745)
      (footprint Sphere_lib_footprint:SSOP-20)
      (fields
        (field (name InternalName) U31))
      (libsource (lib Sphere_lib) (part MAX745))
      (sheetpath (names /BatteryCharger/) (tstamps /5B64CC9B/))
      (tstamp 5A8DA65A))
    (comp (ref C21)
      (value 0.1uF)
      (footprint Capacitors_SMD:C_0603_HandSoldering)
      (fields
        (field (name InternalName) C12))
      (libsource (lib device) (part C_Small))
      (sheetpath (names /BatteryCharger/) (tstamps /5B64CC9B/))
      (tstamp 5A8DA7A1))
    (comp (ref C19)
      (value 150uF)
      (footprint Capacitors_SMD:CP_Elec_8x10)
      (fields
        (field (name InternalName) C27))
      (libsource (lib device) (part CP1_Small))
      (sheetpath (names /BatteryCharger/) (tstamps /5B64CC9B/))
      (tstamp 5A8DA80D))
    (comp (ref R22)
      (value 0)
      (footprint Resistors_SMD:R_0603)
      (fields
        (field (name InternalName) R33))
      (libsource (lib device) (part R))
      (sheetpath (names /BatteryCharger/) (tstamps /5B64CC9B/))
      (tstamp 5A8DA88C))
    (comp (ref D6)
      (value D_Schottky_Small)
      (footprint Sphere_lib_footprint:SOD-128)
      (fields
        (field (name InternalName) D18))
      (libsource (lib device) (part D_Schottky_Small))
      (sheetpath (names /BatteryCharger/) (tstamps /5B64CC9B/))
      (tstamp 5A8DA8E9))
    (comp (ref C15)
      (value 4.7uF)
      (footprint Capacitors_SMD:C_0603_HandSoldering)
      (fields
        (field (name InternalName) C19))
      (libsource (lib device) (part CP1_Small))
      (sheetpath (names /BatteryCharger/) (tstamps /5B64CC9B/))
      (tstamp 5A8DAE92))
    (comp (ref C14)
      (value 0.1uF)
      (footprint Capacitors_SMD:C_0603_HandSoldering)
      (fields
        (field (name InternalName) C12))
      (libsource (lib device) (part CP1_Small))
      (sheetpath (names /BatteryCharger/) (tstamps /5B64CC9B/))
      (tstamp 5A8DAEFA))
    (comp (ref C13)
      (value 0.1uF)
      (footprint Capacitors_SMD:C_0603_HandSoldering)
      (fields
        (field (name InternalName) C12))
      (libsource (lib device) (part CP1_Small))
      (sheetpath (names /BatteryCharger/) (tstamps /5B64CC9B/))
      (tstamp 5A8DB6DB))
    (comp (ref R18)
      (value 10k)
      (footprint Resistors_SMD:R_0603_HandSoldering)
      (fields)
      (libsource (lib device) (part R_Small))
      (sheetpath (names /BatteryCharger/) (tstamps /5B64CC9B/))
      (tstamp 5A8DBF68))
    (comp (ref C18)
      (value 47nF)
      (footprint Capacitors_SMD:C_0603_HandSoldering)
      (fields
        (field (name InternalName) C17))
      (libsource (lib device) (part C_Small))
      (sheetpath (names /BatteryCharger/) (tstamps /5B64CC9B/))
      (tstamp 5A8DC569))
    (comp (ref C17)
      (value 0.1uF)
      (footprint Capacitors_SMD:C_0603_HandSoldering)
      (fields
        (field (name InternalName) C12))
      (libsource (lib device) (part C_Small))
      (sheetpath (names /BatteryCharger/) (tstamps /5B64CC9B/))
      (tstamp 5A8DCC2C))
    (comp (ref C16)
      (value 0.22uF)
      (footprint Capacitors_SMD:C_0603_HandSoldering)
      (fields
        (field (name InternalName) C9))
      (libsource (lib device) (part C_Small))
      (sheetpath (names /BatteryCharger/) (tstamps /5B64CC9B/))
      (tstamp 5A8DE591))
    (comp (ref D8)
      (value LED)
      (footprint LEDs:LED_0603_HandSoldering)
      (fields
        (field (name InternalName) D16))
      (libsource (lib device) (part LED))
      (sheetpath (names /BatteryCharger/) (tstamps /5B64CC9B/))
      (tstamp 5A8DF267))
    (comp (ref R24)
      (value 1k)
      (footprint Resistors_SMD:R_0603_HandSoldering)
      (fields
        (field (name InternalName) R26))
      (libsource (lib device) (part R_Small))
      (sheetpath (names /BatteryCharger/) (tstamps /5B64CC9B/))
      (tstamp 5A8DF3BF))
    (comp (ref D7)
      (value D_Small)
      (footprint Diodes_SMD:D_SOD-123)
      (fields
        (field (name InternalName) D17))
      (libsource (lib device) (part D_Small))
      (sheetpath (names /BatteryCharger/) (tstamps /5B64CC9B/))
      (tstamp 5A8E0332))
    (comp (ref R23)
      (value 24)
      (footprint Resistors_SMD:R_0603_HandSoldering)
      (fields)
      (libsource (lib device) (part R_Small))
      (sheetpath (names /BatteryCharger/) (tstamps /5B64CC9B/))
      (tstamp 5A8E0AAD))
    (comp (ref C20)
      (value 150uF)
      (footprint Capacitors_SMD:CP_Elec_8x10)
      (fields
        (field (name InternalName) C27))
      (libsource (lib device) (part CP1_Small))
      (sheetpath (names /BatteryCharger/) (tstamps /5B64CC9B/))
      (tstamp 5A8E180E))
    (comp (ref C23)
      (value 68uF)
      (footprint Capacitors_SMD:C_1210_HandSoldering)
      (fields
        (field (name InternalName) C29))
      (libsource (lib device) (part CP1_Small))
      (sheetpath (names /BatteryCharger/) (tstamps /5B64CC9B/))
      (tstamp 5A8E4749))
    (comp (ref R28)
      (value "0.04 1%")
      (footprint Resistors_SMD:R_2512)
      (fields
        (field (name InternalName) R42))
      (libsource (lib device) (part R_Small))
      (sheetpath (names /BatteryCharger/) (tstamps /5B64CC9B/))
      (tstamp 5A8E4B78))
    (comp (ref C22)
      (value 1nF)
      (footprint Capacitors_SMD:C_0603_HandSoldering)
      (fields
        (field (name InternalName) C25))
      (libsource (lib device) (part C_Small))
      (sheetpath (names /BatteryCharger/) (tstamps /5B64CC9B/))
      (tstamp 5A8E4DAB))
    (comp (ref D10)
      (value D_Schottky_Small)
      (footprint Sphere_lib_footprint:SOD-128)
      (fields
        (field (name InternalName) D18))
      (libsource (lib device) (part D_Schottky_Small))
      (sheetpath (names /BatteryCharger/) (tstamps /5B64CC9B/))
      (tstamp 5A8E599D))
    (comp (ref L1)
      (value 22uH)
      (footprint Sphere_lib_footprint:SDR1307A_Bournes_Inductor)
      (fields
        (field (name InternalName) L16))
      (libsource (lib device) (part INDUCTOR_SMALL))
      (sheetpath (names /BatteryCharger/) (tstamps /5B64CC9B/))
      (tstamp 5A8E5F51))
    (comp (ref D9)
      (value D_Schottky_Small)
      (footprint Sphere_lib_footprint:SOD-128)
      (fields
        (field (name InternalName) D18))
      (libsource (lib device) (part D_Schottky_Small))
      (sheetpath (names /BatteryCharger/) (tstamps /5B64CC9B/))
      (tstamp 5A8E613C))
    (comp (ref R26)
      (value SHORT)
      (footprint Resistors_SMD:R_0603_HandSoldering)
      (fields
        (field (name InternalName) R33))
      (libsource (lib device) (part R_Small))
      (sheetpath (names /BatteryCharger/) (tstamps /5B64CC9B/))
      (tstamp 5A8E6326))
    (comp (ref Q2)
      (value Dual_NMOS_FET_IRF7303)
      (footprint Sphere_lib_footprint:SO-8)
      (fields
        (field (name InternalName) Q7)
        (field (name InternalName) Q7))
      (libsource (lib Sphere_lib) (part Dual_NMOS_FET_IRF7303))
      (sheetpath (names /BatteryCharger/) (tstamps /5B64CC9B/))
      (tstamp 5A8DB3A2))
    (comp (ref R25)
      (value SHORT)
      (footprint Resistors_SMD:R_0603_HandSoldering)
      (fields
        (field (name InternalName) R33))
      (libsource (lib device) (part R_Small))
      (sheetpath (names /BatteryCharger/) (tstamps /5B64CC9B/))
      (tstamp 5A8DD30A))
    (comp (ref R27)
      (value SHORT)
      (footprint Resistors_SMD:R_0603_HandSoldering)
      (fields
        (field (name InternalName) R33))
      (libsource (lib device) (part R_Small))
      (sheetpath (names /BatteryCharger/) (tstamps /5B64CC9B/))
      (tstamp 5A8DD401))
    (comp (ref R16)
      (value 100k)
      (footprint Resistors_SMD:R_0603_HandSoldering)
      (fields)
      (libsource (lib device) (part R_Small))
      (sheetpath (names /BatteryCharger/) (tstamps /5B64CC9B/))
      (tstamp 5A8F41B6))
    (comp (ref R20)
      (value 15k)
      (footprint Resistors_SMD:R_0603_HandSoldering)
      (fields
        (field (name InternalName) R41))
      (libsource (lib device) (part R_Small))
      (sheetpath (names /BatteryCharger/) (tstamps /5B64CC9B/))
      (tstamp 5A8F460D))
    (comp (ref R17)
      (value 100k)
      (footprint Resistors_SMD:R_0603_HandSoldering)
      (fields
        (field (name InternalName) R7))
      (libsource (lib device) (part R_Small))
      (sheetpath (names /BatteryCharger/) (tstamps /5B64CC9B/))
      (tstamp 5A8F4685))
    (comp (ref R21)
      (value 100k)
      (footprint Resistors_SMD:R_0603_HandSoldering)
      (fields
        (field (name InternalName) R7))
      (libsource (lib device) (part R_Small))
      (sheetpath (names /BatteryCharger/) (tstamps /5B64CC9B/))
      (tstamp 5A8F4718))
    (comp (ref R15)
      (value 100k)
      (footprint Resistors_SMD:R_0603_HandSoldering)
      (fields
        (field (name InternalName) R7))
      (libsource (lib device) (part R_Small))
      (sheetpath (names /BatteryCharger/) (tstamps /5B64CC9B/))
      (tstamp 5A8F6DC5))
    (comp (ref P13)
      (value CONN_01X02)
      (footprint Pin_Headers:Pin_Header_Straight_1x02_Pitch2.54mm)
      (fields)
      (libsource (lib conn) (part CONN_01X02))
      (sheetpath (names /BatteryCharger/) (tstamps /5B64CC9B/))
      (tstamp 5A8F751D))
    (comp (ref R19)
      (value 8k)
      (footprint Resistors_SMD:R_0603_HandSoldering)
      (fields)
      (libsource (lib device) (part R_Small))
      (sheetpath (names /BatteryCharger/) (tstamps /5B64CC9B/))
      (tstamp 5A8F849C))
    (comp (ref W2)
      (value TEST_1P)
      (footprint Sphere_lib_footprint:TestPoint)
      (fields
        (field (name InternalName) PCB-1))
      (libsource (lib conn) (part TEST_1P))
      (sheetpath (names /BatteryCharger/) (tstamps /5B64CC9B/))
      (tstamp 5A8F8566))
    (comp (ref W1)
      (value TEST_1P)
      (footprint Sphere_lib_footprint:TestPoint)
      (fields
        (field (name InternalName) PCB-1))
      (libsource (lib conn) (part TEST_1P))
      (sheetpath (names /BatteryCharger/) (tstamps /5B64CC9B/))
      (tstamp 5A8F879B)))
  (libparts
    (libpart (lib Top_Battery_Plate-rescue) (part 2.0MM_W-TO-B_DUAL_CONN-RESCUE-Top_Battery_Plate)
      (fields
        (field (name Reference) J)
        (field (name Value) 2.0MM_W-TO-B_DUAL_CONN-RESCUE-Top_Battery_Plate))
      (pins
        (pin (num 1) (name 1) (type BiDi))
        (pin (num 2) (name 2) (type BiDi))
        (pin (num 3) (name 3) (type BiDi))
        (pin (num 4) (name 4) (type BiDi))
        (pin (num 5) (name 5) (type BiDi))
        (pin (num 6) (name 6) (type BiDi))
        (pin (num 7) (name 7) (type BiDi))
        (pin (num 8) (name 8) (type BiDi))
        (pin (num 9) (name 9) (type BiDi))
        (pin (num 10) (name 10) (type BiDi))
        (pin (num 11) (name 11) (type BiDi))
        (pin (num 12) (name 12) (type BiDi))
        (pin (num 13) (name 13) (type BiDi))
        (pin (num 14) (name 14) (type BiDi))
        (pin (num 15) (name 15) (type BiDi))
        (pin (num 16) (name 16) (type BiDi))
        (pin (num 17) (name 17) (type BiDi))
        (pin (num 18) (name 18) (type BiDi))
        (pin (num 19) (name 19) (type BiDi))
        (pin (num 20) (name 20) (type BiDi))
        (pin (num 21) (name NC) (type BiDi))
        (pin (num 22) (name NC) (type BiDi))
        (pin (num 23) (name NC) (type BiDi))
        (pin (num 24) (name NC) (type BiDi))))
    (libpart (lib transistors) (part BSS138)
      (description "50V Vds, 0.22A Id, N-Channel MOSFET, SOT-23")
      (docs http://www.fairchildsemi.com/ds/BS/BSS138.pdf)
      (footprints
        (fp SOT-23*))
      (fields
        (field (name Reference) Q)
        (field (name Value) BSS138)
        (field (name Footprint) SOT-23))
      (pins
        (pin (num 1) (name G) (type passive))
        (pin (num 2) (name S) (type passive))
        (pin (num 3) (name D) (type passive))))
    (libpart (lib Sphere_lib) (part BatCont)
      (fields
        (field (name Reference) J)
        (field (name Value) BatCont))
      (pins
        (pin (num 1) (name Bat) (type power_out))))
    (libpart (lib device) (part C)
      (description "Unpolarized capacitor")
      (footprints
        (fp C?)
        (fp C_????_*)
        (fp C_????)
        (fp SMD*_c)
        (fp Capacitor*))
      (fields
        (field (name Reference) C)
        (field (name Value) C))
      (pins
        (pin (num 1) (name ~) (type passive))
        (pin (num 2) (name ~) (type passive))))
    (libpart (lib Sphere_lib) (part CC3-0512SR-E_5V-12_DC/DC_)
      (fields
        (field (name Reference) U)
        (field (name Value) CC3-0512SR-E_5V-12_DC/DC_))
      (pins
        (pin (num 1) (name Vin) (type power_in))
        (pin (num 2) (name RC) (type input))
        (pin (num 3) (name GND) (type power_in))
        (pin (num 4) (name NC) (type NotConnected))
        (pin (num 5) (name GND-OUT) (type input))
        (pin (num 6) (name TRM) (type input))
        (pin (num 7) (name Vout) (type power_out))))
    (libpart (lib Sphere_lib) (part CC6-0512SR-E_5V-12_DC/DC_)
      (fields
        (field (name Reference) U)
        (field (name Value) CC6-0512SR-E_5V-12_DC/DC_))
      (pins
        (pin (num 1) (name Vin) (type power_in))
        (pin (num 2) (name RC) (type input))
        (pin (num 3) (name GND) (type power_in))
        (pin (num 4) (name NC) (type NotConnected))
        (pin (num 5) (name GND-OUT) (type input))
        (pin (num 6) (name TRM) (type input))
        (pin (num 7) (name Vout) (type power_out))))
    (libpart (lib conn) (part CONN_01X01)
      (description "Connector 01x01")
      (footprints
        (fp Pin_Header_Straight_1X01)
        (fp Pin_Header_Angled_1X01)
        (fp Socket_Strip_Straight_1X01)
        (fp Socket_Strip_Angled_1X01))
      (fields
        (field (name Reference) P)
        (field (name Value) CONN_01X01))
      (pins
        (pin (num 1) (name P1) (type passive))))
    (libpart (lib conn) (part CONN_01X02)
      (description "Connector 01x02")
      (footprints
        (fp Pin_Header_Straight_1X02)
        (fp Pin_Header_Angled_1X02)
        (fp Socket_Strip_Straight_1X02)
        (fp Socket_Strip_Angled_1X02))
      (fields
        (field (name Reference) P)
        (field (name Value) CONN_01X02))
      (pins
        (pin (num 1) (name P1) (type passive))
        (pin (num 2) (name P2) (type passive))))
    (libpart (lib conn) (part CONN_02X03)
      (description "Connector 02x03")
      (footprints
        (fp Pin_Header_Straight_2X03)
        (fp Pin_Header_Angled_2X03)
        (fp Socket_Strip_Straight_2X03)
        (fp Socket_Strip_Angled_2X03))
      (fields
        (field (name Reference) P)
        (field (name Value) CONN_02X03))
      (pins
        (pin (num 1) (name P1) (type passive))
        (pin (num 2) (name P2) (type passive))
        (pin (num 3) (name P3) (type passive))
        (pin (num 4) (name P4) (type passive))
        (pin (num 5) (name P5) (type passive))
        (pin (num 6) (name P6) (type passive))))
    (libpart (lib conn) (part CONN_02X05)
      (description "Connector 02x05")
      (footprints
        (fp Pin_Header_Straight_2X05)
        (fp Pin_Header_Angled_2X05)
        (fp Socket_Strip_Straight_2X05)
        (fp Socket_Strip_Angled_2X05))
      (fields
        (field (name Reference) P)
        (field (name Value) CONN_02X05))
      (pins
        (pin (num 1) (name P1) (type passive))
        (pin (num 2) (name P2) (type passive))
        (pin (num 3) (name P3) (type passive))
        (pin (num 4) (name P4) (type passive))
        (pin (num 5) (name P5) (type passive))
        (pin (num 6) (name P6) (type passive))
        (pin (num 7) (name P7) (type passive))
        (pin (num 8) (name P8) (type passive))
        (pin (num 9) (name P9) (type passive))
        (pin (num 10) (name P10) (type passive))))
    (libpart (lib conn) (part CONN_02X10)
      (description "Connector 02x10")
      (footprints
        (fp Pin_Header_Straight_2X10)
        (fp Pin_Header_Angled_2X10)
        (fp Socket_Strip_Straight_2X10)
        (fp Socket_Strip_Angled_2X10))
      (fields
        (field (name Reference) P)
        (field (name Value) CONN_02X10))
      (pins
        (pin (num 1) (name P1) (type passive))
        (pin (num 2) (name P2) (type passive))
        (pin (num 3) (name P3) (type passive))
        (pin (num 4) (name P4) (type passive))
        (pin (num 5) (name P5) (type passive))
        (pin (num 6) (name P6) (type passive))
        (pin (num 7) (name P7) (type passive))
        (pin (num 8) (name P8) (type passive))
        (pin (num 9) (name P9) (type passive))
        (pin (num 10) (name P10) (type passive))
        (pin (num 11) (name P11) (type passive))
        (pin (num 12) (name P12) (type passive))
        (pin (num 13) (name P13) (type passive))
        (pin (num 14) (name P14) (type passive))
        (pin (num 15) (name P15) (type passive))
        (pin (num 16) (name P16) (type passive))
        (pin (num 17) (name P17) (type passive))
        (pin (num 18) (name P18) (type passive))
        (pin (num 19) (name P19) (type passive))
        (pin (num 20) (name P20) (type passive))))
    (libpart (lib device) (part CP1)
      (description "Polarised capacitor")
      (footprints
        (fp SMD*_Pol)
        (fp c_elec*)
        (fp C*elec)
        (fp TantalC*)
        (fp Elko*)
        (fp CP*))
      (fields
        (field (name Reference) C)
        (field (name Value) CP1))
      (pins
        (pin (num 1) (name ~) (type passive))
        (pin (num 2) (name ~) (type passive))))
    (libpart (lib device) (part CP1_Small)
      (description "Polarised capacitor")
      (footprints
        (fp CP*)
        (fp Elko*)
        (fp TantalC*)
        (fp C*elec)
        (fp c_elec*)
        (fp SMD*_Pol))
      (fields
        (field (name Reference) C)
        (field (name Value) CP1_Small))
      (pins
        (pin (num 1) (name ~) (type passive))
        (pin (num 2) (name ~) (type passive))))
    (libpart (lib device) (part C_Small)
      (description "Unpolarized capacitor")
      (footprints
        (fp C?)
        (fp C_????_*)
        (fp C_????)
        (fp SMD*_c)
        (fp Capacitor*))
      (fields
        (field (name Reference) C)
        (field (name Value) C_Small))
      (pins
        (pin (num 1) (name ~) (type passive))
        (pin (num 2) (name ~) (type passive))))
    (libpart (lib device) (part D_Schottky_Small)
      (description "Diode Schottky")
      (footprints
        (fp Diode_*)
        (fp D-Pak_TO252AA)
        (fp *SingleDiode)
        (fp *SingleDiode*)
        (fp *_Diode_*))
      (fields
        (field (name Reference) D)
        (field (name Value) D_Schottky_Small))
      (pins
        (pin (num 1) (name K) (type passive))
        (pin (num 2) (name A) (type passive))))
    (libpart (lib device) (part D_Small)
      (description Diode)
      (footprints
        (fp Diode_*)
        (fp D-Pak_TO252AA)
        (fp *SingleDiode)
        (fp *SingleDiode*)
        (fp *_Diode_*))
      (fields
        (field (name Reference) D)
        (field (name Value) D_Small))
      (pins
        (pin (num 1) (name K) (type passive))
        (pin (num 2) (name A) (type passive))))
    (libpart (lib Sphere_lib) (part Dual_NMOS_FET_IRF7303)
      (description "Dual N Channel Power Mosfet")
      (docs Datasheets/irf7303pbf-1227430.pdf)
      (fields
        (field (name Reference) Q)
        (field (name Value) Dual_NMOS_FET_IRF7303))
      (pins
        (pin (num 1) (name S) (type passive))
        (pin (num 2) (name G) (type input))
        (pin (num 3) (name S) (type passive))
        (pin (num 4) (name G) (type input))
        (pin (num 5) (name D) (type passive))
        (pin (num 6) (name D) (type passive))
        (pin (num 7) (name D) (type passive))
        (pin (num 8) (name D) (type passive))))
    (libpart (lib Sphere_lib) (part ESC)
      (fields
        (field (name Reference) E)
        (field (name Value) ESC))
      (pins
        (pin (num 1) (name Bat+) (type power_in))
        (pin (num 2) (name Bat-) (type power_in))
        (pin (num 3) (name M1) (type power_out))
        (pin (num 4) (name M2) (type power_out))
        (pin (num 5) (name M3) (type power_out))
        (pin (num 6) (name +Vcc) (type power_out))
        (pin (num 7) (name GND) (type power_out))
        (pin (num 8) (name PWM) (type input))))
    (libpart (lib device) (part INDUCTOR_SMALL)
      (fields
        (field (name Reference) L)
        (field (name Value) INDUCTOR_SMALL))
      (pins
        (pin (num 1) (name 1) (type input))
        (pin (num 2) (name 2) (type input))))
    (libpart (lib device) (part LED)
      (footprints
        (fp LED-3MM)
        (fp LED-5MM)
        (fp LED-10MM)
        (fp LED-0603)
        (fp LED-0805)
        (fp LED-1206)
        (fp LEDV))
      (fields
        (field (name Reference) D)
        (field (name Value) LED))
      (pins
        (pin (num 1) (name K) (type passive))
        (pin (num 2) (name A) (type passive))))
    (libpart (lib Sphere_lib) (part MAX3232)
      (fields
        (field (name Reference) U)
        (field (name Value) MAX3232))
      (pins
        (pin (num 1) (name C1+) (type input))
        (pin (num 2) (name V+) (type input))
        (pin (num 3) (name C1-) (type input))
        (pin (num 4) (name C2+) (type input))
        (pin (num 5) (name C2-) (type input))
        (pin (num 6) (name V-) (type input))
        (pin (num 7) (name DOUT2) (type input))
        (pin (num 8) (name RIN2) (type input))
        (pin (num 9) (name ROUT2) (type input))
        (pin (num 10) (name DIN2) (type input))
        (pin (num 11) (name DIN1) (type input))
        (pin (num 12) (name ROUT1) (type input))
        (pin (num 13) (name RIN1) (type input))
        (pin (num 14) (name DOUT1) (type input))
        (pin (num 15) (name GND) (type input))
        (pin (num 16) (name Vcc) (type input))))
    (libpart (lib Sphere_lib) (part MAX745)
      (fields
        (field (name Reference) U)
        (field (name Value) MAX745))
      (pins
        (pin (num 1) (name IBAT) (type input))
        (pin (num 2) (name DCIN) (type power_in))
        (pin (num 3) (name VL) (type power_out))
        (pin (num 4) (name CCV) (type BiDi))
        (pin (num 5) (name CCI) (type BiDi))
        (pin (num 6) (name THM/SHDN) (type BiDi))
        (pin (num 7) (name REF) (type output))
        (pin (num 8) (name VADJ) (type output))
        (pin (num 9) (name SETI) (type output))
        (pin (num 10) (name GND) (type BiDi))
        (pin (num 11) (name CELL1) (type BiDi))
        (pin (num 12) (name CELL0) (type BiDi))
        (pin (num 13) (name STATUS) (type BiDi))
        (pin (num 14) (name BATT) (type BiDi))
        (pin (num 15) (name CS) (type BiDi))
        (pin (num 16) (name PGND) (type BiDi))
        (pin (num 17) (name DLO) (type BiDi))
        (pin (num 18) (name DHI) (type BiDi))
        (pin (num 19) (name LX) (type BiDi))
        (pin (num 20) (name BST) (type BiDi))))
    (libpart (lib Sphere_lib) (part NCP565)
      (fields
        (field (name Reference) U)
        (field (name Value) NCP565))
      (pins
        (pin (num 1) (name GND) (type input))
        (pin (num 2) (name Vout) (type power_out))
        (pin (num 3) (name Vin) (type power_in))))
    (libpart (lib Sphere_lib) (part NINAB1)
      (fields
        (field (name Reference) U)
        (field (name Value) NINAB1))
      (pins
        (pin (num 1) (name GPIO_1) (type input))
        (pin (num 2) (name GPIO_2) (type BiDi))
        (pin (num 3) (name GPIO_3) (type BiDi))
        (pin (num 4) (name GPIO_4) (type BiDi))
        (pin (num 5) (name GPIO_5) (type BiDi))
        (pin (num 6) (name GND) (type BiDi))
        (pin (num 7) (name GPIO_7) (type BiDi))
        (pin (num 8) (name SWO) (type BiDi))
        (pin (num 9) (name VCC_IO) (type power_in))
        (pin (num 10) (name VCC) (type power_in))
        (pin (num 11) (name SWDCLK) (type BiDi))
        (pin (num 12) (name GND) (type BiDi))
        (pin (num 13) (name ANT) (type BiDi))
        (pin (num 14) (name GND) (type BiDi))
        (pin (num 15) (name SWDIO) (type BiDi))
        (pin (num 16) (name GPIO_16) (type BiDi))
        (pin (num 17) (name GPIO_17) (type BiDi))
        (pin (num 18) (name GPIO_18) (type BiDi))
        (pin (num 19) (name RESET_N) (type BiDi))
        (pin (num 20) (name GPIO_20) (type BiDi))
        (pin (num 21) (name GPIO_21) (type BiDi))
        (pin (num 22) (name GPIO_22) (type BiDi))
        (pin (num 23) (name GPIO_23) (type BiDi))
        (pin (num 24) (name GPIO_24) (type BiDi))
        (pin (num 25) (name GPIO_25) (type BiDi))
        (pin (num 26) (name GND) (type BiDi))
        (pin (num 27) (name GPIO_27) (type BiDi))
        (pin (num 28) (name NFC1) (type BiDi))
        (pin (num 29) (name NFC2) (type BiDi))
        (pin (num 30) (name GND) (type BiDi))))
    (libpart (lib Sphere_lib) (part "OKL2-T/20-W12_(DC/DC)_Murata")
      (fields
        (field (name Reference) U)
        (field (name Value) "OKL2-T/20-W12_(DC/DC)_Murata"))
      (pins
        (pin (num 1) (name On/Off) (type input))
        (pin (num 2) (name Vin) (type power_in))
        (pin (num 3) (name Track) (type input))
        (pin (num 4) (name GND) (type power_in))
        (pin (num 5) (name Vout) (type power_in))
        (pin (num 6) (name TRIM) (type input))
        (pin (num 7) (name +Sense) (type input))
        (pin (num 8) (name -Sense) (type input))
        (pin (num 9) (name PowGood) (type output))
        (pin (num 10) (name Synch) (type input))))
    (libpart (lib device) (part R)
      (description Resistor)
      (footprints
        (fp R_*)
        (fp Resistor_*))
      (fields
        (field (name Reference) R)
        (field (name Value) R))
      (pins
        (pin (num 1) (name ~) (type passive))
        (pin (num 2) (name ~) (type passive))))
    (libpart (lib device) (part R_Small)
      (description Resistor)
      (footprints
        (fp Resistor_*)
        (fp R_*))
      (fields
        (field (name Reference) R)
        (field (name Value) R_Small))
      (pins
        (pin (num 1) (name ~) (type passive))
        (pin (num 2) (name ~) (type passive))))
    (libpart (lib Sphere_lib) (part Recom_3.3_Reg_)
      (fields
        (field (name Reference) U)
        (field (name Value) Recom_3.3_Reg_))
      (pins
        (pin (num 1) (name Vin) (type power_in))
        (pin (num 2) (name Vin) (type power_in))
        (pin (num 3) (name GND) (type power_in))
        (pin (num 4) (name Vout) (type power_out))
        (pin (num 5) (name Vout) (type power_out))
        (pin (num 6) (name Vadj) (type input))
        (pin (num 7) (name GND) (type power_in))
        (pin (num 8) (name GND) (type power_in))
        (pin (num 9) (name GND) (type power_in))
        (pin (num 10) (name On/Off) (type input))))
    (libpart (lib conn) (part TEST_1P)
      (description point)
      (fields
        (field (name Reference) W)
        (field (name Value) TEST_1P))
      (pins
        (pin (num 1) (name 1) (type passive))))
    (libpart (lib Sphere_lib) (part ina219_SOT23)
      (fields
        (field (name Reference) U)
        (field (name Value) ina219_SOT23))
      (pins
        (pin (num 1) (name IN+) (type input))
        (pin (num 2) (name IN-) (type input))
        (pin (num 3) (name GND) (type input))
        (pin (num 4) (name Vs) (type input))
        (pin (num 5) (name SCL) (type input))
        (pin (num 6) (name SDA) (type input))
        (pin (num 7) (name A0) (type input))
        (pin (num 8) (name A1) (type input)))))
  (libraries
    (library (logical Top_Battery_Plate-rescue)
      (uri /home/eiscar/Spheres/Electronics/Top_Battery_Plate/Top_Battery_Plate-rescue.lib))
    (library (logical device)
      (uri /usr/share/kicad/library/device.lib))
    (library (logical transistors)
      (uri /usr/share/kicad/library/transistors.lib))
    (library (logical conn)
      (uri /usr/share/kicad/library/conn.lib))
    (library (logical Sphere_lib)
      (uri /home/eiscar/Spheres/Electronics/DropKicadPartsLib/Sphere_lib.lib)))
  (nets
    (net (code 1) (name /D_out-)
      (node (ref J19) (pin 3))
      (node (ref U7) (pin 13)))
    (net (code 2) (name "Net-(R10-Pad2)")
      (node (ref R11) (pin 1))
      (node (ref R10) (pin 2)))
    (net (code 3) (name /Vbat_div)
      (node (ref R12) (pin 1))
      (node (ref R11) (pin 2)))
    (net (code 4) (name /5VEnable)
      (node (ref R9) (pin 2))
      (node (ref U10) (pin 7))
      (node (ref Q1) (pin 2)))
    (net (code 5) (name "Net-(C7-Pad2)")
      (node (ref C7) (pin 2))
      (node (ref U7) (pin 3)))
    (net (code 6) (name /Bat_ina219/SDA)
      (node (ref U6) (pin 6))
      (node (ref U4) (pin 6))
      (node (ref P11) (pin 9))
      (node (ref U5) (pin 6)))
    (net (code 7) (name /Bat_ina219/SCL)
      (node (ref P11) (pin 11))
      (node (ref U4) (pin 5))
      (node (ref U5) (pin 5))
      (node (ref U6) (pin 5)))
    (net (code 8) (name /D_Out+)
      (node (ref U7) (pin 14))
      (node (ref J19) (pin 2)))
    (net (code 9) (name "Net-(C7-Pad1)")
      (node (ref C7) (pin 1))
      (node (ref U7) (pin 1)))
    (net (code 10) (name "Net-(C8-Pad1)")
      (node (ref U7) (pin 4))
      (node (ref C8) (pin 1)))
    (net (code 11) (name "Net-(C8-Pad2)")
      (node (ref U7) (pin 5))
      (node (ref C8) (pin 2)))
    (net (code 12) (name "Net-(C10-Pad2)")
      (node (ref U7) (pin 2))
      (node (ref C10) (pin 2)))
    (net (code 13) (name "Net-(C9-Pad2)")
      (node (ref C9) (pin 2))
      (node (ref U7) (pin 6)))
    (net (code 14) (name /MOSI)
      (node (ref P11) (pin 16))
      (node (ref U10) (pin 20)))
    (net (code 15) (name +BATT)
      (node (ref U8) (pin 1))
      (node (ref U2) (pin 2))
      (node (ref D1) (pin 2))
      (node (ref R2) (pin 1))
      (node (ref R13) (pin 1))
      (node (ref J4) (pin 1))
      (node (ref U3) (pin 2))
      (node (ref U3) (pin 1))
      (node (ref C1) (pin 1))
      (node (ref J2) (pin 1))
      (node (ref J1) (pin 1))
      (node (ref J10) (pin 1))
      (node (ref J12) (pin 1))
      (node (ref J14) (pin 1))
      (node (ref J8) (pin 1))
      (node (ref J16) (pin 1))
      (node (ref R28) (pin 2))
      (node (ref J6) (pin 1))
      (node (ref U11) (pin 14))
      (node (ref U9) (pin 3))
      (node (ref R10) (pin 1))
      (node (ref U1) (pin 1))
      (node (ref U4) (pin 1))
      (node (ref C23) (pin 1))
      (node (ref C22) (pin 1)))
    (net (code 16) (name /NINAB1_3V3)
      (node (ref U10) (pin 10))
      (node (ref R9) (pin 1))
      (node (ref U10) (pin 9))
      (node (ref P12) (pin 1))
      (node (ref Q1) (pin 1))
      (node (ref U9) (pin 2)))
    (net (code 17) (name /MISO)
      (node (ref P11) (pin 18))
      (node (ref U10) (pin 21)))
    (net (code 18) (name /SCK)
      (node (ref U10) (pin 22))
      (node (ref P11) (pin 20)))
    (net (code 19) (name /CS)
      (node (ref P11) (pin 19))
      (node (ref U10) (pin 23)))
    (net (code 20) (name /SWDIO)
      (node (ref U10) (pin 15))
      (node (ref P12) (pin 2)))
    (net (code 21) (name /SWDCLK)
      (node (ref U10) (pin 11))
      (node (ref P12) (pin 4)))
    (net (code 22) (name /nReset)
      (node (ref U10) (pin 19))
      (node (ref P12) (pin 10)))
    (net (code 23) (name /12VAltimeter)
      (node (ref J19) (pin 1))
      (node (ref C11) (pin 1))
      (node (ref U1) (pin 7)))
    (net (code 24) (name /12VCameras)
      (node (ref P2) (pin 1))
      (node (ref P1) (pin 1))
      (node (ref C12) (pin 1))
      (node (ref U8) (pin 7)))
    (net (code 25) (name "Net-(U1-Pad6)")
      (node (ref U1) (pin 6)))
    (net (code 26) (name "Net-(U8-Pad6)")
      (node (ref U8) (pin 6)))
    (net (code 27) (name +5V)
      (node (ref P11) (pin 5))
      (node (ref D2) (pin 2))
      (node (ref U5) (pin 2))
      (node (ref P11) (pin 7))
      (node (ref R3) (pin 2)))
    (net (code 28) (name +3V3)
      (node (ref U4) (pin 4))
      (node (ref U4) (pin 8))
      (node (ref C5) (pin 1))
      (node (ref U5) (pin 7))
      (node (ref C4) (pin 1))
      (node (ref R4) (pin 2))
      (node (ref U5) (pin 4))
      (node (ref U7) (pin 16))
      (node (ref U4) (pin 7))
      (node (ref C6) (pin 1))
      (node (ref U6) (pin 2))
      (node (ref D3) (pin 2))
      (node (ref U6) (pin 4))
      (node (ref U6) (pin 8))
      (node (ref P11) (pin 3)))
    (net (code 29) (name "Net-(R1-Pad2)")
      (node (ref R1) (pin 2))
      (node (ref U2) (pin 6)))
    (net (code 30) (name /Bat_ina219/IN-)
      (node (ref E4) (pin 1))
      (node (ref E1) (pin 1))
      (node (ref U4) (pin 2))
      (node (ref E2) (pin 1))
      (node (ref E3) (pin 1))
      (node (ref R2) (pin 2))
      (node (ref D4) (pin 2)))
    (net (code 31) (name /Reg_On/Off)
      (node (ref R13) (pin 2))
      (node (ref U2) (pin 1))
      (node (ref Q1) (pin 3)))
    (net (code 32) (name /ina219_5/IN+)
      (node (ref U2) (pin 5))
      (node (ref U2) (pin 7))
      (node (ref C2) (pin 1))
      (node (ref U5) (pin 1))
      (node (ref R3) (pin 1)))
    (net (code 33) (name "Net-(D1-Pad1)")
      (node (ref R5) (pin 2))
      (node (ref D1) (pin 1)))
    (net (code 34) (name "Net-(D2-Pad1)")
      (node (ref D2) (pin 1))
      (node (ref R6) (pin 2)))
    (net (code 35) (name "Net-(D3-Pad1)")
      (node (ref D3) (pin 1))
      (node (ref R7) (pin 2)))
    (net (code 36) (name "Net-(D4-Pad1)")
      (node (ref R8) (pin 2))
      (node (ref D4) (pin 1)))
    (net (code 37) (name /ina219_3.3/IN+)
      (node (ref U3) (pin 4))
      (node (ref U3) (pin 5))
      (node (ref U6) (pin 1))
      (node (ref R4) (pin 1))
      (node (ref C3) (pin 1)))
    (net (code 40) (name "Net-(J19-Pad10)")
      (node (ref J19) (pin 10)))
    (net (code 41) (name /Led)
      (node (ref D5) (pin 2))
      (node (ref U10) (pin 27)))
    (net (code 42) (name "Net-(J19-Pad21)")
      (node (ref J19) (pin 21)))
    (net (code 43) (name /BatteryCharger/24Vin)
      (node (ref J19) (pin 12))
      (node (ref D6) (pin 2)))
    (net (code 44) (name "Net-(J19-Pad22)")
      (node (ref J19) (pin 22)))
    (net (code 45) (name GNDPWR)
      (node (ref D9) (pin 2))
      (node (ref C20) (pin 2))
      (node (ref C23) (pin 2))
      (node (ref U11) (pin 16))
      (node (ref R22) (pin 1))
      (node (ref J19) (pin 13))
      (node (ref Q2) (pin 3))
      (node (ref C19) (pin 2)))
    (net (code 46) (name "Net-(J19-Pad23)")
      (node (ref J19) (pin 23)))
    (net (code 47) (name "Net-(J19-Pad14)")
      (node (ref J19) (pin 14)))
    (net (code 48) (name "Net-(J19-Pad24)")
      (node (ref J19) (pin 24)))
    (net (code 49) (name "Net-(P2-Pad5)")
      (node (ref P2) (pin 5)))
    (net (code 50) (name /TX)
      (node (ref U10) (pin 24))
      (node (ref P11) (pin 15)))
    (net (code 51) (name /RX)
      (node (ref U10) (pin 25))
      (node (ref P11) (pin 17)))
    (net (code 52) (name /CameraTrigger)
      (node (ref P2) (pin 2))
      (node (ref P1) (pin 2))
      (node (ref U10) (pin 3)))
    (net (code 53) (name "Net-(P2-Pad3)")
      (node (ref P2) (pin 3)))
    (net (code 54) (name "Net-(P2-Pad4)")
      (node (ref P2) (pin 4)))
    (net (code 55) (name "Net-(P1-Pad3)")
      (node (ref P1) (pin 3)))
    (net (code 56) (name "Net-(P1-Pad4)")
      (node (ref P1) (pin 4)))
    (net (code 57) (name "Net-(P1-Pad5)")
      (node (ref P1) (pin 5)))
    (net (code 58) (name "Net-(D5-Pad1)")
      (node (ref D5) (pin 1))
      (node (ref R14) (pin 2)))
    (net (code 59) (name /SWO)
      (node (ref U10) (pin 8))
      (node (ref P12) (pin 6)))
    (net (code 60) (name "Net-(U10-Pad28)")
      (node (ref U10) (pin 28)))
    (net (code 61) (name "Net-(U10-Pad29)")
      (node (ref U10) (pin 29)))
    (net (code 62) (name "Net-(U10-Pad13)")
      (node (ref U10) (pin 13)))
    (net (code 63) (name "Net-(P12-Pad7)")
      (node (ref P12) (pin 7)))
    (net (code 64) (name "Net-(P12-Pad8)")
      (node (ref P12) (pin 8)))
    (net (code 65) (name /OUT_TX)
      (node (ref P11) (pin 10))
      (node (ref U7) (pin 12)))
    (net (code 66) (name /OUT_RX)
      (node (ref U7) (pin 11))
      (node (ref P11) (pin 12)))
    (net (code 67) (name /12VAltEnable)
      (node (ref U10) (pin 2)))
    (net (code 68) (name /12VCamEnable)
      (node (ref U10) (pin 1)))
    (net (code 69) (name /LightsTrigger)
      (node (ref U10) (pin 4)))
    (net (code 70) (name "Net-(U2-Pad3)")
      (node (ref U2) (pin 3)))
    (net (code 71) (name "Net-(U2-Pad9)")
      (node (ref U2) (pin 9)))
    (net (code 72) (name "Net-(U2-Pad10)")
      (node (ref U2) (pin 10)))
    (net (code 73) (name "Net-(U3-Pad6)")
      (node (ref U3) (pin 6)))
    (net (code 74) (name /M1_UL)
      (node (ref E4) (pin 3))
      (node (ref J19) (pin 17)))
    (net (code 75) (name /M3_FR)
      (node (ref J19) (pin 18))
      (node (ref E1) (pin 5)))
    (net (code 76) (name /M1_FR)
      (node (ref J19) (pin 20))
      (node (ref E1) (pin 3)))
    (net (code 77) (name /M2_FR)
      (node (ref E1) (pin 4))
      (node (ref J19) (pin 19)))
    (net (code 78) (name "Net-(E1-Pad6)")
      (node (ref E1) (pin 6)))
    (net (code 79) (name /PWM_FR)
      (node (ref P11) (pin 6))
      (node (ref E1) (pin 8)))
    (net (code 80) (name /M1_FL)
      (node (ref J19) (pin 4))
      (node (ref E2) (pin 3)))
    (net (code 81) (name /M2_FL)
      (node (ref J19) (pin 5))
      (node (ref E2) (pin 4)))
    (net (code 82) (name /M3_FL)
      (node (ref E2) (pin 5))
      (node (ref J19) (pin 6)))
    (net (code 83) (name "Net-(E2-Pad6)")
      (node (ref E2) (pin 6)))
    (net (code 84) (name /PWM_FL)
      (node (ref E2) (pin 8))
      (node (ref P11) (pin 13)))
    (net (code 85) (name /3V3Enable)
      (node (ref U10) (pin 5))
      (node (ref U3) (pin 10)))
    (net (code 86) (name /M1_UR)
      (node (ref J19) (pin 7))
      (node (ref E3) (pin 3)))
    (net (code 87) (name /M2_UR)
      (node (ref E3) (pin 4))
      (node (ref J19) (pin 9)))
    (net (code 88) (name /M3_UR)
      (node (ref E3) (pin 5))
      (node (ref J19) (pin 8)))
    (net (code 89) (name "Net-(E3-Pad6)")
      (node (ref E3) (pin 6)))
    (net (code 90) (name /PWM_UR)
      (node (ref E3) (pin 8))
      (node (ref P11) (pin 14)))
    (net (code 91) (name /M2_UL)
      (node (ref J19) (pin 16))
      (node (ref E4) (pin 4)))
    (net (code 92) (name /M3_UL)
      (node (ref E4) (pin 5))
      (node (ref J19) (pin 15)))
    (net (code 93) (name "Net-(E4-Pad6)")
      (node (ref E4) (pin 6)))
    (net (code 94) (name /PWM_UL)
      (node (ref P11) (pin 8))
      (node (ref E4) (pin 8)))
    (net (code 95) (name "Net-(U8-Pad2)")
      (node (ref U8) (pin 2)))
    (net (code 96) (name "Net-(U8-Pad4)")
      (node (ref U8) (pin 4)))
    (net (code 97) (name "Net-(U7-Pad10)")
      (node (ref U7) (pin 10)))
    (net (code 98) (name "Net-(U7-Pad9)")
      (node (ref U7) (pin 9)))
    (net (code 99) (name "Net-(U7-Pad8)")
      (node (ref U7) (pin 8)))
    (net (code 100) (name "Net-(U7-Pad7)")
      (node (ref U7) (pin 7)))
    (net (code 101) (name "Net-(U10-Pad16)")
      (node (ref U10) (pin 16)))
    (net (code 103) (name "Net-(U10-Pad17)")
      (node (ref U10) (pin 17)))
    (net (code 104) (name "Net-(U10-Pad18)")
      (node (ref U10) (pin 18)))
    (net (code 105) (name "Net-(U1-Pad2)")
      (node (ref U1) (pin 2)))
    (net (code 106) (name "Net-(U1-Pad4)")
      (node (ref U1) (pin 4)))
    (net (code 107) (name "Net-(Q2-Pad2)")
      (node (ref Q2) (pin 2))
      (node (ref R25) (pin 2)))
    (net (code 108) (name "Net-(Q2-Pad4)")
      (node (ref R26) (pin 2))
      (node (ref Q2) (pin 4)))
    (net (code 109) (name "Net-(R25-Pad1)")
      (node (ref R25) (pin 1))
      (node (ref U11) (pin 18)))
    (net (code 110) (name +24V)
      (node (ref U11) (pin 2))
      (node (ref C20) (pin 1))
      (node (ref Q2) (pin 8))
      (node (ref Q2) (pin 7))
      (node (ref D6) (pin 1))
      (node (ref C19) (pin 1))
      (node (ref C13) (pin 1)))
    (net (code 111) (name "Net-(R26-Pad1)")
      (node (ref U11) (pin 17))
      (node (ref R26) (pin 1)))
    (net (code 112) (name "Net-(D9-Pad1)")
      (node (ref Q2) (pin 1))
      (node (ref Q2) (pin 6))
      (node (ref R27) (pin 2))
      (node (ref L1) (pin 1))
      (node (ref D9) (pin 1))
      (node (ref Q2) (pin 5)))
    (net (code 113) (name "Net-(R24-Pad2)")
      (node (ref U11) (pin 13))
      (node (ref R24) (pin 2)))
    (net (code 114) (name "Net-(R19-Pad2)")
      (node (ref W2) (pin 1))
      (node (ref R19) (pin 2))
      (node (ref U11) (pin 1)))
    (net (code 115) (name GND)
      (node (ref U5) (pin 3))
      (node (ref R22) (pin 2))
      (node (ref U5) (pin 8))
      (node (ref C6) (pin 2))
      (node (ref U6) (pin 3))
      (node (ref U6) (pin 7))
      (node (ref R21) (pin 1))
      (node (ref R17) (pin 1))
      (node (ref C15) (pin 2))
      (node (ref C14) (pin 2))
      (node (ref U11) (pin 10))
      (node (ref U11) (pin 11))
      (node (ref C13) (pin 2))
      (node (ref W1) (pin 1))
      (node (ref C18) (pin 2))
      (node (ref R19) (pin 1))
      (node (ref C16) (pin 2))
      (node (ref C17) (pin 1))
      (node (ref P13) (pin 1))
      (node (ref P1) (pin 6))
      (node (ref R14) (pin 1))
      (node (ref J19) (pin 11))
      (node (ref P2) (pin 6))
      (node (ref P12) (pin 9))
      (node (ref P12) (pin 3))
      (node (ref P12) (pin 5))
      (node (ref P11) (pin 1))
      (node (ref P11) (pin 2))
      (node (ref P11) (pin 4))
      (node (ref C11) (pin 2))
      (node (ref C12) (pin 2))
      (node (ref U8) (pin 3))
      (node (ref U8) (pin 5))
      (node (ref U1) (pin 5))
      (node (ref E4) (pin 7))
      (node (ref E3) (pin 7))
      (node (ref E4) (pin 2))
      (node (ref R1) (pin 1))
      (node (ref R12) (pin 2))
      (node (ref U10) (pin 6))
      (node (ref C4) (pin 2))
      (node (ref U4) (pin 3))
      (node (ref C5) (pin 2))
      (node (ref C10) (pin 1))
      (node (ref U7) (pin 15))
      (node (ref C9) (pin 1))
      (node (ref U1) (pin 3))
      (node (ref U10) (pin 26))
      (node (ref U10) (pin 30))
      (node (ref U10) (pin 12))
      (node (ref U10) (pin 14))
      (node (ref U9) (pin 1))
      (node (ref U3) (pin 7))
      (node (ref P4) (pin 1))
      (node (ref U3) (pin 9))
      (node (ref E3) (pin 2))
      (node (ref P5) (pin 1))
      (node (ref P7) (pin 1))
      (node (ref U3) (pin 8))
      (node (ref P8) (pin 1))
      (node (ref C3) (pin 2))
      (node (ref P10) (pin 1))
      (node (ref P6) (pin 1))
      (node (ref P9) (pin 1))
      (node (ref E1) (pin 2))
      (node (ref E1) (pin 7))
      (node (ref E2) (pin 7))
      (node (ref E2) (pin 2))
      (node (ref J18) (pin 1))
      (node (ref J7) (pin 1))
      (node (ref J9) (pin 1))
      (node (ref U2) (pin 4))
      (node (ref J13) (pin 1))
      (node (ref J15) (pin 1))
      (node (ref U2) (pin 8))
      (node (ref J11) (pin 1))
      (node (ref R5) (pin 1))
      (node (ref J17) (pin 1))
      (node (ref R8) (pin 1))
      (node (ref P3) (pin 1))
      (node (ref R6) (pin 1))
      (node (ref C2) (pin 2))
      (node (ref R7) (pin 1))
      (node (ref C1) (pin 2))
      (node (ref U3) (pin 3))
      (node (ref J5) (pin 1))
      (node (ref J3) (pin 1)))
    (net (code 116) (name "Net-(R20-Pad1)")
      (node (ref R20) (pin 1))
      (node (ref U11) (pin 9))
      (node (ref R21) (pin 2)))
    (net (code 117) (name "Net-(R16-Pad1)")
      (node (ref U11) (pin 8))
      (node (ref R16) (pin 1))
      (node (ref R17) (pin 2)))
    (net (code 118) (name "Net-(D8-Pad1)")
      (node (ref D8) (pin 1))
      (node (ref R24) (pin 1)))
    (net (code 119) (name "Net-(C17-Pad2)")
      (node (ref R18) (pin 2))
      (node (ref C17) (pin 2)))
    (net (code 120) (name "Net-(C18-Pad1)")
      (node (ref C18) (pin 1))
      (node (ref U11) (pin 5)))
    (net (code 121) (name "Net-(R18-Pad1)")
      (node (ref R18) (pin 1))
      (node (ref U11) (pin 4)))
    (net (code 122) (name "Net-(D7-Pad2)")
      (node (ref R23) (pin 2))
      (node (ref D7) (pin 2)))
    (net (code 123) (name /BatteryCharger/VL)
      (node (ref C15) (pin 1))
      (node (ref R23) (pin 1))
      (node (ref U11) (pin 12))
      (node (ref U11) (pin 3))
      (node (ref C14) (pin 1))
      (node (ref D8) (pin 2)))
    (net (code 124) (name "Net-(C16-Pad1)")
      (node (ref C16) (pin 1))
      (node (ref R15) (pin 2))
      (node (ref R16) (pin 2))
      (node (ref R20) (pin 2))
      (node (ref U11) (pin 7)))
    (net (code 125) (name "Net-(C21-Pad1)")
      (node (ref U11) (pin 19))
      (node (ref C21) (pin 1))
      (node (ref R27) (pin 1)))
    (net (code 126) (name "Net-(D10-Pad2)")
      (node (ref D10) (pin 2))
      (node (ref L1) (pin 2)))
    (net (code 127) (name "Net-(C22-Pad2)")
      (node (ref C22) (pin 2))
      (node (ref U11) (pin 15))
      (node (ref D10) (pin 1))
      (node (ref R28) (pin 1)))
    (net (code 128) (name "Net-(P13-Pad2)")
      (node (ref R15) (pin 1))
      (node (ref P13) (pin 2))
      (node (ref U11) (pin 6)))
    (net (code 129) (name "Net-(C21-Pad2)")
      (node (ref D7) (pin 1))
      (node (ref U11) (pin 20))
      (node (ref C21) (pin 2)))))