EESchema Schematic File Version 2
LIBS:Top_Battery_Plate-rescue
LIBS:power
LIBS:device
LIBS:transistors
LIBS:conn
LIBS:linear
LIBS:regul
LIBS:74xx
LIBS:cmos4000
LIBS:adc-dac
LIBS:memory
LIBS:xilinx
LIBS:microcontrollers
LIBS:dsp
LIBS:microchip
LIBS:analog_switches
LIBS:motorola
LIBS:texas
LIBS:intel
LIBS:audio
LIBS:interface
LIBS:digital-audio
LIBS:philips
LIBS:display
LIBS:cypress
LIBS:siliconi
LIBS:opto
LIBS:atmel
LIBS:contrib
LIBS:valves
LIBS:Sphere_lib
LIBS:Top_Battery_Plate-cache
EELAYER 25 0
EELAYER END
$Descr A3 16535 11693
encoding utf-8
Sheet 1 5
Title "Power Management Board"
Date "2017-10-10"
Rev "0.4"
Comp "DROP Lab, University of Michigan"
Comment1 "Designed by Eduardo Iscar"
Comment2 ""
Comment3 ""
Comment4 ""
$EndDescr
$Sheet
S 2050 10500 600  350 
U 57B5FC30
F0 "Bat_ina219" 60
F1 "ina219.sch" 60
F2 "SCL" I R 2650 10700 60 
F3 "SDA" I R 2650 10600 60 
F4 "IN+" I L 2050 10600 60 
F5 "IN-" I L 2050 10700 60 
$EndSheet
$Sheet
S 2050 8750 500  400 
U 57B82EA7
F0 "ina219_5" 60
F1 "ina219_5.sch" 60
F2 "SCL" I R 2550 8900 60 
F3 "SDA" I R 2550 9000 60 
F4 "IN+" I L 2050 9000 60 
F5 "IN-" I L 2050 8900 60 
$EndSheet
$Sheet
S 2050 9650 550  400 
U 57B83F54
F0 "ina219_3.3" 60
F1 "ina219_3.3.sch" 60
F2 "SCL" I R 2600 9750 60 
F3 "SDA" I R 2600 9900 60 
F4 "IN+" I L 2050 9850 60 
F5 "IN-" I L 2050 9750 60 
$EndSheet
$Comp
L GNDD #PWR01
U 1 1 5734F15F
P 9850 10350
F 0 "#PWR01" H 9850 10100 50  0001 C CNN
F 1 "GNDD" H 9850 10200 50  0000 C CNN
F 2 "" H 9850 10350 50  0000 C CNN
F 3 "" H 9850 10350 50  0000 C CNN
	1    9850 10350
	1    0    0    -1  
$EndComp
$Comp
L BatCont J3
U 1 1 5734F1AE
P 8800 10050
F 0 "J3" H 9100 10350 60  0000 C CNN
F 1 "BatCont" H 8800 10350 60  0000 C CNN
F 2 "Sphere_lib:Keystone_5224_Battery_Contact" H 8800 10050 60  0001 C CNN
F 3 "" H 8800 10050 60  0000 C CNN
F 4 "534-5202" H 7950 7550 50  0001 C CNN "Mouser#"
F 5 "J2" H 7950 7550 50  0001 C CNN "PartsLib#"
	1    8800 10050
	0    -1   -1   0   
$EndComp
$Comp
L BatCont J5
U 1 1 5734F296
P 9100 10050
F 0 "J5" H 9400 10350 60  0000 C CNN
F 1 "BatCont" H 9100 10350 60  0000 C CNN
F 2 "Sphere_lib:Keystone_5224_Battery_Contact" H 9100 10050 60  0001 C CNN
F 3 "" H 9100 10050 60  0000 C CNN
F 4 "534-5202" H 7950 7550 50  0001 C CNN "Mouser#"
F 5 "J2" H 7950 7550 50  0001 C CNN "PartsLib#"
	1    9100 10050
	0    -1   -1   0   
$EndComp
$Comp
L BatCont J11
U 1 1 5734F2C0
P 10000 10050
F 0 "J11" H 10300 10350 60  0000 C CNN
F 1 "BatCont" H 10000 10350 60  0000 C CNN
F 2 "Sphere_lib:Keystone_5224_Battery_Contact" H 10000 10050 60  0001 C CNN
F 3 "" H 10000 10050 60  0000 C CNN
F 4 "534-5202" H 7950 7550 50  0001 C CNN "Mouser#"
F 5 "J2" H 7950 7550 50  0001 C CNN "PartsLib#"
	1    10000 10050
	0    -1   -1   0   
$EndComp
$Comp
L BatCont J9
U 1 1 5734F2EB
P 9700 10050
F 0 "J9" H 10000 10350 60  0000 C CNN
F 1 "BatCont" H 9700 10350 60  0000 C CNN
F 2 "Sphere_lib:Keystone_5224_Battery_Contact" H 9700 10050 60  0001 C CNN
F 3 "" H 9700 10050 60  0000 C CNN
F 4 "534-5202" H 7950 7550 50  0001 C CNN "Mouser#"
F 5 "J2" H 7950 7550 50  0001 C CNN "PartsLib#"
	1    9700 10050
	0    -1   -1   0   
$EndComp
$Comp
L BatCont J7
U 1 1 5734F311
P 9400 10050
F 0 "J7" H 9700 10350 60  0000 C CNN
F 1 "BatCont" H 9400 10350 60  0000 C CNN
F 2 "Sphere_lib:Keystone_5224_Battery_Contact" H 9400 10050 60  0001 C CNN
F 3 "" H 9400 10050 60  0000 C CNN
F 4 "534-5202" H 7950 7550 50  0001 C CNN "Mouser#"
F 5 "J2" H 7950 7550 50  0001 C CNN "PartsLib#"
	1    9400 10050
	0    -1   -1   0   
$EndComp
$Comp
L BatCont J13
U 1 1 5734F3BE
P 10300 10050
F 0 "J13" H 10600 10350 60  0000 C CNN
F 1 "BatCont" H 10300 10350 60  0000 C CNN
F 2 "Sphere_lib:Keystone_5224_Battery_Contact" H 10300 10050 60  0001 C CNN
F 3 "" H 10300 10050 60  0000 C CNN
F 4 "534-5202" H 7950 7550 50  0001 C CNN "Mouser#"
F 5 "J2" H 7950 7550 50  0001 C CNN "PartsLib#"
	1    10300 10050
	0    -1   -1   0   
$EndComp
$Comp
L BatCont J15
U 1 1 5734F3F0
P 10600 10050
F 0 "J15" H 10900 10350 60  0000 C CNN
F 1 "BatCont" H 10600 10350 60  0000 C CNN
F 2 "Sphere_lib:Keystone_5224_Battery_Contact" H 10600 10050 60  0001 C CNN
F 3 "" H 10600 10050 60  0000 C CNN
F 4 "534-5202" H 7950 7550 50  0001 C CNN "Mouser#"
F 5 "J2" H 7950 7550 50  0001 C CNN "PartsLib#"
	1    10600 10050
	0    -1   -1   0   
$EndComp
$Comp
L BatCont J17
U 1 1 5734F41D
P 10900 10050
F 0 "J17" H 11200 10350 60  0000 C CNN
F 1 "BatCont" H 10900 10350 60  0000 C CNN
F 2 "Sphere_lib:Keystone_5224_Battery_Contact" H 10900 10050 60  0001 C CNN
F 3 "" H 10900 10050 60  0000 C CNN
F 4 "534-5202" H 7950 7550 50  0001 C CNN "Mouser#"
F 5 "J2" H 7950 7550 50  0001 C CNN "PartsLib#"
	1    10900 10050
	0    -1   -1   0   
$EndComp
$Comp
L BatCont J18
U 1 1 5734F44D
P 11200 10050
F 0 "J18" H 11500 10350 60  0000 C CNN
F 1 "BatCont" H 11200 10350 60  0000 C CNN
F 2 "Sphere_lib:Keystone_5224_Battery_Contact" H 11200 10050 60  0001 C CNN
F 3 "" H 11200 10050 60  0000 C CNN
F 4 "534-5202" H 7950 7550 50  0001 C CNN "Mouser#"
F 5 "J2" H 7950 7550 50  0001 C CNN "PartsLib#"
	1    11200 10050
	0    -1   -1   0   
$EndComp
$Comp
L BatCont J1
U 1 1 5734F7E7
P 8500 9150
F 0 "J1" H 8250 9150 60  0000 C CNN
F 1 "BatCont" H 8500 9150 60  0000 C CNN
F 2 "Sphere_lib:Keystone_5224_Battery_Contact" H 8500 9150 60  0001 C CNN
F 3 "" H 8500 9150 60  0000 C CNN
F 4 "534-5224" H 7950 7550 50  0001 C CNN "Mouser#"
F 5 "J1" H 7950 7550 50  0001 C CNN "PartsLib#"
	1    8500 9150
	0    1    1    0   
$EndComp
$Comp
L BatCont J2
U 1 1 5734F7ED
P 8800 9150
F 0 "J2" H 8550 9150 60  0000 C CNN
F 1 "BatCont" H 8800 9150 60  0000 C CNN
F 2 "Sphere_lib:Keystone_5224_Battery_Contact" H 8800 9150 60  0001 C CNN
F 3 "" H 8800 9150 60  0000 C CNN
F 4 "534-5224" H 7950 7550 50  0001 C CNN "Mouser#"
F 5 "J1" H 7950 7550 50  0001 C CNN "PartsLib#"
	1    8800 9150
	0    1    1    0   
$EndComp
$Comp
L BatCont J8
U 1 1 5734F7F3
P 9700 9150
F 0 "J8" H 9450 9150 60  0000 C CNN
F 1 "BatCont" H 9700 9150 60  0000 C CNN
F 2 "Sphere_lib:Keystone_5224_Battery_Contact" H 9700 9150 60  0001 C CNN
F 3 "" H 9700 9150 60  0000 C CNN
F 4 "534-5224" H 7950 7550 50  0001 C CNN "Mouser#"
F 5 "J1" H 7950 7550 50  0001 C CNN "PartsLib#"
	1    9700 9150
	0    1    1    0   
$EndComp
$Comp
L BatCont J6
U 1 1 5734F7F9
P 9400 9150
F 0 "J6" H 9150 9150 60  0000 C CNN
F 1 "BatCont" H 9400 9150 60  0000 C CNN
F 2 "Sphere_lib:Keystone_5224_Battery_Contact" H 9400 9150 60  0001 C CNN
F 3 "" H 9400 9150 60  0000 C CNN
F 4 "534-5224" H 7950 7550 50  0001 C CNN "Mouser#"
F 5 "J1" H 7950 7550 50  0001 C CNN "PartsLib#"
	1    9400 9150
	0    1    1    0   
$EndComp
$Comp
L BatCont J4
U 1 1 5734F7FF
P 9100 9150
F 0 "J4" H 8850 9150 60  0000 C CNN
F 1 "BatCont" H 9100 9150 60  0000 C CNN
F 2 "Sphere_lib:Keystone_5224_Battery_Contact" H 9100 9150 60  0001 C CNN
F 3 "" H 9100 9150 60  0000 C CNN
F 4 "534-5224" H 7950 7550 50  0001 C CNN "Mouser#"
F 5 "J1" H 7950 7550 50  0001 C CNN "PartsLib#"
	1    9100 9150
	0    1    1    0   
$EndComp
$Comp
L BatCont J10
U 1 1 5734F805
P 10000 9150
F 0 "J10" H 9700 9150 60  0000 C CNN
F 1 "BatCont" H 10000 9150 60  0000 C CNN
F 2 "Sphere_lib:Keystone_5224_Battery_Contact" H 10000 9150 60  0001 C CNN
F 3 "" H 10000 9150 60  0000 C CNN
F 4 "534-5224" H 7950 7550 50  0001 C CNN "Mouser#"
F 5 "J1" H 7950 7550 50  0001 C CNN "PartsLib#"
	1    10000 9150
	0    1    1    0   
$EndComp
$Comp
L BatCont J12
U 1 1 5734F80B
P 10300 9150
F 0 "J12" H 10000 9150 60  0000 C CNN
F 1 "BatCont" H 10300 9150 60  0000 C CNN
F 2 "Sphere_lib:Keystone_5224_Battery_Contact" H 10300 9150 60  0001 C CNN
F 3 "" H 10300 9150 60  0000 C CNN
F 4 "534-5224" H 7950 7550 50  0001 C CNN "Mouser#"
F 5 "J1" H 7950 7550 50  0001 C CNN "PartsLib#"
	1    10300 9150
	0    1    1    0   
$EndComp
$Comp
L BatCont J14
U 1 1 5734F811
P 10600 9150
F 0 "J14" H 10300 9150 60  0000 C CNN
F 1 "BatCont" H 10600 9150 60  0000 C CNN
F 2 "Sphere_lib:Keystone_5224_Battery_Contact" H 10600 9150 60  0001 C CNN
F 3 "" H 10600 9150 60  0000 C CNN
F 4 "534-5224" H 7950 7550 50  0001 C CNN "Mouser#"
F 5 "J1" H 7950 7550 50  0001 C CNN "PartsLib#"
	1    10600 9150
	0    1    1    0   
$EndComp
$Comp
L BatCont J16
U 1 1 5734F817
P 10900 9150
F 0 "J16" H 10600 9150 60  0000 C CNN
F 1 "BatCont" H 10900 9150 60  0000 C CNN
F 2 "Sphere_lib:Keystone_5224_Battery_Contact" H 10900 9150 60  0001 C CNN
F 3 "" H 10900 9150 60  0000 C CNN
F 4 "534-5224" H 7950 7550 50  0001 C CNN "Mouser#"
F 5 "J1" H 7950 7550 50  0001 C CNN "PartsLib#"
	1    10900 9150
	0    1    1    0   
$EndComp
$Comp
L +BATT #PWR02
U 1 1 5734FCDC
P 9850 8250
F 0 "#PWR02" H 9850 8100 50  0001 C CNN
F 1 "+BATT" H 9850 8390 50  0000 C CNN
F 2 "" H 9850 8250 50  0000 C CNN
F 3 "" H 9850 8250 50  0000 C CNN
	1    9850 8250
	1    0    0    -1  
$EndComp
$Comp
L ESC E1
U 1 1 57350E59
P 9850 2100
F 0 "E1" H 10050 2200 60  0000 C CNN
F 1 "ESC" H 9800 2200 60  0000 C CNN
F 2 "Sphere_lib:Afro_ESC_12A" H 9800 2300 60  0001 C CNN
F 3 "" H 9800 2300 60  0000 C CNN
	1    9850 2100
	1    0    0    -1  
$EndComp
$Comp
L ESC E2
U 1 1 57350FD1
P 9850 3000
F 0 "E2" H 10050 3100 60  0000 C CNN
F 1 "ESC" H 9800 3100 60  0000 C CNN
F 2 "Sphere_lib:Afro_ESC_12A" H 9800 3200 60  0001 C CNN
F 3 "" H 9800 3200 60  0000 C CNN
	1    9850 3000
	1    0    0    -1  
$EndComp
$Comp
L ESC E3
U 1 1 5735106F
P 9850 3900
F 0 "E3" H 10050 4000 60  0000 C CNN
F 1 "ESC" H 9800 4000 60  0000 C CNN
F 2 "Sphere_lib:Afro_ESC_12A" H 9800 4100 60  0001 C CNN
F 3 "" H 9800 4100 60  0000 C CNN
	1    9850 3900
	1    0    0    -1  
$EndComp
$Comp
L ESC E4
U 1 1 573510E4
P 9850 4750
F 0 "E4" H 10050 4850 60  0000 C CNN
F 1 "ESC" H 9800 4850 60  0000 C CNN
F 2 "Sphere_lib:Afro_ESC_12A" H 9800 4950 60  0001 C CNN
F 3 "" H 9800 4950 60  0000 C CNN
	1    9850 4750
	1    0    0    -1  
$EndComp
$Comp
L +BATT #PWR03
U 1 1 573568F0
P 1900 10550
F 0 "#PWR03" H 1900 10400 50  0001 C CNN
F 1 "+BATT" H 1900 10690 50  0000 C CNN
F 2 "" H 1900 10550 50  0000 C CNN
F 3 "" H 1900 10550 50  0000 C CNN
	1    1900 10550
	1    0    0    -1  
$EndComp
$Comp
L GNDD #PWR04
U 1 1 57356C74
P 1350 1750
F 0 "#PWR04" H 1350 1500 50  0001 C CNN
F 1 "GNDD" H 1350 1600 50  0000 C CNN
F 2 "" H 1350 1750 50  0000 C CNN
F 3 "" H 1350 1750 50  0000 C CNN
	1    1350 1750
	1    0    0    -1  
$EndComp
$Comp
L R R1
U 1 1 57356DB7
P 3350 1250
F 0 "R1" V 3430 1250 50  0000 C CNN
F 1 "1.6k" V 3350 1250 50  0000 C CNN
F 2 "Resistors_SMD:R_0805_HandSoldering" V 3280 1250 50  0001 C CNN
F 3 "" H 3350 1250 50  0000 C CNN
	1    3350 1250
	0    1    1    0   
$EndComp
$Comp
L GNDD #PWR05
U 1 1 57356E3D
P 3550 1550
F 0 "#PWR05" H 3550 1300 50  0001 C CNN
F 1 "GNDD" H 3550 1400 50  0000 C CNN
F 2 "" H 3550 1550 50  0000 C CNN
F 3 "" H 3550 1550 50  0000 C CNN
	1    3550 1550
	1    0    0    -1  
$EndComp
$Comp
L +5V #PWR06
U 1 1 5735703B
P 1900 8850
F 0 "#PWR06" H 1900 8700 50  0001 C CNN
F 1 "+5V" H 1900 8990 50  0000 C CNN
F 2 "" H 1900 8850 50  0000 C CNN
F 3 "" H 1900 8850 50  0000 C CNN
	1    1900 8850
	1    0    0    -1  
$EndComp
$Comp
L CP1 C2
U 1 1 5735725D
P 3650 1350
F 0 "C2" H 3675 1450 50  0000 L CNN
F 1 "188uF" H 3675 1250 50  0000 L CNN
F 2 "SMD_Packages:SMD-1206_Pol" H 3650 1350 50  0001 C CNN
F 3 "" H 3650 1350 50  0000 C CNN
	1    3650 1350
	1    0    0    -1  
$EndComp
$Comp
L CP1 C1
U 1 1 573575DD
P 1350 1200
F 0 "C1" V 1400 1050 50  0000 L CNN
F 1 "44uF" V 1500 1100 50  0000 L CNN
F 2 "SMD_Packages:SMD-1206_Pol" H 1350 1200 50  0001 C CNN
F 3 "" H 1350 1200 50  0000 C CNN
F 4 "81-GRM31CR61A476ME15L" H -2600 0   50  0001 C CNN "Mouser#"
F 5 "C2" H -2600 0   50  0001 C CNN "PartsLib#"
	1    1350 1200
	1    0    0    -1  
$EndComp
$Comp
L Recom_3.3_Reg_ U3
U 1 1 57364151
P 2500 2850
F 0 "U3" H 3000 3000 60  0000 C CNN
F 1 "Recom_3.3_Reg_" H 2500 3000 60  0000 C CNN
F 2 "Sphere_lib_footprint:R-78AAxx-1.0SMD" H 2500 2850 60  0001 C CNN
F 3 "" H 2500 2850 60  0000 C CNN
F 4 "919-R-78AA3.3-1SMD" H -2350 -600 50  0001 C CNN "Mouser#"
F 5 "U1" H -2350 -600 50  0001 C CNN "PartsLib#"
	1    2500 2850
	1    0    0    -1  
$EndComp
$Comp
L GNDD #PWR07
U 1 1 57364241
P 1950 2850
F 0 "#PWR07" H 1950 2600 50  0001 C CNN
F 1 "GNDD" H 1950 2700 50  0000 C CNN
F 2 "" H 1950 2850 50  0000 C CNN
F 3 "" H 1950 2850 50  0000 C CNN
	1    1950 2850
	1    0    0    -1  
$EndComp
$Comp
L +3.3V #PWR08
U 1 1 5736B43B
P 1950 9700
F 0 "#PWR08" H 1950 9550 50  0001 C CNN
F 1 "+3.3V" H 1950 9840 50  0000 C CNN
F 2 "" H 1950 9700 50  0000 C CNN
F 3 "" H 1950 9700 50  0000 C CNN
	1    1950 9700
	1    0    0    -1  
$EndComp
$Comp
L CP1 C3
U 1 1 5736B48D
P 3450 2500
F 0 "C3" H 3475 2600 50  0000 L CNN
F 1 "1uF" H 3475 2400 50  0000 L CNN
F 2 "SMD_Packages:SMD-1206_Pol" H 3450 2500 50  0001 C CNN
F 3 "" H 3450 2500 50  0000 C CNN
	1    3450 2500
	1    0    0    -1  
$EndComp
$Comp
L +5V #PWR09
U 1 1 573EB9ED
P 5800 6350
F 0 "#PWR09" H 5800 6200 50  0001 C CNN
F 1 "+5V" H 5800 6490 50  0000 C CNN
F 2 "" H 5800 6350 50  0000 C CNN
F 3 "" H 5800 6350 50  0000 C CNN
	1    5800 6350
	1    0    0    -1  
$EndComp
$Comp
L GNDD #PWR010
U 1 1 573EBE7B
P 6450 5850
F 0 "#PWR010" H 6450 5600 50  0001 C CNN
F 1 "GNDD" H 6450 5700 50  0000 C CNN
F 2 "" H 6450 5850 50  0000 C CNN
F 3 "" H 6450 5850 50  0000 C CNN
	1    6450 5850
	1    0    0    -1  
$EndComp
$Comp
L +3.3V #PWR011
U 1 1 573EC39A
P 6000 6250
F 0 "#PWR011" H 6000 6100 50  0001 C CNN
F 1 "+3.3V" H 6000 6390 50  0000 C CNN
F 2 "" H 6000 6250 50  0000 C CNN
F 3 "" H 6000 6250 50  0000 C CNN
	1    6000 6250
	1    0    0    -1  
$EndComp
$Comp
L GNDD #PWR012
U 1 1 573F7F34
P 7400 9700
F 0 "#PWR012" H 7400 9450 50  0001 C CNN
F 1 "GNDD" H 7400 9550 50  0000 C CNN
F 2 "" H 7400 9700 50  0000 C CNN
F 3 "" H 7400 9700 50  0000 C CNN
	1    7400 9700
	1    0    0    -1  
$EndComp
$Comp
L OKL2-T/20-W12_(DC/DC)_Murata U2
U 1 1 57356495
P 2650 1950
F 0 "U2" H 2650 1950 60  0000 C CNN
F 1 "OKL2-T/20-W12_(DC/DC)_Murata" H 2700 2050 60  0000 C CNN
F 2 "Sphere_lib_footprint:OLK2-T20-W12" H 2650 1950 60  0001 C CNN
F 3 "" H 2650 1950 60  0000 C CNN
F 4 "580-OKL2-T/20-W12P2C" H -2400 -200 50  0001 C CNN "Mouser#"
F 5 "U2" H -2400 -200 50  0001 C CNN "PartsLib#"
	1    2650 1950
	1    0    0    -1  
$EndComp
$Comp
L LED D1
U 1 1 5963FDF4
P 2500 6200
F 0 "D1" H 2500 6300 50  0000 C CNN
F 1 "LED" H 2500 6100 50  0000 C CNN
F 2 "Diodes_SMD:D_0603" H 2500 6200 50  0001 C CNN
F 3 "" H 2500 6200 50  0000 C CNN
F 4 "593-VAOL-S6GT4" H -1100 -150 50  0001 C CNN "Mouser#"
F 5 "D1" H -1100 -150 50  0001 C CNN "PartsLib#"
	1    2500 6200
	-1   0    0    1   
$EndComp
$Comp
L LED D2
U 1 1 5963FF10
P 2500 6500
F 0 "D2" H 2500 6600 50  0000 C CNN
F 1 "LED" H 2500 6400 50  0000 C CNN
F 2 "Diodes_SMD:D_0603" H 2500 6500 50  0001 C CNN
F 3 "" H 2500 6500 50  0000 C CNN
F 4 "593-VAOL-S6GT4" H -1100 -150 50  0001 C CNN "Mouser#"
F 5 "D1" H -1100 -150 50  0001 C CNN "PartsLib#"
	1    2500 6500
	-1   0    0    1   
$EndComp
$Comp
L LED D3
U 1 1 596400A8
P 2500 6800
F 0 "D3" H 2500 6900 50  0000 C CNN
F 1 "LED" H 2500 6700 50  0000 C CNN
F 2 "Diodes_SMD:D_0603" H 2500 6800 50  0001 C CNN
F 3 "" H 2500 6800 50  0000 C CNN
F 4 "593-VAOL-S6GT4" H -1100 -150 50  0001 C CNN "Mouser#"
F 5 "D1" H -1100 -150 50  0001 C CNN "PartsLib#"
	1    2500 6800
	-1   0    0    1   
$EndComp
$Comp
L LED D4
U 1 1 59640171
P 2500 7100
F 0 "D4" H 2500 7200 50  0000 C CNN
F 1 "LED" H 2500 7000 50  0000 C CNN
F 2 "Diodes_SMD:D_0603" H 2500 7100 50  0001 C CNN
F 3 "" H 2500 7100 50  0000 C CNN
F 4 "593-VAOL-S6GT4" H -1100 -150 50  0001 C CNN "Mouser#"
F 5 "D1" H -1100 -150 50  0001 C CNN "PartsLib#"
	1    2500 7100
	-1   0    0    1   
$EndComp
$Comp
L R R5
U 1 1 59640533
P 3000 6200
F 0 "R5" V 3080 6200 50  0000 C CNN
F 1 "280" V 3000 6200 50  0000 C CNN
F 2 "Resistors_SMD:R_0603_HandSoldering" V 2930 6200 50  0001 C CNN
F 3 "" H 3000 6200 50  0000 C CNN
	1    3000 6200
	0    1    1    0   
$EndComp
$Comp
L R R6
U 1 1 59640615
P 3000 6500
F 0 "R6" V 3080 6500 50  0000 C CNN
F 1 "75" V 3000 6500 50  0000 C CNN
F 2 "Resistors_SMD:R_0603_HandSoldering" V 2930 6500 50  0001 C CNN
F 3 "" H 3000 6500 50  0000 C CNN
	1    3000 6500
	0    1    1    0   
$EndComp
$Comp
L R R7
U 1 1 59640759
P 3000 6800
F 0 "R7" V 3080 6800 50  0000 C CNN
F 1 "150" V 3000 6800 50  0000 C CNN
F 2 "Resistors_SMD:R_0603_HandSoldering" V 2930 6800 50  0001 C CNN
F 3 "" H 3000 6800 50  0000 C CNN
	1    3000 6800
	0    1    1    0   
$EndComp
$Comp
L R R8
U 1 1 59640859
P 3000 7100
F 0 "R8" V 3080 7100 50  0000 C CNN
F 1 "280" V 3000 7100 50  0000 C CNN
F 2 "Resistors_SMD:R_0603_HandSoldering" V 2930 7100 50  0001 C CNN
F 3 "" H 3000 7100 50  0000 C CNN
	1    3000 7100
	0    1    1    0   
$EndComp
$Comp
L GNDD #PWR013
U 1 1 59640DA7
P 3250 7200
F 0 "#PWR013" H 3250 6950 50  0001 C CNN
F 1 "GNDD" H 3250 7050 50  0000 C CNN
F 2 "" H 3250 7200 50  0000 C CNN
F 3 "" H 3250 7200 50  0000 C CNN
	1    3250 7200
	1    0    0    -1  
$EndComp
$Comp
L +BATT #PWR014
U 1 1 596417A7
P 1950 6100
F 0 "#PWR014" H 1950 5950 50  0001 C CNN
F 1 "+BATT" H 1950 6240 50  0000 C CNN
F 2 "" H 1950 6100 50  0000 C CNN
F 3 "" H 1950 6100 50  0000 C CNN
	1    1950 6100
	1    0    0    -1  
$EndComp
$Comp
L +5V #PWR015
U 1 1 59641A78
P 1950 6450
F 0 "#PWR015" H 1950 6300 50  0001 C CNN
F 1 "+5V" H 1950 6590 50  0000 C CNN
F 2 "" H 1950 6450 50  0000 C CNN
F 3 "" H 1950 6450 50  0000 C CNN
	1    1950 6450
	1    0    0    -1  
$EndComp
$Comp
L +3.3V #PWR016
U 1 1 59641C66
P 1950 6750
F 0 "#PWR016" H 1950 6600 50  0001 C CNN
F 1 "+3.3V" H 1950 6890 50  0000 C CNN
F 2 "" H 1950 6750 50  0000 C CNN
F 3 "" H 1950 6750 50  0000 C CNN
	1    1950 6750
	1    0    0    -1  
$EndComp
$Comp
L +BATT #PWR017
U 1 1 59662EA8
P 750 900
F 0 "#PWR017" H 750 750 50  0001 C CNN
F 1 "+BATT" H 750 1040 50  0000 C CNN
F 2 "" H 750 900 50  0000 C CNN
F 3 "" H 750 900 50  0000 C CNN
	1    750  900 
	1    0    0    -1  
$EndComp
$Comp
L BSS138 Q1
U 1 1 59684713
P 14200 7800
F 0 "Q1" H 14400 7875 50  0000 L CNN
F 1 "BSS138" H 14400 7800 50  0000 L CNN
F 2 "TO_SOT_Packages_SMD:SOT-23" H 14400 7725 50  0001 L CIN
F 3 "" H 14200 7800 50  0000 L CNN
F 4 "512-BSS138" H 7000 3400 50  0001 C CNN "Mouser#"
F 5 "Q2" H 7000 3400 50  0001 C CNN "PartsLib#"
	1    14200 7800
	0    1    1    0   
$EndComp
$Comp
L R R13
U 1 1 596855DD
P 14700 7650
F 0 "R13" V 14780 7650 50  0000 C CNN
F 1 "10k" V 14700 7650 50  0000 C CNN
F 2 "Resistors_SMD:R_0603_HandSoldering" V 14630 7650 50  0001 C CNN
F 3 "" H 14700 7650 50  0000 C CNN
F 4 "755-ESR03EZPJ103" H 7000 3400 50  0001 C CNN "Mouser#"
F 5 "R6" H 7000 3400 50  0001 C CNN "PartsLib#"
	1    14700 7650
	1    0    0    -1  
$EndComp
$Comp
L +BATT #PWR018
U 1 1 59687744
P 14700 7400
F 0 "#PWR018" H 14700 7250 50  0001 C CNN
F 1 "+BATT" H 14700 7540 50  0000 C CNN
F 2 "" H 14700 7400 50  0000 C CNN
F 3 "" H 14700 7400 50  0000 C CNN
	1    14700 7400
	1    0    0    -1  
$EndComp
Text Label 10700 1350 2    60   ~ 0
M1_FR
Text Label 10700 1450 2    60   ~ 0
M2_FR
Text Label 10700 1550 2    60   ~ 0
M3_FR
Text Label 10700 2250 2    60   ~ 0
M1_FL
Text Label 10700 2350 2    60   ~ 0
M2_FL
Text Label 10700 2450 2    60   ~ 0
M3_FL
Text Label 10700 3150 2    60   ~ 0
M1_UR
Text Label 10700 3250 2    60   ~ 0
M2_UR
Text Label 10700 3350 2    60   ~ 0
M3_UR
Text Label 10700 4000 2    60   ~ 0
M1_UL
Text Label 10700 4100 2    60   ~ 0
M2_UL
Text Label 10700 4200 2    60   ~ 0
M3_UL
Text Label 7000 10500 2    60   ~ 0
M1_FR
Text Label 7000 10400 2    60   ~ 0
M2_FR
Text Label 5550 9900 0    60   ~ 0
M1_FL
Text Label 5550 10000 0    60   ~ 0
M2_FL
Text Label 5550 10100 0    60   ~ 0
M3_FL
Text Label 5550 10200 0    60   ~ 0
M1_UR
Text Label 5550 10400 0    60   ~ 0
M2_UR
Text Label 5550 10300 0    60   ~ 0
M3_UR
Text Label 7000 10200 2    60   ~ 0
M1_UL
Text Label 7000 10100 2    60   ~ 0
M2_UL
Text Label 7000 10000 2    60   ~ 0
M3_UL
Text Label 1700 1100 0    60   ~ 0
Reg_On/Off
Text Label 7000 10300 2    60   ~ 0
M3_FR
Text Label 9150 1800 0    60   ~ 0
PWM_FR
Text Label 9150 2700 0    60   ~ 0
PWM_FL
Text Label 9150 3600 0    60   ~ 0
PWM_UR
Text Label 9100 4450 0    60   ~ 0
PWM_UL
Text Label 7100 6500 2    60   ~ 0
PWM_UL
Text Label 7100 6800 2    60   ~ 0
PWM_UR
Text Label 5800 6800 0    60   ~ 0
PWM_FL
Text Label 7100 6400 2    60   ~ 0
PWM_FR
Text Label 7100 1900 2    60   ~ 0
D_Out+
Text Label 7100 2100 2    60   ~ 0
D_out-
Text Label 5800 6700 0    60   ~ 0
SCL
Text Label 5800 6600 0    60   ~ 0
SDA
Text Label 5550 9800 0    60   ~ 0
D_out-
Text Label 5550 9700 0    60   ~ 0
D_Out+
Text Label 2900 10600 2    60   ~ 0
SDA
Text Label 2900 10700 2    60   ~ 0
SCL
Text Label 2800 9900 2    60   ~ 0
SDA
Text Label 2800 9750 2    60   ~ 0
SCL
Text Label 2850 8900 2    60   ~ 0
SCL
Text Label 2850 9000 2    60   ~ 0
SDA
Text Label 1800 7100 0    60   ~ 0
ESC_POWER
Text Label 1300 10700 0    60   ~ 0
ESC_POWER
Text Label 9100 1100 0    60   ~ 0
ESC_POWER
Text Label 14950 7900 0    60   ~ 0
Reg_On/Off
NoConn ~ 2150 1650
NoConn ~ 3100 2350
$Comp
L CONN_01X01 P3
U 1 1 59855690
P 12950 9300
F 0 "P3" H 13100 9300 50  0000 C CNN
F 1 "CONN_01X01" H 12950 9200 50  0001 C CNN
F 2 "Mounting_Holes:MountingHole_3.2mm_M3_Pad" H 12950 9300 50  0001 C CNN
F 3 "" H 12950 9300 50  0000 C CNN
	1    12950 9300
	0    1    1    0   
$EndComp
$Comp
L CONN_01X01 P4
U 1 1 59855D04
P 13100 9300
F 0 "P4" H 13250 9300 50  0000 C CNN
F 1 "CONN_01X01" H 13100 9200 50  0001 C CNN
F 2 "Mounting_Holes:MountingHole_3.2mm_M3_Pad" H 13100 9300 50  0001 C CNN
F 3 "" H 13100 9300 50  0000 C CNN
	1    13100 9300
	0    1    1    0   
$EndComp
$Comp
L CONN_01X01 P5
U 1 1 59855E58
P 13250 9300
F 0 "P5" H 13400 9300 50  0000 C CNN
F 1 "CONN_01X01" H 13250 9200 50  0001 C CNN
F 2 "Mounting_Holes:MountingHole_3.2mm_M3_Pad" H 13250 9300 50  0001 C CNN
F 3 "" H 13250 9300 50  0000 C CNN
	1    13250 9300
	0    1    1    0   
$EndComp
$Comp
L CONN_01X01 P7
U 1 1 5985604B
P 13550 9300
F 0 "P7" H 13700 9300 50  0000 C CNN
F 1 "CONN_01X01" H 13550 9200 50  0001 C CNN
F 2 "Mounting_Holes:MountingHole_3.2mm_M3_Pad" H 13550 9300 50  0001 C CNN
F 3 "" H 13550 9300 50  0000 C CNN
	1    13550 9300
	0    1    1    0   
$EndComp
$Comp
L CONN_01X01 P8
U 1 1 5985A764
P 13700 9300
F 0 "P8" H 13850 9300 50  0000 C CNN
F 1 "CONN_01X01" H 13700 9200 50  0001 C CNN
F 2 "Mounting_Holes:MountingHole_3.2mm_M3_Pad" H 13700 9300 50  0001 C CNN
F 3 "" H 13700 9300 50  0000 C CNN
	1    13700 9300
	0    1    1    0   
$EndComp
$Comp
L CONN_01X01 P10
U 1 1 5985A95F
P 14000 9300
F 0 "P10" H 14150 9300 50  0000 C CNN
F 1 "CONN_01X01" H 14000 9200 50  0001 C CNN
F 2 "Mounting_Holes:MountingHole_3.2mm_M3_Pad" H 14000 9300 50  0001 C CNN
F 3 "" H 14000 9300 50  0000 C CNN
	1    14000 9300
	0    1    1    0   
$EndComp
$Comp
L CONN_01X01 P6
U 1 1 59855F51
P 13400 9300
F 0 "P6" H 13550 9300 50  0000 C CNN
F 1 "CONN_01X01" H 13400 9200 50  0001 C CNN
F 2 "Mounting_Holes:MountingHole_3.2mm_M3_Pad" H 13400 9300 50  0001 C CNN
F 3 "" H 13400 9300 50  0000 C CNN
	1    13400 9300
	0    1    1    0   
$EndComp
$Comp
L CONN_01X01 P9
U 1 1 5985A860
P 13850 9300
F 0 "P9" H 14000 9300 50  0000 C CNN
F 1 "CONN_01X01" H 13850 9200 50  0001 C CNN
F 2 "Mounting_Holes:MountingHole_3.2mm_M3_Pad" H 13850 9300 50  0001 C CNN
F 3 "" H 13850 9300 50  0000 C CNN
	1    13850 9300
	0    1    1    0   
$EndComp
$Comp
L GNDD #PWR019
U 1 1 5986F915
P 14350 9000
F 0 "#PWR019" H 14350 8750 50  0001 C CNN
F 1 "GNDD" H 14350 8850 50  0000 C CNN
F 2 "" H 14350 9000 50  0000 C CNN
F 3 "" H 14350 9000 50  0000 C CNN
	1    14350 9000
	1    0    0    -1  
$EndComp
$Comp
L GNDD #PWR020
U 1 1 59DDAA2A
P 8900 4800
F 0 "#PWR020" H 8900 4550 50  0001 C CNN
F 1 "GNDD" H 8900 4650 50  0000 C CNN
F 2 "" H 8900 4800 50  0000 C CNN
F 3 "" H 8900 4800 50  0000 C CNN
	1    8900 4800
	1    0    0    -1  
$EndComp
NoConn ~ 9450 1600
NoConn ~ 9450 2500
NoConn ~ 9450 3400
NoConn ~ 9450 4250
Text Notes 12000 850  0    118  ~ 0
I2C to UART
Text Notes 11950 8600 0    118  ~ 0
Mounting Holes
Text Notes 8250 7550 0    118  ~ 0
Battery Terminals
Text Notes 8300 850  0    118  ~ 0
Motor Electronic Speed Controlers
Text Label 1500 9850 0    60   ~ 0
3.3V-noreg
Text Label 4000 2150 2    60   ~ 0
3.3V-noreg
Text Label 1500 9000 0    60   ~ 0
5V-noreg
Text Label 4200 1000 2    60   ~ 0
5V-noreg
Text Notes 750  8000 0    118  ~ 0
Current Measurement
Text Notes 650  700  0    118  ~ 0
Power Regulation
Text Notes 4850 9200 0    118  ~ 0
Thruster and Ext. Sensor Connector
Text Notes 4850 5450 0    118  ~ 0
Board 2 Board Connector
Text Notes 600  5450 0    118  ~ 0
Power Indicator
NoConn ~ 6600 9900
NoConn ~ 5900 10500
NoConn ~ 2150 1200
NoConn ~ 3150 1350
$Comp
L MAX3232 U7
U 1 1 59FBA42B
P 6150 1950
F 0 "U7" H 6100 2650 118 0000 C CNN
F 1 "MAX3232" H 6150 1500 118 0000 C CNN
F 2 "Sphere_lib_footprint:SOIC16_MAX3232" H 6150 1950 118 0001 C CNN
F 3 "" H 6150 1950 118 0000 C CNN
	1    6150 1950
	1    0    0    -1  
$EndComp
$Comp
L C C7
U 1 1 59FBADF5
P 5300 1450
F 0 "C7" V 5250 1550 50  0000 L CNN
F 1 "0.1uF" V 5250 1150 50  0000 L CNN
F 2 "Capacitors_SMD:C_0603_HandSoldering" H 5338 1300 50  0001 C CNN
F 3 "" H 5300 1450 50  0000 C CNN
	1    5300 1450
	0    1    1    0   
$EndComp
$Comp
L C C8
U 1 1 59FBC7F7
P 5300 1650
F 0 "C8" V 5250 1750 50  0000 L CNN
F 1 "0.1uF" V 5250 1350 50  0000 L CNN
F 2 "Capacitors_SMD:C_0603_HandSoldering" H 5338 1500 50  0001 C CNN
F 3 "" H 5300 1650 50  0000 C CNN
	1    5300 1650
	0    1    1    0   
$EndComp
$Comp
L C C9
U 1 1 59FC0BE5
P 7050 1650
F 0 "C9" V 7000 1750 50  0000 L CNN
F 1 "0.1uF" V 7000 1350 50  0000 L CNN
F 2 "Capacitors_SMD:C_0603_HandSoldering" H 7088 1500 50  0001 C CNN
F 3 "" H 7050 1650 50  0000 C CNN
	1    7050 1650
	0    1    1    0   
$EndComp
$Comp
L C C10
U 1 1 59FC0D41
P 7400 1750
F 0 "C10" V 7350 1850 50  0000 L CNN
F 1 "0.1uF" V 7350 1450 50  0000 L CNN
F 2 "Capacitors_SMD:C_0603_HandSoldering" H 7438 1600 50  0001 C CNN
F 3 "" H 7400 1750 50  0000 C CNN
	1    7400 1750
	0    1    1    0   
$EndComp
$Comp
L GNDD #PWR021
U 1 1 59FC1286
P 7700 1800
F 0 "#PWR021" H 7700 1550 50  0001 C CNN
F 1 "GNDD" H 7700 1650 50  0000 C CNN
F 2 "" H 7700 1800 50  0000 C CNN
F 3 "" H 7700 1800 50  0000 C CNN
	1    7700 1800
	1    0    0    -1  
$EndComp
$Comp
L +3.3V #PWR022
U 1 1 59FC8A8F
P 6800 1300
F 0 "#PWR022" H 6800 1150 50  0001 C CNN
F 1 "+3.3V" H 6800 1440 50  0000 C CNN
F 2 "" H 6800 1300 50  0000 C CNN
F 3 "" H 6800 1300 50  0000 C CNN
	1    6800 1300
	1    0    0    -1  
$EndComp
Text Label 7100 6600 2    60   ~ 0
OUT_TX
Text Label 7100 6700 2    60   ~ 0
OUT_RX
Text Label 5150 2100 0    60   ~ 0
OUT_TX
Text Label 5150 1900 0    60   ~ 0
OUT_RX
NoConn ~ 5600 2000
NoConn ~ 5600 2200
NoConn ~ 6700 2200
NoConn ~ 6700 2000
NoConn ~ 50   9050
$Comp
L +BATT #PWR023
U 1 1 5967D680
P 12200 6200
F 0 "#PWR023" H 12200 6050 50  0001 C CNN
F 1 "+BATT" H 12200 6340 50  0000 C CNN
F 2 "" H 12200 6200 50  0000 C CNN
F 3 "" H 12200 6200 50  0000 C CNN
	1    12200 6200
	1    0    0    -1  
$EndComp
Text Label 12650 7200 2    60   ~ 0
Vbat_div
$Comp
L GNDD #PWR024
U 1 1 5967D462
P 12200 7650
F 0 "#PWR024" H 12200 7400 50  0001 C CNN
F 1 "GNDD" H 12200 7500 50  0000 C CNN
F 2 "" H 12200 7650 50  0000 C CNN
F 3 "" H 12200 7650 50  0000 C CNN
	1    12200 7650
	1    0    0    -1  
$EndComp
$Comp
L R R12
U 1 1 5967C811
P 12200 7450
F 0 "R12" V 12280 7450 50  0000 C CNN
F 1 "4.7k" V 12200 7450 50  0000 C CNN
F 2 "Resistors_SMD:R_0603_HandSoldering" V 12130 7450 50  0001 C CNN
F 3 "" H 12200 7450 50  0000 C CNN
F 4 "667-EJR-3EKF4701V" H 4800 4700 50  0001 C CNN "Mouser#"
F 5 "R8" H 4800 4700 50  0001 C CNN "PartsLib#"
	1    12200 7450
	1    0    0    -1  
$EndComp
$Comp
L R R11
U 1 1 5967C730
P 12200 6950
F 0 "R11" V 12280 6950 50  0000 C CNN
F 1 "4.7k" V 12200 6950 50  0000 C CNN
F 2 "Resistors_SMD:R_0603_HandSoldering" V 12130 6950 50  0001 C CNN
F 3 "" H 12200 6950 50  0000 C CNN
F 4 "667-EJR-3EKF4701V" H 4800 4700 50  0001 C CNN "Mouser#"
F 5 "R8" H 4800 4700 50  0001 C CNN "PartsLib#"
	1    12200 6950
	1    0    0    -1  
$EndComp
$Comp
L R R10
U 1 1 5967CA9F
P 12200 6450
F 0 "R10" V 12280 6450 50  0000 C CNN
F 1 "4.7k" V 12200 6450 50  0000 C CNN
F 2 "Resistors_SMD:R_0603_HandSoldering" V 12130 6450 50  0001 C CNN
F 3 "" H 12200 6450 50  0000 C CNN
F 4 "667-EJR-3EKF4701V" H 4800 4700 50  0001 C CNN "Mouser#"
F 5 "R8" H 4800 4700 50  0001 C CNN "PartsLib#"
	1    12200 6450
	1    0    0    -1  
$EndComp
$Comp
L R R9
U 1 1 596854D2
P 13700 7650
F 0 "R9" V 13780 7650 50  0000 C CNN
F 1 "10k" V 13700 7650 50  0000 C CNN
F 2 "Resistors_SMD:R_0603_HandSoldering" V 13630 7650 50  0001 C CNN
F 3 "" H 13700 7650 50  0000 C CNN
F 4 "755-ESR03EZPJ103" H 7000 3400 50  0001 C CNN "Mouser#"
F 5 "R6" H 7000 3400 50  0001 C CNN "PartsLib#"
	1    13700 7650
	1    0    0    -1  
$EndComp
$Comp
L NINAB1 U10
U 1 1 5B60D4F4
P 13750 3050
F 0 "U10" H 13600 3950 118 0000 C CNN
F 1 "NINAB1" H 13750 2150 118 0000 C CNN
F 2 "Sphere_lib_footprint:NINAB1" H 13800 2650 118 0001 C CNN
F 3 "" H 13800 2650 118 0000 C CNN
	1    13750 3050
	1    0    0    -1  
$EndComp
$Comp
L NCP565 U9
U 1 1 5B60D887
P 13050 1350
F 0 "U9" H 13000 1650 118 0000 C CNN
F 1 "NCP565" H 13100 1200 118 0000 C CNN
F 2 "Sphere_lib_footprint:SOT223" H 13050 1350 118 0001 C CNN
F 3 "" H 13050 1350 118 0000 C CNN
	1    13050 1350
	1    0    0    -1  
$EndComp
$Comp
L CC3-0512SR-E_5V-12_DC/DC_ U1
U 1 1 5B611DFA
P 2700 3450
F 0 "U1" H 2700 3900 60  0000 C CNN
F 1 "CC3-0512SR-E_5V-12_DC/DC_" H 2650 3000 60  0000 C CNN
F 2 "Sphere_lib_footprint:CC3-xxxxxR-E_(DCDC-Converter)" H 2700 3450 60  0001 C CNN
F 3 "" H 2700 3450 60  0000 C CNN
	1    2700 3450
	1    0    0    -1  
$EndComp
$Comp
L CC6-0512SR-E_5V-12_DC/DC_ U8
U 1 1 5B611FD3
P 2700 4550
F 0 "U8" H 2700 5000 60  0000 C CNN
F 1 "CC6-0512SR-E_5V-12_DC/DC_" H 2750 4100 60  0000 C CNN
F 2 "Sphere_lib_footprint:CC6-xxxxxR-E_(DCDC-Converter)" H 2700 4550 60  0001 C CNN
F 3 "" H 2700 4550 60  0000 C CNN
	1    2700 4550
	1    0    0    -1  
$EndComp
$Comp
L GNDD #PWR025
U 1 1 5B61BA7E
P 1400 3850
F 0 "#PWR025" H 1400 3600 50  0001 C CNN
F 1 "GNDD" H 1400 3700 50  0000 C CNN
F 2 "" H 1400 3850 50  0000 C CNN
F 3 "" H 1400 3850 50  0000 C CNN
	1    1400 3850
	1    0    0    -1  
$EndComp
Wire Wire Line
	8650 10250 11050 10250
Wire Wire Line
	11050 10250 11050 10100
Wire Wire Line
	10750 10100 10750 10250
Wire Wire Line
	10450 10100 10450 10250
Wire Wire Line
	10150 10100 10150 10250
Wire Wire Line
	9850 10100 9850 10350
Wire Wire Line
	9550 10100 9550 10250
Wire Wire Line
	9250 10100 9250 10250
Wire Wire Line
	8950 10100 8950 10250
Wire Wire Line
	8650 8300 11050 8300
Wire Wire Line
	8650 8300 8650 9100
Wire Wire Line
	11050 8300 11050 9100
Wire Wire Line
	10750 8300 10750 9100
Wire Wire Line
	10150 8300 10150 9100
Wire Wire Line
	9850 8250 9850 9100
Wire Wire Line
	9550 8300 9550 9100
Wire Wire Line
	9250 8300 9250 9100
Wire Wire Line
	8950 8300 8950 9100
Wire Wire Line
	9100 1100 9100 4000
Wire Wire Line
	9100 1350 9450 1350
Wire Wire Line
	9100 2250 9450 2250
Wire Wire Line
	9100 3150 9450 3150
Wire Wire Line
	9100 4000 9450 4000
Wire Wire Line
	8900 4100 9450 4100
Wire Wire Line
	8900 3250 9450 3250
Wire Wire Line
	8900 2350 9450 2350
Wire Wire Line
	9450 1700 8900 1700
Wire Wire Line
	8900 2600 9450 2600
Wire Wire Line
	8900 3500 9450 3500
Wire Wire Line
	8900 4350 9450 4350
Wire Wire Line
	10350 1350 10700 1350
Wire Wire Line
	10350 1450 10700 1450
Wire Wire Line
	10350 1550 10700 1550
Wire Wire Line
	10350 2250 10700 2250
Wire Wire Line
	10350 2350 10700 2350
Wire Wire Line
	10350 2450 10700 2450
Wire Wire Line
	10350 3150 10700 3150
Wire Wire Line
	10350 3250 10700 3250
Wire Wire Line
	10350 3350 10700 3350
Wire Wire Line
	10350 4000 10700 4000
Wire Wire Line
	10350 4100 10700 4100
Wire Wire Line
	10350 4200 10700 4200
Wire Wire Line
	5550 10100 5900 10100
Wire Wire Line
	5550 10200 5900 10200
Wire Wire Line
	5550 10300 5900 10300
Wire Wire Line
	5550 10400 5900 10400
Wire Wire Line
	6600 10100 7000 10100
Wire Wire Line
	6600 10200 7000 10200
Wire Wire Line
	6600 10300 7000 10300
Wire Wire Line
	6600 10400 7000 10400
Wire Wire Line
	6600 10500 7000 10500
Wire Wire Line
	5350 9600 5900 9600
Wire Wire Line
	5900 9900 5550 9900
Wire Wire Line
	5900 10000 5550 10000
Wire Wire Line
	6600 9600 7400 9600
Wire Wire Line
	6600 10000 7000 10000
Wire Wire Line
	1700 1100 2150 1100
Wire Wire Line
	2150 2450 1950 2450
Wire Wire Line
	2150 2550 1950 2550
Wire Wire Line
	3100 2550 3150 2550
Wire Wire Line
	3100 2450 3150 2450
Wire Wire Line
	2100 2250 2150 2250
Wire Wire Line
	750  2150 2150 2150
Wire Wire Line
	2150 2350 1650 2350
Wire Wire Line
	3100 2250 3200 2250
Wire Wire Line
	3200 2250 3200 2150
Wire Wire Line
	3150 1100 3650 1100
Wire Wire Line
	1350 1450 2150 1450
Wire Wire Line
	2000 1300 2000 1450
Wire Wire Line
	10450 9100 10450 8300
Wire Wire Line
	8900 1450 8900 4800
Wire Wire Line
	5800 6500 6200 6500
Wire Wire Line
	6700 6800 7100 6800
Wire Wire Line
	6700 6700 7100 6700
Wire Wire Line
	9450 4450 9100 4450
Wire Wire Line
	9450 3600 9150 3600
Wire Wire Line
	9150 2700 9450 2700
Wire Wire Line
	9450 1800 9150 1800
Wire Wire Line
	6700 6400 7100 6400
Wire Wire Line
	7400 9600 7400 9700
Wire Wire Line
	6200 6400 5800 6400
Wire Wire Line
	5800 6800 6200 6800
Wire Wire Line
	6200 5800 6200 6200
Wire Wire Line
	6700 5800 6700 6300
Wire Wire Line
	6700 6600 7100 6600
Wire Wire Line
	6700 6500 7100 6500
Wire Wire Line
	5800 6350 5800 6500
Wire Wire Line
	2650 10600 2900 10600
Wire Wire Line
	2900 10700 2650 10700
Wire Wire Line
	1900 10550 1900 10600
Wire Wire Line
	1900 10600 2050 10600
Wire Wire Line
	3450 2150 3450 2350
Wire Wire Line
	1950 9700 1950 9750
Wire Wire Line
	1950 9750 2050 9750
Wire Wire Line
	2600 9750 2800 9750
Wire Wire Line
	2600 9900 2800 9900
Wire Wire Line
	3500 1250 3550 1250
Wire Wire Line
	3550 1250 3550 1550
Wire Wire Line
	3650 1500 3550 1500
Wire Wire Line
	3150 1000 4200 1000
Wire Wire Line
	3650 1000 3650 1200
Wire Wire Line
	1900 8900 2050 8900
Wire Wire Line
	1500 9000 2050 9000
Wire Wire Line
	2550 8900 2850 8900
Wire Wire Line
	2550 9000 2850 9000
Wire Wire Line
	2700 6200 2850 6200
Wire Wire Line
	2700 6500 2850 6500
Wire Wire Line
	2700 6800 2850 6800
Wire Wire Line
	2700 7100 2850 7100
Wire Wire Line
	3150 7100 3250 7100
Wire Wire Line
	3250 6200 3250 7200
Wire Wire Line
	3150 6800 3250 6800
Wire Wire Line
	3150 6500 3250 6500
Wire Wire Line
	3150 6200 3250 6200
Wire Wire Line
	2300 6200 1950 6200
Wire Wire Line
	2300 6500 1950 6500
Wire Wire Line
	2300 6800 1950 6800
Wire Wire Line
	1800 7100 2300 7100
Wire Wire Line
	1950 6200 1950 6100
Wire Wire Line
	1950 6500 1950 6450
Wire Wire Line
	1950 6800 1950 6750
Wire Wire Line
	3200 1250 3150 1250
Wire Wire Line
	750  1000 2150 1000
Wire Wire Line
	2050 10700 1300 10700
Wire Wire Line
	14150 7450 14150 7600
Wire Wire Line
	13550 7900 14000 7900
Wire Wire Line
	14400 7900 14950 7900
Wire Wire Line
	14700 7900 14700 7800
Wire Wire Line
	14700 7400 14700 7500
Connection ~ 10750 10250
Connection ~ 10450 10250
Connection ~ 10150 10250
Connection ~ 9850 10250
Connection ~ 9550 10250
Connection ~ 9250 10250
Connection ~ 8950 10250
Connection ~ 10750 8300
Connection ~ 10450 8300
Connection ~ 10150 8300
Connection ~ 9850 8300
Connection ~ 9550 8300
Connection ~ 9250 8300
Connection ~ 8950 8300
Connection ~ 9100 1350
Connection ~ 9100 2250
Connection ~ 9100 3150
Connection ~ 8900 4100
Connection ~ 8900 3250
Connection ~ 8900 2350
Connection ~ 8900 1700
Connection ~ 8900 2600
Connection ~ 8900 3500
Connection ~ 8900 4350
Connection ~ 1950 2550
Connection ~ 3150 2550
Connection ~ 2100 2150
Connection ~ 3200 2150
Connection ~ 3150 2950
Connection ~ 6700 6200
Connection ~ 5800 6400
Connection ~ 3450 2950
Connection ~ 3450 2150
Connection ~ 3550 1500
Connection ~ 3650 1100
Connection ~ 3250 7100
Connection ~ 3250 6800
Connection ~ 3250 6500
Connection ~ 13700 7900
Connection ~ 14700 7900
Wire Wire Line
	12950 9100 12950 8950
Wire Wire Line
	12950 8950 14350 8950
Wire Wire Line
	14000 9100 14000 8950
Connection ~ 14000 8950
Wire Wire Line
	13850 9100 13850 8950
Connection ~ 13850 8950
Wire Wire Line
	13700 9100 13700 8950
Connection ~ 13700 8950
Wire Wire Line
	13550 9100 13550 8950
Connection ~ 13550 8950
Wire Wire Line
	13400 9100 13400 8950
Connection ~ 13400 8950
Wire Wire Line
	13250 9100 13250 8950
Connection ~ 13250 8950
Wire Wire Line
	13100 9100 13100 8950
Connection ~ 13100 8950
Wire Wire Line
	8650 10100 8650 10250
Wire Wire Line
	8900 1450 9450 1450
Wire Wire Line
	14350 8950 14350 9000
Wire Notes Line
	11800 11200 11800 500 
Wire Notes Line
	8150 500  8150 11200
Wire Notes Line
	4700 7300 11800 7300
Wire Wire Line
	3100 2150 4000 2150
Wire Wire Line
	1500 9850 2050 9850
Wire Wire Line
	1900 8850 1900 8900
Connection ~ 3650 1000
Wire Wire Line
	1350 1000 1350 1050
Wire Wire Line
	1350 1350 1350 1750
Connection ~ 1350 1450
Connection ~ 2000 1450
Wire Wire Line
	2000 1300 2150 1300
Wire Notes Line
	500  5200 11800 5200
Wire Notes Line
	4700 500  4700 11200
Wire Notes Line
	4700 8900 8150 8900
Wire Notes Line
	11800 8400 16050 8400
Wire Wire Line
	6200 6600 5800 6600
Wire Wire Line
	6200 6700 5800 6700
Wire Wire Line
	6000 6250 6000 6300
Wire Wire Line
	6000 6300 6200 6300
Wire Wire Line
	6200 5800 6700 5800
Wire Wire Line
	6450 5800 6450 5850
Connection ~ 6450 5800
Wire Wire Line
	5900 9700 5550 9700
Wire Wire Line
	5900 9800 5550 9800
Wire Notes Line
	4700 7750 500  7750
Wire Wire Line
	5600 1450 5450 1450
Wire Wire Line
	5150 1450 5050 1450
Wire Wire Line
	5050 1450 5050 1550
Wire Wire Line
	5050 1550 5600 1550
Wire Wire Line
	5600 1650 5450 1650
Wire Wire Line
	5150 1650 5050 1650
Wire Wire Line
	5050 1650 5050 1750
Wire Wire Line
	5050 1750 5600 1750
Wire Wire Line
	7250 1750 6700 1750
Wire Wire Line
	6900 1650 6700 1650
Wire Wire Line
	6700 1550 7700 1550
Wire Wire Line
	7700 1550 7700 1800
Wire Wire Line
	7550 1750 7700 1750
Connection ~ 7700 1750
Wire Wire Line
	7200 1650 7700 1650
Connection ~ 7700 1650
Wire Wire Line
	6800 1300 6800 1450
Wire Wire Line
	6800 1450 6700 1450
Wire Wire Line
	6700 2100 7100 2100
Wire Wire Line
	5600 2100 5150 2100
Wire Wire Line
	7100 1900 6700 1900
Wire Wire Line
	5600 1900 5150 1900
Wire Wire Line
	12200 6200 12200 6300
Wire Wire Line
	12200 6600 12200 6800
Connection ~ 12200 7200
Wire Wire Line
	12200 7600 12200 7650
Wire Wire Line
	12200 7200 12650 7200
Wire Wire Line
	12200 7100 12200 7300
Wire Wire Line
	13700 7800 13700 7900
Wire Wire Line
	13700 7450 14150 7450
Wire Wire Line
	13700 7400 13700 7500
Connection ~ 13700 7450
Connection ~ 1350 1000
Connection ~ 750  1000
Connection ~ 750  2150
Wire Wire Line
	2100 2250 2100 2150
Wire Wire Line
	750  3150 2150 3150
Connection ~ 750  3150
Wire Wire Line
	3150 2450 3150 2800
Wire Wire Line
	1950 2800 3450 2800
Wire Wire Line
	3450 2800 3450 2650
Connection ~ 3150 2800
Wire Wire Line
	1950 2450 1950 2850
Connection ~ 1950 2800
Wire Wire Line
	2150 3700 1400 3700
Wire Wire Line
	1400 3700 1400 3850
$Comp
L GNDD #PWR026
U 1 1 5B61BF1D
P 1400 4850
F 0 "#PWR026" H 1400 4600 50  0001 C CNN
F 1 "GNDD" H 1400 4700 50  0000 C CNN
F 2 "" H 1400 4850 50  0000 C CNN
F 3 "" H 1400 4850 50  0000 C CNN
	1    1400 4850
	1    0    0    -1  
$EndComp
Wire Wire Line
	2150 4800 1400 4800
Wire Wire Line
	1400 4800 1400 4850
$Comp
L GNDD #PWR027
U 1 1 5B61C191
P 3500 4850
F 0 "#PWR027" H 3500 4600 50  0001 C CNN
F 1 "GNDD" H 3500 4700 50  0000 C CNN
F 2 "" H 3500 4850 50  0000 C CNN
F 3 "" H 3500 4850 50  0000 C CNN
	1    3500 4850
	1    0    0    -1  
$EndComp
Wire Wire Line
	3250 4800 3500 4800
Wire Wire Line
	3500 4650 3500 4850
$Comp
L GNDD #PWR028
U 1 1 5B61C58B
P 3500 3850
F 0 "#PWR028" H 3500 3600 50  0001 C CNN
F 1 "GNDD" H 3500 3700 50  0000 C CNN
F 2 "" H 3500 3850 50  0000 C CNN
F 3 "" H 3500 3850 50  0000 C CNN
	1    3500 3850
	1    0    0    -1  
$EndComp
Wire Wire Line
	3250 3700 3500 3700
Wire Wire Line
	3500 3550 3500 3850
NoConn ~ 3250 3300
NoConn ~ 3250 4400
Wire Wire Line
	3250 3150 4200 3150
Wire Wire Line
	3250 4250 4200 4250
Wire Wire Line
	4200 4250 4200 4200
$Comp
L +BATT #PWR029
U 1 1 5B6221B3
P 12200 1100
F 0 "#PWR029" H 12200 950 50  0001 C CNN
F 1 "+BATT" H 12200 1240 50  0000 C CNN
F 2 "" H 12200 1100 50  0000 C CNN
F 3 "" H 12200 1100 50  0000 C CNN
	1    12200 1100
	1    0    0    -1  
$EndComp
Wire Wire Line
	12200 1100 12200 1200
Wire Wire Line
	12200 1200 12650 1200
$Comp
L GNDD #PWR030
U 1 1 5B623112
P 12200 1400
F 0 "#PWR030" H 12200 1150 50  0001 C CNN
F 1 "GNDD" H 12200 1250 50  0000 C CNN
F 2 "" H 12200 1400 50  0000 C CNN
F 3 "" H 12200 1400 50  0000 C CNN
	1    12200 1400
	1    0    0    -1  
$EndComp
Wire Wire Line
	12650 1350 12200 1350
Wire Wire Line
	12200 1350 12200 1400
Wire Wire Line
	13500 1200 14150 1200
Wire Wire Line
	13050 2450 12600 2450
Wire Wire Line
	12600 2450 12600 2350
Wire Wire Line
	12350 2350 13050 2350
Connection ~ 12600 2350
Text Label 14150 1200 2    59   ~ 0
NINAB1_3V3
Text Label 12350 2350 0    59   ~ 0
NINAB1_3V3
Text Label 14800 2650 2    59   ~ 0
MOSI
Text Label 14800 2750 2    59   ~ 0
MISO
Text Label 14800 2850 2    59   ~ 0
SCK
Text Label 14800 2950 2    59   ~ 0
CS
Text Label 12650 3350 0    59   ~ 0
SWDIO
Text Label 12650 3250 0    59   ~ 0
SWDCLK
Text Label 12650 3650 0    59   ~ 0
nReset
$Comp
L CP1 C11
U 1 1 5B62B094
P 3500 3400
F 0 "C11" H 3525 3500 50  0000 L CNN
F 1 "1uF" H 3525 3300 50  0000 L CNN
F 2 "SMD_Packages:SMD-1206_Pol" H 3500 3400 50  0001 C CNN
F 3 "" H 3500 3400 50  0000 C CNN
	1    3500 3400
	1    0    0    -1  
$EndComp
$Comp
L CP1 C12
U 1 1 5B62BFB3
P 3500 4500
F 0 "C12" H 3525 4600 50  0000 L CNN
F 1 "1uF" H 3525 4400 50  0000 L CNN
F 2 "SMD_Packages:SMD-1206_Pol" H 3500 4500 50  0001 C CNN
F 3 "" H 3500 4500 50  0000 C CNN
	1    3500 4500
	1    0    0    -1  
$EndComp
Connection ~ 3500 4800
Wire Wire Line
	3500 4350 3500 4250
Connection ~ 3500 4250
Wire Wire Line
	3500 3250 3500 3150
Connection ~ 3500 3150
Connection ~ 3500 3700
$Comp
L CONN_02X05 P12
U 1 1 5B62EA7F
P 13700 4700
F 0 "P12" H 13700 5000 50  0000 C CNN
F 1 "CONN_02X05" H 13700 4400 50  0000 C CNN
F 2 "Sphere_lib_footprint:ARM-SW-JTAG" H 13700 3500 50  0001 C CNN
F 3 "" H 13700 3500 50  0000 C CNN
	1    13700 4700
	1    0    0    -1  
$EndComp
Wire Wire Line
	13950 4500 14400 4500
Wire Wire Line
	13950 4600 14400 4600
Wire Wire Line
	13950 4700 14400 4700
Wire Wire Line
	13950 4800 14400 4800
Wire Wire Line
	13950 4900 14400 4900
Wire Wire Line
	13450 4500 12900 4500
Wire Wire Line
	12750 4600 13450 4600
Wire Wire Line
	12750 4700 13450 4700
Wire Wire Line
	13450 4800 12900 4800
Wire Wire Line
	12750 4900 13450 4900
Text Label 12900 4500 0    59   ~ 0
NINAB1_3V3
Text Label 14400 4500 2    59   ~ 0
SWDIO
Text Label 14400 4600 2    59   ~ 0
SWDCLK
Text Label 12650 3150 0    59   ~ 0
SWO
Text Label 14400 4700 2    59   ~ 0
SWO
NoConn ~ 14400 4800
Text Label 14400 4900 2    59   ~ 0
nReset
NoConn ~ 12900 4800
$Comp
L GNDD #PWR031
U 1 1 5B6315A7
P 12750 4950
F 0 "#PWR031" H 12750 4700 50  0001 C CNN
F 1 "GNDD" H 12750 4800 50  0000 C CNN
F 2 "" H 12750 4950 50  0000 C CNN
F 3 "" H 12750 4950 50  0000 C CNN
	1    12750 4950
	1    0    0    -1  
$EndComp
Wire Wire Line
	12750 4600 12750 4950
Connection ~ 12750 4900
Connection ~ 12750 4700
Wire Wire Line
	13050 3150 12650 3150
Wire Wire Line
	13050 3250 12650 3250
Wire Wire Line
	13050 3350 12650 3350
Wire Wire Line
	13050 3650 12650 3650
NoConn ~ 13050 3450
NoConn ~ 13050 3550
NoConn ~ 13050 3750
$Comp
L GNDD #PWR032
U 1 1 5B635DF7
P 14650 3800
F 0 "#PWR032" H 14650 3550 50  0001 C CNN
F 1 "GNDD" H 14650 3650 50  0000 C CNN
F 2 "" H 14650 3800 50  0000 C CNN
F 3 "" H 14650 3800 50  0000 C CNN
	1    14650 3800
	1    0    0    -1  
$EndComp
Wire Wire Line
	14450 3750 14650 3750
Wire Wire Line
	14650 3350 14650 3800
Wire Wire Line
	14450 3650 14650 3650
Connection ~ 14650 3750
Wire Wire Line
	14450 3550 14650 3550
Connection ~ 14650 3650
Wire Wire Line
	14450 3450 14650 3450
Connection ~ 14650 3550
Wire Wire Line
	14450 3350 14650 3350
Connection ~ 14650 3450
Text Label 12350 3050 0    59   ~ 0
5VEnable
Text Label 12350 2950 0    59   ~ 0
3V3Enable
Text Label 12350 2650 0    59   ~ 0
12VAltEnable
Text Label 12350 2550 0    59   ~ 0
12VCamEnable
Text Label 14800 3050 2    59   ~ 0
TX
Text Label 14800 3150 2    59   ~ 0
RX
Text Label 12350 2750 0    59   ~ 0
CameraTrigger
Text Label 12350 2850 0    59   ~ 0
LightsTrigger
Text Label 14800 3250 2    59   ~ 0
Led
Wire Wire Line
	14450 3250 14800 3250
Wire Wire Line
	14450 3150 14800 3150
Wire Wire Line
	14800 2650 14450 2650
Wire Wire Line
	14450 2750 14800 2750
Wire Wire Line
	14450 2850 14800 2850
Wire Wire Line
	14450 2950 14800 2950
Wire Wire Line
	14450 3050 14800 3050
Wire Wire Line
	13050 2550 12350 2550
Wire Wire Line
	12350 2650 13050 2650
Wire Wire Line
	12350 2750 13050 2750
Wire Wire Line
	12350 2850 13050 2850
Wire Wire Line
	12350 2950 13050 2950
Wire Wire Line
	12350 3050 13050 3050
Text Label 13700 7400 2    59   ~ 0
NINAB1_3V3
Text Label 13550 7900 2    59   ~ 0
5VEnable
$Comp
L CONN_02X10 P11
U 1 1 5B645CE8
P 6450 6650
F 0 "P11" H 6450 7200 50  0000 C CNN
F 1 "CONN_02X10" V 6450 6650 50  0000 C CNN
F 2 "Sphere_lib_footprint:Milligrid20pin" H 6450 5450 50  0001 C CNN
F 3 "" H 6450 5450 50  0000 C CNN
	1    6450 6650
	1    0    0    -1  
$EndComp
Text Label 7100 6900 2    59   ~ 0
MOSI
Text Label 7100 7000 2    59   ~ 0
MISO
Text Label 7100 7100 2    59   ~ 0
SCK
Text Label 5800 7100 0    59   ~ 0
CS
Text Label 5800 6900 0    59   ~ 0
TX
Text Label 5800 7000 0    59   ~ 0
RX
Wire Wire Line
	5800 6900 6200 6900
Wire Wire Line
	5800 7000 6200 7000
Wire Wire Line
	5800 7100 6200 7100
Wire Wire Line
	6700 6900 7100 6900
Wire Wire Line
	6700 7000 7100 7000
Wire Wire Line
	6700 7100 7100 7100
Text Notes 4900 7500 0    118  ~ 0
Camera Connectors
$Comp
L CONN_02X03 P2
U 1 1 5B64B437
P 6300 8450
F 0 "P2" H 6300 8650 50  0000 C CNN
F 1 "CONN_02X03" H 6300 8250 50  0000 C CNN
F 2 "Sphere_lib_footprint:Milligrid6pin" H 6300 7250 50  0001 C CNN
F 3 "" H 6300 7250 50  0000 C CNN
	1    6300 8450
	1    0    0    -1  
$EndComp
$Comp
L CONN_02X03 P1
U 1 1 5B64B5B5
P 6300 7800
F 0 "P1" H 6300 8000 50  0000 C CNN
F 1 "CONN_02X03" H 6300 7600 50  0000 C CNN
F 2 "Sphere_lib_footprint:Milligrid6pin" H 6300 6600 50  0001 C CNN
F 3 "" H 6300 6600 50  0000 C CNN
	1    6300 7800
	1    0    0    -1  
$EndComp
$Sheet
S 9250 5900 1250 700 
U 5B64CC9B
F0 "BatteryCharger" 61
F1 "battery_charger.sch" 59
F2 "BAT" I R 10500 6100 79 
F3 "PWR_GND" I L 9250 6450 79 
F4 "24Vin" I L 9250 6100 79 
F5 "GND" I R 10500 6450 79 
$EndSheet
$Comp
L LED D5
U 1 1 5B650BC2
P 13400 5650
F 0 "D5" H 13400 5750 50  0000 C CNN
F 1 "LED" H 13400 5550 50  0000 C CNN
F 2 "Diodes_SMD:D_0603" H 13400 5650 50  0001 C CNN
F 3 "" H 13400 5650 50  0000 C CNN
F 4 "593-VAOL-S6GT4" H 9800 -700 50  0001 C CNN "Mouser#"
F 5 "D1" H 9800 -700 50  0001 C CNN "PartsLib#"
	1    13400 5650
	-1   0    0    1   
$EndComp
$Comp
L R R14
U 1 1 5B651411
P 14050 5650
F 0 "R14" V 14130 5650 50  0000 C CNN
F 1 "280" V 14050 5650 50  0000 C CNN
F 2 "Resistors_SMD:R_0603_HandSoldering" V 13980 5650 50  0001 C CNN
F 3 "" H 14050 5650 50  0000 C CNN
	1    14050 5650
	0    1    1    0   
$EndComp
$Comp
L 2.0MM_W-TO-B_DUAL_CONN-RESCUE-Top_Battery_Plate J19
U 1 1 573CF1E5
P 5650 10700
F 0 "J19" H 6250 11900 60  0000 C CNN
F 1 "2.0MM_W-TO-B_DUAL_CONN" H 6050 10600 60  0000 C CNN
F 2 "Sphere_lib:2.0MM_W-TO-B_Dual_Conn_20_Pin" H 6100 10700 60  0000 C CNN
F 3 "" H 5650 10700 60  0000 C CNN
	1    5650 10700
	1    0    0    -1  
$EndComp
Wire Wire Line
	6600 9700 7350 9700
Wire Wire Line
	6600 9800 7250 9800
Text Label 7250 9800 2    59   ~ 0
PWR_GND
Text Label 7350 9700 2    59   ~ 0
Vin-Charge-24V
Text Label 8450 6100 0    59   ~ 0
Vin-Charge-24V
Wire Wire Line
	8450 6100 9250 6100
Wire Wire Line
	9250 6450 8550 6450
Wire Wire Line
	10500 6100 11100 6100
$Comp
L +BATT #PWR033
U 1 1 5B65A23F
P 11100 6050
F 0 "#PWR033" H 11100 5900 50  0001 C CNN
F 1 "+BATT" H 11100 6190 50  0000 C CNN
F 2 "" H 11100 6050 50  0000 C CNN
F 3 "" H 11100 6050 50  0000 C CNN
	1    11100 6050
	1    0    0    -1  
$EndComp
Wire Wire Line
	11100 6100 11100 6050
Text Label 8550 6450 0    59   ~ 0
PWR_GND
Wire Wire Line
	10500 6450 11000 6450
Wire Wire Line
	11000 6450 11000 6500
$Comp
L GNDD #PWR034
U 1 1 5B66017D
P 11000 6500
F 0 "#PWR034" H 11000 6250 50  0001 C CNN
F 1 "GNDD" H 11000 6350 50  0000 C CNN
F 2 "" H 11000 6500 50  0000 C CNN
F 3 "" H 11000 6500 50  0000 C CNN
	1    11000 6500
	1    0    0    -1  
$EndComp
Text Notes 8250 5450 0    118  ~ 0
Battery Charger
Wire Wire Line
	750  4250 2150 4250
Wire Wire Line
	750  900  750  4250
Text Label 1650 2350 0    59   ~ 0
3V3Enable
Text Label 7250 7700 2    59   ~ 0
CameraTrigger
Wire Wire Line
	7250 7700 6550 7700
Wire Wire Line
	6550 7900 7250 7900
$Comp
L GNDD #PWR035
U 1 1 5B66CF8D
P 7250 7900
F 0 "#PWR035" H 7250 7650 50  0001 C CNN
F 1 "GNDD" H 7250 7750 50  0000 C CNN
F 2 "" H 7250 7900 50  0000 C CNN
F 3 "" H 7250 7900 50  0000 C CNN
	1    7250 7900
	1    0    0    -1  
$EndComp
NoConn ~ 6550 7800
Wire Wire Line
	5500 7700 6050 7700
Text Label 4200 3150 2    59   ~ 0
12VAltimeter
Text Label 4200 4200 2    59   ~ 0
12VCameras
Text Label 5500 7700 0    59   ~ 0
12VCameras
$Comp
L GNDD #PWR036
U 1 1 5B66FF44
P 7300 8600
F 0 "#PWR036" H 7300 8350 50  0001 C CNN
F 1 "GNDD" H 7300 8450 50  0000 C CNN
F 2 "" H 7300 8600 50  0000 C CNN
F 3 "" H 7300 8600 50  0000 C CNN
	1    7300 8600
	1    0    0    -1  
$EndComp
Wire Wire Line
	6550 8550 7300 8550
Wire Wire Line
	7300 8550 7300 8600
Wire Wire Line
	6550 8350 7250 8350
Text Label 7250 8350 2    59   ~ 0
CameraTrigger
Text Label 5500 8350 0    59   ~ 0
12VCameras
Wire Wire Line
	5500 8350 6050 8350
NoConn ~ 6050 7800
NoConn ~ 6050 7900
NoConn ~ 6050 8450
NoConn ~ 6050 8550
NoConn ~ 6550 8450
Wire Notes Line
	4700 2950 8150 2950
Text Notes 4850 850  0    118  ~ 0
RS232 Converter
Text Label 5350 9600 0    59   ~ 0
12VAltimeter
Wire Wire Line
	13600 5650 13900 5650
$Comp
L GNDD #PWR037
U 1 1 5B683017
P 14450 5700
F 0 "#PWR037" H 14450 5450 50  0001 C CNN
F 1 "GNDD" H 14450 5550 50  0000 C CNN
F 2 "" H 14450 5700 50  0000 C CNN
F 3 "" H 14450 5700 50  0000 C CNN
	1    14450 5700
	1    0    0    -1  
$EndComp
Wire Wire Line
	14200 5650 14450 5650
Wire Wire Line
	14450 5650 14450 5700
Wire Wire Line
	12950 5650 13200 5650
Text Label 12950 5650 0    59   ~ 0
Led
$EndSCHEMATC
